{
  "fields": [
    {
      "name": "DATUM",
      "type": "date",
      "format": "%Y-%m-%d",
      "description": "Date (end of quarter)"
    },
    {
      "name": "JAHR",
      "type": "integer",
      "description": "Year"
    },
    {
      "name": "QUARTG",
      "type": "integer",
      "description": "Quarter"
    },
    {
      "name": "WERT08",
      "type": "string",
      "description": "Original and adjusted data"
    },
    {
      "name": "WZ08G2",
      "type": "string",
      "description": "Industries in national accounts"
    },
    {
      "name": "WIR001",
      "type": "number",
      "description": "GVA at current prices p.pers. in empl. (dom.conc.)"
    },
    {
      "name": "WIR002",
      "type": "number",
      "description": "GVA at cur.pr. p.h.wor.by pers.in empl.(dom.conc.)"
    },
    {
      "name": "PRO015",
      "type": "number",
      "description": "Lab.prod. per person in empl. (domestic concept)"
    },
    {
      "name": "PRO016",
      "type": "number",
      "description": "Lab.prod. per h.worked by pers.in empl.(dom.conc.)"
    },
    {
      "name": "KOS018",
      "type": "number",
      "description": "Compens. of empl. per employee (domestic concept)"
    },
    {
      "name": "KOS019",
      "type": "number",
      "description": "Compens. of empl. per employee hour (dom. concept)"
    },
    {
      "name": "VST038",
      "type": "number",
      "description": "Gross wages and salaries per employee (dom. conc.)"
    },
    {
      "name": "VST039",
      "type": "number",
      "description": "Gross wages and sal. per empl. hour (dom. concept)"
    },
    {
      "name": "KOS020",
      "type": "number",
      "description": "Unit labour costs per capita (domestic concept)"
    },
    {
      "name": "KOS021",
      "type": "number",
      "description": "Unit labour costs per hour (domestic concept)"
    }
  ]
}