{
  "fields": [
    {
      "name": "Year",
      "type": "integer"
    },
    {
      "name": "Afghanistan",
      "type": "number"
    },
    {
      "name": "Albania",
      "type": "number"
    },
    {
      "name": "Algeria",
      "type": "number"
    },
    {
      "name": "Andorra",
      "type": "number"
    },
    {
      "name": "Angola",
      "type": "number"
    },
    {
      "name": "Anguilla",
      "type": "number"
    },
    {
      "name": "Antigua and Barbuda",
      "type": "number"
    },
    {
      "name": "Argentina",
      "type": "number"
    },
    {
      "name": "Armenia",
      "type": "number"
    },
    {
      "name": "Aruba",
      "type": "number"
    },
    {
      "name": "Australia",
      "type": "number"
    },
    {
      "name": "Austria",
      "type": "number"
    },
    {
      "name": "Azerbaijan",
      "type": "number"
    },
    {
      "name": "Bahamas",
      "type": "number"
    },
    {
      "name": "Bahrain",
      "type": "number"
    },
    {
      "name": "Bangladesh",
      "type": "number"
    },
    {
      "name": "Barbados",
      "type": "number"
    },
    {
      "name": "Belarus",
      "type": "number"
    },
    {
      "name": "Belgium",
      "type": "number"
    },
    {
      "name": "Belize",
      "type": "number"
    },
    {
      "name": "Benin",
      "type": "number"
    },
    {
      "name": "Bermuda",
      "type": "number"
    },
    {
      "name": "Bhutan",
      "type": "number"
    },
    {
      "name": "Bonaire, Saint Eustatius and Saba",
      "type": "number"
    },
    {
      "name": "Bosnia and Herzegovina",
      "type": "number"
    },
    {
      "name": "Botswana",
      "type": "number"
    },
    {
      "name": "Brazil",
      "type": "number"
    },
    {
      "name": "British Virgin Islands",
      "type": "number"
    },
    {
      "name": "Brunei Darussalam",
      "type": "number"
    },
    {
      "name": "Bulgaria",
      "type": "number"
    },
    {
      "name": "Burkina Faso",
      "type": "number"
    },
    {
      "name": "Burundi",
      "type": "number"
    },
    {
      "name": "Cambodia",
      "type": "number"
    },
    {
      "name": "Canada",
      "type": "number"
    },
    {
      "name": "Cape Verde",
      "type": "number"
    },
    {
      "name": "Central African Republic",
      "type": "number"
    },
    {
      "name": "Chad",
      "type": "number"
    },
    {
      "name": "Chile",
      "type": "number"
    },
    {
      "name": "China",
      "type": "number"
    },
    {
      "name": "Colombia",
      "type": "number"
    },
    {
      "name": "Comoros",
      "type": "number"
    },
    {
      "name": "Congo",
      "type": "number"
    },
    {
      "name": "Cook Islands",
      "type": "number"
    },
    {
      "name": "Costa Rica",
      "type": "number"
    },
    {
      "name": "C\u00f4te d'Ivoire",
      "type": "number"
    },
    {
      "name": "Croatia",
      "type": "number"
    },
    {
      "name": "Cuba",
      "type": "number"
    },
    {
      "name": "Cura\u00e7ao",
      "type": "number"
    },
    {
      "name": "Cyprus",
      "type": "number"
    },
    {
      "name": "Czechia",
      "type": "number"
    },
    {
      "name": "North Korea",
      "type": "number"
    },
    {
      "name": "Democratic Republic of the Congo",
      "type": "number"
    },
    {
      "name": "Denmark",
      "type": "number"
    },
    {
      "name": "Djibouti",
      "type": "number"
    },
    {
      "name": "Dominica",
      "type": "number"
    },
    {
      "name": "Dominican Republic",
      "type": "number"
    },
    {
      "name": "Ecuador",
      "type": "number"
    },
    {
      "name": "Egypt",
      "type": "number"
    },
    {
      "name": "El Salvador",
      "type": "number"
    },
    {
      "name": "Equatorial Guinea",
      "type": "number"
    },
    {
      "name": "Eritrea",
      "type": "number"
    },
    {
      "name": "Estonia",
      "type": "number"
    },
    {
      "name": "Ethiopia",
      "type": "number"
    },
    {
      "name": "Faeroe Islands",
      "type": "number"
    },
    {
      "name": "Micronesia (Federated States of)",
      "type": "number"
    },
    {
      "name": "Fiji",
      "type": "number"
    },
    {
      "name": "Finland",
      "type": "number"
    },
    {
      "name": "France",
      "type": "number"
    },
    {
      "name": "French Polynesia",
      "type": "number"
    },
    {
      "name": "Gabon",
      "type": "number"
    },
    {
      "name": "Gambia",
      "type": "number"
    },
    {
      "name": "Georgia",
      "type": "number"
    },
    {
      "name": "Germany",
      "type": "number"
    },
    {
      "name": "Ghana",
      "type": "number"
    },
    {
      "name": "Greece",
      "type": "number"
    },
    {
      "name": "Greenland",
      "type": "number"
    },
    {
      "name": "Grenada",
      "type": "number"
    },
    {
      "name": "Guatemala",
      "type": "number"
    },
    {
      "name": "Guinea",
      "type": "number"
    },
    {
      "name": "Guinea-Bissau",
      "type": "number"
    },
    {
      "name": "Guyana",
      "type": "number"
    },
    {
      "name": "Haiti",
      "type": "number"
    },
    {
      "name": "Honduras",
      "type": "number"
    },
    {
      "name": "Hong Kong",
      "type": "number"
    },
    {
      "name": "Hungary",
      "type": "number"
    },
    {
      "name": "Iceland",
      "type": "number"
    },
    {
      "name": "India",
      "type": "number"
    },
    {
      "name": "Indonesia",
      "type": "number"
    },
    {
      "name": "Iraq",
      "type": "number"
    },
    {
      "name": "Ireland",
      "type": "number"
    },
    {
      "name": "Iran",
      "type": "number"
    },
    {
      "name": "Israel",
      "type": "number"
    },
    {
      "name": "Italy",
      "type": "number"
    },
    {
      "name": "Jamaica",
      "type": "number"
    },
    {
      "name": "Japan",
      "type": "number"
    },
    {
      "name": "Jordan",
      "type": "number"
    },
    {
      "name": "Kazakhstan",
      "type": "number"
    },
    {
      "name": "Kenya",
      "type": "number"
    },
    {
      "name": "Kiribati",
      "type": "number"
    },
    {
      "name": "Kosovo",
      "type": "number"
    },
    {
      "name": "Kuwait",
      "type": "number"
    },
    {
      "name": "Kyrgyzstan",
      "type": "number"
    },
    {
      "name": "Laos",
      "type": "number"
    },
    {
      "name": "Latvia",
      "type": "number"
    },
    {
      "name": "Lebanon",
      "type": "number"
    },
    {
      "name": "Lesotho",
      "type": "number"
    },
    {
      "name": "Liberia",
      "type": "number"
    },
    {
      "name": "Libya",
      "type": "number"
    },
    {
      "name": "Liechtenstein",
      "type": "number"
    },
    {
      "name": "Lithuania",
      "type": "number"
    },
    {
      "name": "Luxembourg",
      "type": "number"
    },
    {
      "name": "Macao",
      "type": "number"
    },
    {
      "name": "North Macedonia",
      "type": "number"
    },
    {
      "name": "Madagascar",
      "type": "number"
    },
    {
      "name": "Malawi",
      "type": "number"
    },
    {
      "name": "Malaysia",
      "type": "number"
    },
    {
      "name": "Maldives",
      "type": "number"
    },
    {
      "name": "Mali",
      "type": "number"
    },
    {
      "name": "Malta",
      "type": "number"
    },
    {
      "name": "Marshall Islands",
      "type": "number"
    },
    {
      "name": "Mauritania",
      "type": "number"
    },
    {
      "name": "Mauritius",
      "type": "number"
    },
    {
      "name": "Mexico",
      "type": "number"
    },
    {
      "name": "Mongolia",
      "type": "number"
    },
    {
      "name": "Montenegro",
      "type": "number"
    },
    {
      "name": "Montserrat",
      "type": "number"
    },
    {
      "name": "Morocco",
      "type": "number"
    },
    {
      "name": "Mozambique",
      "type": "number"
    },
    {
      "name": "Myanmar",
      "type": "number"
    },
    {
      "name": "Namibia",
      "type": "number"
    },
    {
      "name": "Nauru",
      "type": "number"
    },
    {
      "name": "Nepal",
      "type": "number"
    },
    {
      "name": "Netherlands",
      "type": "number"
    },
    {
      "name": "New Caledonia",
      "type": "number"
    },
    {
      "name": "New Zealand",
      "type": "number"
    },
    {
      "name": "Nicaragua",
      "type": "number"
    },
    {
      "name": "Niger",
      "type": "number"
    },
    {
      "name": "Nigeria",
      "type": "number"
    },
    {
      "name": "Niue",
      "type": "number"
    },
    {
      "name": "Norway",
      "type": "number"
    },
    {
      "name": "State of Palestine",
      "type": "number"
    },
    {
      "name": "Oman",
      "type": "number"
    },
    {
      "name": "Pakistan",
      "type": "number"
    },
    {
      "name": "Palau",
      "type": "number"
    },
    {
      "name": "Panama",
      "type": "number"
    },
    {
      "name": "Papua New Guinea",
      "type": "number"
    },
    {
      "name": "Paraguay",
      "type": "number"
    },
    {
      "name": "Peru",
      "type": "number"
    },
    {
      "name": "Philippines",
      "type": "number"
    },
    {
      "name": "Bolivia",
      "type": "number"
    },
    {
      "name": "Poland",
      "type": "number"
    },
    {
      "name": "Portugal",
      "type": "number"
    },
    {
      "name": "Qatar",
      "type": "number"
    },
    {
      "name": "Cameroon",
      "type": "number"
    },
    {
      "name": "South Korea",
      "type": "number"
    },
    {
      "name": "Moldova",
      "type": "number"
    },
    {
      "name": "South Sudan",
      "type": "number"
    },
    {
      "name": "Sudan",
      "type": "number"
    },
    {
      "name": "Romania",
      "type": "number"
    },
    {
      "name": "Russia",
      "type": "number"
    },
    {
      "name": "Rwanda",
      "type": "number"
    },
    {
      "name": "Saint Helena",
      "type": "number"
    },
    {
      "name": "Saint Lucia",
      "type": "number"
    },
    {
      "name": "Sint Maarten (Dutch part)",
      "type": "number"
    },
    {
      "name": "Samoa",
      "type": "number"
    },
    {
      "name": "Sao Tome and Principe",
      "type": "number"
    },
    {
      "name": "Saudi Arabia",
      "type": "number"
    },
    {
      "name": "Senegal",
      "type": "number"
    },
    {
      "name": "Serbia",
      "type": "number"
    },
    {
      "name": "Seychelles",
      "type": "number"
    },
    {
      "name": "Sierra Leone",
      "type": "number"
    },
    {
      "name": "Singapore",
      "type": "number"
    },
    {
      "name": "Slovakia",
      "type": "number"
    },
    {
      "name": "Slovenia",
      "type": "number"
    },
    {
      "name": "Solomon Islands",
      "type": "number"
    },
    {
      "name": "Somalia",
      "type": "number"
    },
    {
      "name": "South Africa",
      "type": "number"
    },
    {
      "name": "Spain",
      "type": "number"
    },
    {
      "name": "Sri Lanka",
      "type": "number"
    },
    {
      "name": "Saint Kitts and Nevis",
      "type": "number"
    },
    {
      "name": "Saint Pierre and Miquelon",
      "type": "number"
    },
    {
      "name": "Saint Vincent and the Grenadines",
      "type": "number"
    },
    {
      "name": "Suriname",
      "type": "number"
    },
    {
      "name": "Eswatini",
      "type": "number"
    },
    {
      "name": "Sweden",
      "type": "number"
    },
    {
      "name": "Switzerland",
      "type": "number"
    },
    {
      "name": "Syria",
      "type": "number"
    },
    {
      "name": "Taiwan",
      "type": "number"
    },
    {
      "name": "Tajikistan",
      "type": "number"
    },
    {
      "name": "Thailand",
      "type": "number"
    },
    {
      "name": "Timor-Leste",
      "type": "number"
    },
    {
      "name": "Togo",
      "type": "number"
    },
    {
      "name": "Tonga",
      "type": "number"
    },
    {
      "name": "Trinidad and Tobago",
      "type": "number"
    },
    {
      "name": "Tunisia",
      "type": "number"
    },
    {
      "name": "T\u00fcrkiye",
      "type": "number"
    },
    {
      "name": "Turkmenistan",
      "type": "number"
    },
    {
      "name": "Turks and Caicos Islands",
      "type": "number"
    },
    {
      "name": "Tuvalu",
      "type": "number"
    },
    {
      "name": "Uganda",
      "type": "number"
    },
    {
      "name": "Ukraine",
      "type": "number"
    },
    {
      "name": "United Arab Emirates",
      "type": "number"
    },
    {
      "name": "United Kingdom",
      "type": "number"
    },
    {
      "name": "Tanzania",
      "type": "number"
    },
    {
      "name": "USA",
      "type": "number"
    },
    {
      "name": "Uruguay",
      "type": "number"
    },
    {
      "name": "Uzbekistan",
      "type": "number"
    },
    {
      "name": "Vanuatu",
      "type": "number"
    },
    {
      "name": "Venezuela",
      "type": "number"
    },
    {
      "name": "Viet Nam",
      "type": "number"
    },
    {
      "name": "Wallis and Futuna Islands",
      "type": "number"
    },
    {
      "name": "Yemen",
      "type": "number"
    },
    {
      "name": "Zambia",
      "type": "number"
    },
    {
      "name": "Zimbabwe",
      "type": "number"
    },
    {
      "name": "KP Annex B",
      "type": "number"
    },
    {
      "name": "Non KP Annex B",
      "type": "number"
    },
    {
      "name": "OECD",
      "type": "number"
    },
    {
      "name": "Non-OECD",
      "type": "number"
    },
    {
      "name": "EU27",
      "type": "number"
    },
    {
      "name": "Africa",
      "type": "number"
    },
    {
      "name": "Asia",
      "type": "number"
    },
    {
      "name": "Central America",
      "type": "number"
    },
    {
      "name": "Europe",
      "type": "number"
    },
    {
      "name": "Middle East",
      "type": "number"
    },
    {
      "name": "North America",
      "type": "number"
    },
    {
      "name": "Oceania",
      "type": "number"
    },
    {
      "name": "South America",
      "type": "number"
    },
    {
      "name": "Bunkers",
      "type": "number"
    },
    {
      "name": "World",
      "type": "number"
    }
  ]
}