Country,ISO3166,IsShortname
Aruba,ABW,True
Afghanistan,AFG,True
Angola,AGO,True
Anguilla,AIA,True
Åland Islands,ALA,True
Albania,ALB,True
Andorra,AND,True
United Arab Emirates,ARE,True
Argentina,ARG,True
Sark,ARK,True
Armenia,ARM,True
American Samoa,ASM,True
Antarctica,ATA,True
French Southern Territories,ATF,True
Antigua and Barbuda,ATG,True
Australia,AUS,True
Austria,AUT,True
Azerbaijan,AZE,True
Burundi,BDI,True
Belgium,BEL,True
Benin,BEN,True
"Bonaire, Sint Eustatius and Saba",BES,False
"Bonaire, Saint Eustatius and Saba",BES,True
Burkina Faso,BFA,True
Bangladesh,BGD,True
Bulgaria,BGR,True
Bahrain,BHR,True
Bahamas,BHS,True
Bosnia and Herzegovina,BIH,True
Saint Barthélemy,BLM,True
Belarus,BLR,True
Belize,BLZ,True
Bermuda,BMU,True
Bolivia (Plurinational State of),BOL,True
Bolivia,BOL,True
Brazil,BRA,True
Barbados,BRB,True
Brunei Darussalam,BRN,True
Bhutan,BTN,True
Bouvet Island,BVT,True
Botswana,BWA,True
Central African Republic,CAF,True
Canada,CAN,True
Cocos (Keeling) Islands,CCK,True
Switzerland,CHE,True
Chile,CHL,True
China,CHN,True
Côte d’Ivoire,CIV,True
Cote d'Ivoire,CIV,False
Côte d'Ivoire,CIV,False
Cote d’Ivoire,CIV,False
Cameroon,CMR,True
Dem. Rep. Congo,COD,True
"Congo, Dem. Rep.",COD,False
Democratic Republic of the Congo,COD,False
Congo,COG,True
Cook Islands,COK,True
Colombia,COL,True
Comoros,COM,True
Cabo Verde,CPV,True
Cape Verde,CPV,False
Costa Rica,CRI,True
Cuba,CUB,True
Curacao,CUW,False
Curaçao,CUW,True
Christmas Island,CXR,True
Cayman Islands,CYM,True
Cyprus,CYP,True
Czech Republic,CZE,True
Czechia,CZE,False
Germany,DEU,True
Djibouti,DJI,True
Dominica,DMA,True
Denmark,DNK,True
Dominican Republic,DOM,True
Algeria,DZA,True
Ecuador,ECU,True
Egypt,EGY,True
"Egypt, Arab Rep.",EGY,False
Eritrea,ERI,True
Western Sahara,ESH,True
Spain,ESP,True
Estonia,EST,True
Ethiopia,ETH,True
Finland,FIN,True
Fiji,FJI,True
Falkland Islands (Malvinas),FLK,True
France,FRA,True
Faroe Islands,FRO,True
Faeroe Islands,FRO,False
Micronesia (Federated States of),FSM,True
Gabon,GAB,True
United Kingdom of Great Britain and Northern Ireland,GBR,False
United Kingdom,GBR,False
UK,GBR,True
Georgia,GEO,True
Guernsey,GGY,True
Ghana,GHA,True
Gibraltar,GIB,True
Guinea,GIN,True
Guadeloupe,GLP,True
Gambia,GMB,True
Guinea-Bissau,GNB,True
Equatorial Guinea,GNQ,True
Greece,GRC,True
Grenada,GRD,True
Greenland,GRL,True
Guatemala,GTM,True
French Guiana,GUF,True
Guam,GUM,True
Guyana,GUY,True
"China, Hong Kong Special Administrative Region",HKG,False
"Hong Kong SAR, China",HKG,False
Hong Kong,HKG,True
Heard Island and McDonald Islands,HMD,True
Honduras,HND,True
Croatia,HRV,True
Haiti,HTI,True
Hungary,HUN,True
Indonesia,IDN,True
Isle of Man,IMN,True
India,IND,True
British Indian Ocean Territory,IOT,True
Ireland,IRL,True
Iran,IRN,True
Iran (Islamic Republic of),IRN,False
Iraq,IRQ,True
Iceland,ISL,True
Israel,ISR,True
Italy,ITA,True
Jamaica,JAM,True
Jersey,JEY,True
Jordan,JOR,True
Japan,JPN,True
Kazakhstan,KAZ,True
Kenya,KEN,True
Kyrgyz Republic,KGZ,False
Kyrgyzstan,KGZ,True
Cambodia,KHM,True
Kiribati,KIR,True
Saint Kitts and Nevis,KNA,True
Republic of Korea,KOR,False
South Korea,KOR,True
Kuwait,KWT,True
Laos,LAO,True
Lao People's Democratic Republic,LAO,False
Lebanon,LBN,True
Liberia,LBR,True
Libya,LBY,True
Saint Lucia,LCA,True
Liechtenstein,LIE,True
Sri Lanka,LKA,True
Lesotho,LSO,True
Lithuania,LTU,True
Luxembourg,LUX,True
Latvia,LVA,True
"China, Macao Special Administrative Region",MAC,False
Macao,MAC,True
Saint Martin (French Part),MAF,True
Morocco,MAR,True
Monaco,MCO,True
Republic of Moldova,MDA,False
Moldova,MDA,True
Madagascar,MDG,True
Maldives,MDV,True
Mexico,MEX,True
Marshall Islands,MHL,True
North Macedonia,MKD,True
Mali,MLI,True
Malta,MLT,True
Myanmar,MMR,True
Montenegro,MNE,True
Mongolia,MNG,True
Northern Mariana Islands,MNP,True
Mozambique,MOZ,True
Mauritania,MRT,True
Montserrat,MSR,True
Martinique,MTQ,True
Mauritius,MUS,True
Malawi,MWI,True
Malaysia,MYS,True
Mayotte,MYT,True
Namibia,NAM,True
New Caledonia,NCL,True
Niger,NER,True
Norfolk Island,NFK,True
Nigeria,NGA,True
Nicaragua,NIC,True
Niue,NIU,True
Netherlands,NLD,True
Norway,NOR,True
Nepal,NPL,True
Nauru,NRU,True
New Zealand,NZL,True
Oman,OMN,True
Pakistan,PAK,True
Panama,PAN,True
Pitcairn,PCN,True
Peru,PER,True
Philippines,PHL,True
North Korea,PKR,True
Palau,PLW,True
Papua New Guinea,PNG,True
Poland,POL,True
Puerto Rico,PRI,True
Democratic People's Republic of Korea,PRK,True
Portugal,PRT,True
Paraguay,PRY,True
Occupied Palestinian Territory,PSE,False
State of Palestine,PSE,True
French Polynesia,PYF,True
Qatar,QAT,True
Réunion,REU,True
Romania,ROU,True
Russian Federation,RUS,False
Russia,RUS,True
Rwanda,RWA,True
Saudi Arabia,SAU,True
Sudan,SDN,True
Senegal,SEN,True
Singapore,SGP,True
South Georgia and the South Sandwich Islands,SGS,True
Saint Helena,SHN,True
Svalbard and Jan Mayen Islands,SJM,True
Solomon Islands,SLB,True
Sierra Leone,SLE,True
El Salvador,SLV,True
San Marino,SMR,True
Somalia,SOM,True
Saint Pierre and Miquelon,SPM,True
Serbia,SRB,True
South Sudan,SSD,True
Sao Tome and Principe,STP,True
Suriname,SUR,True
Slovak Republic,SVK,False
Slovakia,SVK,True
Slovenia,SVN,True
Sweden,SWE,True
Eswatini,SWZ,True
Swaziland,SWZ,False
Sint Maarten (Dutch part),SXM,True
Seychelles,SYC,True
Syria,SYR,True
Syrian Arab Republic,SYR,True
Turks and Caicos Islands,TCA,True
Chad,TCD,True
Togo,TGO,True
Thailand,THA,True
Tajikistan,TJK,True
Tokelau,TKL,True
Turkmenistan,TKM,True
Timor-Leste,TLS,True
Tonga,TON,True
Trinidad and Tobago,TTO,True
Tunisia,TUN,True
Turkiye,TUR,False
Turkey,TUR,True
Türkiye,TUR,True
Tuvalu,TUV,True
Republic of China,TWN,False
Taiwan,TWN,True
Tanzania,TZA,True
United Republic of Tanzania,TZA,False
Uganda,UGA,True
Ukraine,UKR,True
United States Minor Outlying Islands,UMI,True
Uruguay,URY,True
United States of America,USA,False
USA,USA,True
United States,USA,False
Uzbekistan,UZB,True
Holy See,VAT,True
Saint Vincent and the Grenadines,VCT,True
Venezuela (Bolivarian Republic of),VEN,False
"Venezuela, RB",VEN,False
Venezuela,VEN,True
British Virgin Islands,VGB,True
United States Virgin Islands,VIR,True
Viet Nam,VNM,False
Vietnam,VNM,True
Vanuatu,VUT,True
Wallis and Futuna Islands,WLF,True
Samoa,WSM,True
Kosovo,XXK,True
"Yemen, Rep.",YEM,False
Yemen,YEM,True
South Africa,ZAF,True
Zambia,ZMB,True
Zimbabwe,ZWE,True
