{
  "fields": [
    {
      "name": "Country",
      "type": "string"
    },
    {
      "name": "ISO3166",
      "type": "string"
    },
    {
      "name": "IsShortname",
      "type": "boolean"
    }
  ]
}