Date,Brandenburg/Berlin,Brandenburg,Baden-Wuerttemberg,Bayern,Hessen,Mecklenburg-Vorpommern,Niedersachsen,Niedersachsen/Hamburg/Bremen,Nordrhein-Westfalen,Rheinland-Pfalz,Schleswig-Holstein,Saarland,Sachsen,Sachsen-Anhalt,Thueringen/Sachsen-Anhalt,Thueringen,Deutschland
1951-01-01,45.2,45.3,30.6,34.5,22.8,39.7,24.4,24.6,23.3,23.9,35.8,21.5,37.6,28.0,26.0,23.5,30.9
1951-02-01,67.0,67.2,65.9,63.7,49.7,56.1,44.6,44.5,52.1,59.1,37.5,59.8,80.6,50.2,50.5,50.9,57.3
1951-03-01,129.5,129.5,96.3,98.9,114.6,117.4,114.6,114.9,105.0,107.3,117.9,110.3,116.9,118.1,115.7,112.7,110.1
1951-04-01,227.3,227.4,195.6,198.0,189.0,226.3,185.3,185.4,180.3,187.5,189.3,196.8,223.6,208.2,204.0,198.7,199.1
1951-05-01,195.3,195.5,197.8,192.2,202.7,244.1,211.1,211.5,203.8,205.3,243.9,216.2,200.5,180.5,182.2,184.4,203.3
1951-06-01,245.1,245.3,194.2,198.7,190.0,255.5,212.8,213.4,191.4,190.1,251.0,190.8,223.8,210.6,203.7,195.0,210.2
1951-07-01,252.6,252.6,270.6,258.0,238.3,248.3,205.1,205.3,202.2,241.8,213.4,270.7,248.7,229.5,233.3,238.1,238.8
1951-08-01,213.9,214.1,213.8,220.7,201.5,203.9,192.5,192.8,179.8,198.1,196.3,213.4,226.3,186.6,188.6,191.2,204.1
1951-09-01,205.3,205.3,170.7,173.1,165.8,196.2,167.8,168.0,149.1,173.7,166.9,190.9,182.6,191.9,183.2,172.3,175.1
1951-10-01,227.4,227.5,151.6,183.7,184.3,225.7,204.9,205.4,181.9,170.1,215.6,169.7,206.0,200.4,195.0,188.2,192.5
1951-11-01,32.7,32.8,54.7,48.5,27.5,37.7,28.7,28.7,39.2,44.3,28.3,45.9,35.0,29.6,29.0,28.3,38.5
1951-12-01,51.2,51.4,69.9,42.7,38.1,53.2,51.6,51.5,59.5,49.6,42.7,65.1,61.3,52.3,50.7,48.7,51.8
1952-01-01,38.9,39.0,39.1,39.3,19.3,38.1,25.9,26.0,23.3,27.0,38.1,15.2,41.9,35.0,30.7,25.3,33.0
1952-02-01,61.5,61.5,61.1,42.5,43.6,62.9,52.3,52.4,42.9,57.4,65.0,74.9,46.4,58.5,52.0,43.9,52.0
1952-03-01,163.3,163.3,115.7,107.0,110.7,178.7,121.5,121.9,99.7,106.1,152.4,111.7,137.6,136.8,125.3,110.9,124.3
1952-04-01,204.4,204.6,180.2,181.8,192.0,207.6,205.3,205.5,203.2,199.5,209.7,223.8,195.2,200.8,195.4,188.6,195.7
1952-05-01,203.6,203.8,226.9,196.6,222.7,214.4,227.7,227.9,211.8,221.0,237.9,247.1,182.4,204.0,202.4,200.4,212.0
1952-06-01,233.1,233.0,254.6,227.7,226.9,223.7,202.2,202.2,204.6,236.4,198.5,265.3,230.9,233.8,229.2,223.3,224.7
1952-07-01,269.1,269.2,306.9,296.0,267.1,259.3,209.4,209.4,211.0,266.1,236.3,302.3,281.3,245.1,251.7,259.9,261.4
1952-08-01,220.3,220.1,238.0,227.1,195.1,214.9,184.4,184.7,176.2,198.4,186.7,218.7,223.0,196.2,195.8,195.3,207.5
1952-09-01,136.3,136.3,116.1,101.1,93.5,177.3,128.1,128.7,103.2,106.0,161.1,117.8,103.5,116.3,103.3,87.0,117.4
1952-10-01,55.8,55.9,94.2,89.6,81.9,76.2,71.9,71.8,81.0,100.1,66.5,103.2,71.0,72.9,72.9,72.9,79.6
1952-11-01,31.3,31.4,44.6,40.8,34.1,31.4,32.2,32.2,43.4,38.1,39.6,32.3,44.0,33.4,36.1,39.4,37.9
1952-12-01,35.8,35.9,34.9,28.4,30.6,29.9,24.0,24.0,32.0,33.7,21.7,33.7,50.5,29.8,31.6,33.9,31.2
1953-01-01,15.3,15.3,36.8,30.8,20.5,17.7,16.2,16.2,19.6,31.7,18.4,42.7,20.8,13.7,16.6,20.3,23.2
1953-02-01,55.5,55.4,73.4,76.3,56.8,48.1,48.4,48.2,56.0,62.0,42.1,62.5,52.7,50.4,52.2,54.4,59.4
1953-03-01,203.8,203.6,235.0,226.9,205.9,193.1,154.2,154.4,144.5,194.9,160.9,225.8,199.5,184.7,193.7,205.0,195.2
1953-04-01,268.2,268.0,209.0,213.1,218.8,237.3,213.8,213.7,206.7,207.0,209.3,224.4,250.2,245.5,238.1,228.8,222.8
1953-05-01,234.3,234.3,245.0,241.2,236.0,238.8,214.3,214.5,207.3,229.9,237.7,272.5,234.4,226.6,228.7,231.4,231.5
1953-06-01,220.6,220.7,157.6,169.2,187.0,260.1,194.4,194.8,174.4,177.4,236.2,182.7,196.4,188.3,179.8,169.2,189.3
1953-07-01,238.1,238.1,224.9,229.5,207.0,253.4,213.8,214.3,174.3,189.7,249.8,212.4,238.7,216.9,211.9,205.5,219.9
1953-08-01,241.7,241.7,274.9,262.2,247.5,234.3,209.6,209.5,206.5,245.8,214.3,284.2,244.7,223.6,228.0,233.5,239.3
1953-09-01,198.9,198.7,189.4,195.4,191.4,186.4,170.9,170.8,180.6,190.6,164.5,203.1,183.4,182.4,182.7,183.0,186.1
1953-10-01,130.3,130.1,118.9,123.0,106.5,111.5,91.0,91.0,85.2,94.1,84.4,98.1,131.8,111.7,112.9,114.5,109.5
1953-11-01,67.8,67.8,91.6,75.6,53.3,57.4,51.6,51.4,66.0,58.6,43.4,66.1,81.7,59.5,58.0,56.0,66.0
1953-12-01,45.4,45.4,50.5,46.9,34.5,38.9,31.3,31.3,41.2,35.0,33.1,43.0,58.8,37.4,38.7,40.3,41.7
1954-01-01,81.0,81.1,54.7,71.1,80.4,81.9,80.9,81.1,80.2,80.4,85.4,83.9,66.5,71.1,68.9,66.1,74.5
1954-02-01,114.9,114.9,63.4,82.3,82.5,94.4,77.2,77.2,81.9,78.5,73.7,80.0,113.7,95.7,94.6,93.2,85.5
1954-03-01,112.8,112.8,151.6,159.4,128.6,90.9,75.9,75.5,103.5,130.4,58.1,142.1,125.4,112.1,116.7,122.5,119.4
1954-04-01,190.1,190.2,145.1,137.6,187.9,207.2,203.7,203.7,194.0,178.5,211.1,186.3,168.7,194.7,186.8,176.8,177.1
1954-05-01,275.4,275.3,206.3,196.8,243.8,291.8,262.5,262.4,234.1,228.1,273.6,245.8,242.3,266.4,254.0,238.3,239.5
1954-06-01,244.2,244.2,212.5,201.2,223.7,238.5,208.3,208.3,187.2,218.4,216.9,236.1,235.5,225.7,221.6,216.5,215.1
1954-07-01,126.8,126.9,177.3,155.9,132.0,129.1,136.6,136.9,121.1,151.8,154.8,179.6,129.4,116.0,115.1,114.0,140.9
1954-08-01,185.7,185.7,177.8,188.7,156.2,169.4,147.1,147.1,137.5,164.5,151.2,177.1,209.8,165.8,165.5,165.2,169.3
1954-09-01,163.8,163.6,150.3,159.6,117.3,161.0,140.8,140.9,122.5,119.8,148.6,121.5,153.5,142.8,134.8,124.8,144.7
1954-10-01,98.0,98.1,139.4,124.5,94.8,73.3,59.9,59.7,82.4,103.2,54.1,104.4,119.2,91.9,93.8,96.1,98.1
1954-11-01,61.1,61.1,67.8,71.8,67.7,59.7,64.5,64.4,75.9,72.0,57.3,74.4,68.5,61.4,62.8,64.5,67.2
1954-12-01,22.6,22.6,42.5,31.5,20.6,22.0,26.5,26.4,28.6,30.0,26.9,27.5,32.7,30.6,27.9,24.5,29.1
1955-01-01,71.7,71.6,60.4,65.6,46.1,53.9,49.3,49.4,40.1,43.5,46.0,44.4,89.9,65.1,63.3,61.0,57.9
1955-02-01,92.8,92.8,52.1,58.9,65.7,74.1,92.9,92.8,72.2,54.5,88.8,52.9,89.8,80.7,76.4,71.0,72.7
1955-03-01,147.7,147.7,149.7,143.8,154.7,136.0,141.7,141.6,142.7,162.7,139.5,176.7,135.7,136.6,135.3,133.7,144.3
1955-04-01,153.1,153.1,197.1,186.6,186.4,168.1,162.4,162.5,155.8,196.7,179.3,231.1,153.1,162.7,163.9,165.4,173.9
1955-05-01,237.0,236.6,226.8,222.1,211.4,237.8,207.4,207.5,198.8,219.6,229.3,235.2,219.0,216.4,210.1,202.1,218.9
1955-06-01,210.5,210.3,182.6,187.7,194.6,217.6,195.2,195.2,207.0,196.6,211.2,212.6,185.4,182.0,179.3,175.9,195.0
1955-07-01,221.8,221.3,175.3,178.5,182.1,279.8,232.1,233.1,184.9,191.7,317.4,215.4,144.1,178.7,165.5,148.8,200.6
1955-08-01,219.4,219.2,207.7,184.8,175.3,241.7,198.0,198.7,172.2,200.0,248.8,236.6,188.2,177.6,166.0,151.4,196.1
1955-09-01,168.4,168.3,158.5,153.8,161.1,168.8,156.1,156.1,156.1,168.4,162.9,186.9,150.6,157.4,154.8,151.6,158.9
1955-10-01,103.5,103.6,131.1,115.9,110.5,95.1,92.8,92.6,111.4,120.2,90.5,133.3,123.9,103.1,107.6,113.3,110.0
1955-11-01,70.3,70.3,73.9,59.4,60.1,74.9,64.4,64.5,62.5,66.4,76.6,76.4,62.3,59.4,56.6,53.0,65.0
1955-12-01,38.0,38.0,43.9,49.7,37.6,35.6,33.9,33.8,34.8,38.5,33.7,32.2,47.7,38.9,40.5,42.4,40.4
1956-01-01,54.6,54.7,63.9,69.2,54.1,55.7,50.3,50.4,48.2,58.7,57.3,55.7,63.2,57.7,56.4,54.7,58.3
1956-02-01,80.1,80.5,93.1,95.2,102.1,75.1,82.4,82.5,93.0,103.7,83.3,127.6,75.2,66.5,70.2,74.8,87.5
1956-03-01,174.1,174.0,149.5,147.0,148.3,169.1,138.4,138.6,129.6,143.1,155.2,159.0,145.9,136.8,133.5,129.3,147.1
1956-04-01,102.5,102.8,145.8,125.8,140.7,115.9,126.4,126.5,113.6,136.7,144.3,171.0,110.5,119.1,119.5,119.9,125.3
1956-05-01,231.3,231.6,233.3,233.9,232.9,251.0,222.8,223.0,207.5,238.0,254.9,265.5,239.3,232.3,233.5,235.1,232.3
1956-06-01,128.5,128.5,129.4,128.2,112.3,149.7,130.6,130.8,101.3,107.5,183.7,134.3,104.8,122.7,116.1,107.8,125.5
1956-07-01,259.7,259.9,220.1,226.4,180.0,294.9,175.9,176.7,144.9,184.9,248.3,201.5,219.5,204.0,191.4,175.5,210.4
1956-08-01,182.4,182.5,190.0,187.5,173.9,187.3,163.9,163.9,157.3,180.3,172.8,202.0,177.6,169.3,167.4,164.9,176.9
1956-09-01,204.2,204.3,187.9,188.3,147.1,208.3,159.4,159.8,134.9,157.4,196.3,175.3,192.5,175.4,166.5,155.2,176.1
1956-10-01,115.7,115.7,102.4,101.3,69.7,103.1,90.1,90.3,75.0,78.2,111.3,90.9,117.3,110.7,103.6,94.7,97.1
1956-11-01,48.9,49.2,44.5,51.3,54.5,51.6,62.3,62.3,64.1,51.9,60.7,57.6,59.1,49.6,50.3,51.1,54.1
1956-12-01,39.3,39.5,45.1,43.6,36.4,40.1,26.0,26.0,33.6,37.8,28.7,47.5,46.9,34.6,36.6,39.0,37.9
1957-01-01,43.4,43.5,79.0,69.2,57.7,49.6,49.1,49.2,56.4,64.8,53.8,74.1,56.4,43.7,46.8,50.7,58.3
1957-02-01,54.0,54.2,70.4,64.1,57.6,65.2,45.5,45.5,48.6,68.1,54.4,74.6,55.1,47.7,48.5,49.6,57.4
1957-03-01,151.9,152.0,176.4,158.2,144.2,140.2,111.3,111.3,126.1,157.8,126.1,176.8,139.9,124.9,126.9,129.3,142.7
1957-04-01,214.9,214.7,186.2,191.4,220.3,200.1,210.4,210.6,196.5,208.3,224.7,236.5,195.3,200.0,200.9,202.0,202.1
1957-05-01,252.5,252.6,200.4,203.1,235.5,253.6,233.4,233.7,227.8,244.0,245.3,284.7,244.6,236.2,231.7,226.1,228.5
1957-06-01,291.5,291.6,230.9,251.3,269.9,292.0,276.1,276.4,261.5,263.0,308.7,273.4,282.7,285.1,282.7,279.6,268.9
1957-07-01,202.9,202.9,200.2,186.8,188.0,207.6,192.8,193.0,176.9,191.5,213.3,203.2,190.0,191.4,188.6,185.1,192.7
1957-08-01,175.7,175.8,197.3,192.6,170.0,178.7,153.6,153.5,163.0,181.2,172.7,196.8,169.3,157.2,160.6,164.9,175.3
1957-09-01,127.4,127.3,136.4,114.3,94.8,128.3,110.9,111.3,94.9,109.9,139.7,115.3,119.0,117.9,112.6,106.0,116.1
1957-10-01,97.3,97.5,158.5,138.6,99.7,89.5,82.5,82.4,91.7,117.9,86.9,147.9,120.9,92.5,94.2,96.4,110.8
1957-11-01,45.0,45.0,46.5,51.4,44.1,46.1,44.6,44.7,39.7,40.5,47.1,44.5,44.6,37.8,38.9,40.2,45.1
1957-12-01,38.8,39.0,49.0,47.1,28.2,37.5,37.9,37.9,29.8,37.1,45.7,36.4,49.0,43.5,42.0,40.2,40.9
1958-01-01,77.6,77.6,56.0,69.8,43.1,66.8,44.0,43.9,44.6,49.6,46.8,51.6,68.0,63.2,58.9,53.6,58.0
1958-02-01,82.2,82.3,65.4,60.9,67.1,86.2,67.2,67.3,62.0,69.7,84.3,67.4,64.0,76.6,73.8,70.2,69.2
1958-03-01,88.7,88.6,142.0,145.2,126.5,87.6,96.4,96.5,113.0,139.7,113.0,151.7,91.4,78.3,86.6,97.0,115.1
1958-04-01,125.9,125.9,154.7,152.1,157.5,149.9,146.5,146.7,147.2,165.4,160.6,183.3,117.2,127.6,127.6,127.7,146.1
1958-05-01,186.1,186.0,199.1,211.7,182.2,190.0,178.5,178.7,181.1,183.2,195.3,191.0,189.1,177.5,181.7,186.9,191.0
1958-06-01,192.2,192.3,211.4,199.1,175.2,213.6,167.5,168.0,174.6,183.2,210.3,189.2,175.4,163.9,163.8,163.7,187.4
1958-07-01,245.7,245.5,237.0,232.6,212.2,230.3,193.2,193.0,183.7,231.4,201.7,247.8,233.3,218.2,215.6,212.4,219.8
1958-08-01,225.8,225.7,220.2,219.5,203.8,203.5,185.1,185.3,179.4,192.5,204.9,191.7,220.1,210.6,210.8,211.1,206.5
1958-09-01,193.7,193.6,184.1,185.0,167.9,189.0,176.2,176.4,165.7,172.0,195.0,174.9,182.2,186.0,181.1,174.9,181.0
1958-10-01,99.4,99.4,103.7,80.3,86.6,102.3,88.7,88.8,88.1,92.5,101.0,102.9,95.6,90.3,89.2,87.9,91.5
1958-11-01,27.6,27.5,22.9,20.9,18.3,23.9,19.9,19.8,27.4,19.3,21.3,16.1,28.7,16.1,17.1,18.3,22.1
1958-12-01,38.5,38.6,57.8,51.9,24.7,41.1,24.2,24.3,25.7,36.3,38.3,39.4,44.4,27.9,28.4,29.1,38.5
1959-01-01,54.9,55.1,68.9,66.2,54.0,59.7,65.0,65.2,56.5,60.7,78.7,70.8,59.3,60.0,59.1,58.0,62.5
1959-02-01,77.1,77.3,143.8,135.2,122.1,57.0,65.7,65.4,106.6,120.7,58.1,151.2,121.3,81.9,97.3,116.6,104.5
1959-03-01,162.4,162.4,124.7,136.7,139.6,147.4,121.6,121.5,132.5,136.0,132.9,139.7,158.3,136.9,136.8,136.6,137.0
1959-04-01,199.6,199.7,189.9,202.0,179.0,193.7,169.0,169.2,166.3,165.7,191.3,163.0,198.1,183.6,185.2,187.2,186.1
1959-05-01,275.0,275.1,234.0,233.2,236.1,314.5,258.5,259.3,232.9,231.5,325.7,244.6,239.2,241.6,232.5,221.1,250.0
1959-06-01,293.7,293.6,211.5,226.4,261.5,319.0,279.6,279.9,256.0,250.3,314.3,258.6,262.2,281.3,270.9,257.7,260.5
1959-07-01,235.1,235.0,280.4,248.9,287.8,260.8,274.0,274.3,269.8,291.2,306.1,303.1,207.4,243.1,251.7,262.6,262.7
1959-08-01,205.9,206.3,217.6,204.6,215.8,224.6,205.4,205.5,206.9,224.6,223.3,249.1,198.3,186.0,185.2,184.2,208.2
1959-09-01,259.0,259.3,285.6,268.4,275.2,250.3,239.6,239.5,267.5,275.8,237.6,297.5,266.9,268.3,270.1,272.4,263.9
1959-10-01,173.6,173.9,168.6,180.5,173.2,169.6,154.9,154.9,165.2,168.3,168.9,175.5,185.5,168.3,173.2,179.3,170.9
1959-11-01,54.2,54.3,52.5,55.0,40.2,32.6,47.4,47.1,57.7,41.1,38.1,40.7,85.8,47.5,53.2,60.4,51.3
1959-12-01,16.9,17.0,43.9,36.6,18.8,11.9,18.0,17.9,35.5,27.7,10.1,18.9,25.2,21.2,20.9,20.4,26.4
1960-01-01,48.1,48.2,62.5,51.1,33.0,45.0,25.4,25.6,26.8,42.0,37.8,44.5,46.4,33.4,31.9,30.0,41.5
1960-02-01,88.1,88.3,78.1,73.9,57.6,72.7,60.6,60.5,63.0,69.9,56.4,66.8,88.8,72.1,67.1,60.7,70.7
1960-03-01,125.7,125.7,104.5,124.0,109.2,131.8,111.5,111.9,110.3,99.6,142.4,93.6,117.2,89.7,90.3,91.0,114.3
1960-04-01,183.5,183.6,162.8,171.0,173.0,197.2,164.5,164.7,159.7,167.7,189.9,173.4,178.9,175.3,171.0,165.5,172.2
1960-05-01,209.3,209.5,227.5,230.6,215.5,238.6,193.4,193.6,199.1,218.3,218.1,229.1,204.4,185.6,191.5,198.8,213.4
1960-06-01,259.5,259.5,226.5,224.0,235.4,266.4,227.9,228.1,212.1,218.8,253.9,233.2,238.6,246.1,243.2,239.5,233.9
1960-07-01,203.6,203.5,189.6,186.5,178.7,204.9,164.3,164.5,154.6,162.9,190.2,168.6,187.9,193.8,190.3,185.9,182.1
1960-08-01,160.1,160.0,176.3,173.2,139.7,154.3,120.4,120.6,127.3,144.1,152.6,148.4,160.0,150.3,150.3,150.2,152.0
1960-09-01,168.8,168.9,148.8,156.4,141.7,192.7,140.8,141.4,131.8,146.0,183.5,151.7,146.3,147.7,141.9,134.7,152.4
1960-10-01,63.0,63.1,85.0,93.6,60.4,59.4,52.8,52.6,59.9,58.5,46.9,61.1,75.2,61.6,62.5,63.7,68.8
1960-11-01,52.6,52.7,62.8,63.5,49.2,50.3,49.6,49.6,48.0,52.1,44.0,40.0,61.2,58.6,54.1,48.5,54.7
1960-12-01,24.7,24.8,34.9,31.9,19.2,15.8,18.2,18.1,27.0,28.9,13.5,25.1,36.7,27.6,28.7,30.0,26.4
1961-01-01,73.8,73.9,45.3,61.7,45.4,71.6,56.4,56.5,55.7,48.7,72.7,45.2,73.5,55.6,53.5,50.9,58.9
1961-02-01,69.2,69.4,96.4,78.8,74.3,51.7,59.3,59.1,80.4,82.4,51.1,84.6,83.1,75.0,78.6,83.2,74.5
1961-03-01,124.9,124.9,181.2,157.3,136.5,125.0,108.1,108.2,117.6,159.2,130.1,180.1,114.3,114.5,118.6,123.7,136.1
1961-04-01,199.3,199.3,121.0,144.4,96.0,226.7,127.3,127.9,90.6,83.9,200.8,102.9,165.7,138.0,126.7,112.5,140.0
1961-05-01,134.6,134.6,161.5,141.3,158.7,150.7,133.8,134.2,142.7,177.1,177.6,190.9,114.2,124.6,125.5,126.6,144.5
1961-06-01,274.8,274.9,210.4,222.6,223.4,265.8,231.6,232.0,209.0,212.2,256.6,216.5,252.3,254.6,245.0,232.9,233.3
1961-07-01,142.0,142.1,233.4,205.4,154.1,149.2,131.1,131.4,120.9,175.0,152.8,221.1,156.0,141.2,143.1,145.4,165.3
1961-08-01,173.8,173.9,220.7,208.9,180.3,191.0,162.3,162.6,154.5,196.3,195.6,220.4,165.0,170.3,171.5,173.0,185.5
1961-09-01,197.3,197.3,211.2,212.8,174.6,191.2,142.5,142.4,145.7,172.8,159.2,180.7,194.3,173.0,176.6,181.2,182.3
1961-10-01,142.4,142.4,133.9,146.7,112.4,141.4,113.2,113.1,113.8,110.0,126.7,118.4,144.0,127.3,125.1,122.3,129.5
1961-11-01,40.1,40.2,64.9,63.7,42.7,62.1,46.6,46.8,48.4,47.2,69.3,56.9,45.1,35.5,36.7,38.3,52.3
1961-12-01,65.2,65.3,62.4,64.8,59.3,66.7,44.0,43.9,58.1,58.0,56.5,52.8,69.8,59.0,60.7,62.9,60.0
1962-01-01,48.8,48.9,53.0,55.7,43.1,37.3,36.4,36.3,37.8,52.6,41.4,53.0,55.1,49.2,48.7,48.1,47.0
1962-02-01,64.1,64.2,67.1,62.2,67.8,70.4,60.7,60.7,62.6,72.3,77.3,82.3,60.9,65.5,63.3,60.6,65.0
1962-03-01,125.8,125.9,129.3,132.3,130.1,104.4,98.7,98.5,99.9,128.8,111.1,137.6,119.4,122.0,123.2,124.6,119.2
1962-04-01,164.5,164.5,185.9,178.9,147.1,159.1,138.1,138.1,121.0,145.9,156.7,160.8,149.5,148.6,147.1,145.3,156.4
1962-05-01,152.2,152.3,159.1,152.4,151.1,171.9,126.6,126.6,114.1,157.7,167.6,178.1,143.5,148.9,144.2,138.3,147.0
1962-06-01,258.1,258.2,278.6,248.7,242.8,274.3,210.4,210.7,201.4,259.9,257.9,294.6,239.8,235.0,233.0,230.5,243.5
1962-07-01,192.2,192.2,220.0,209.3,169.8,189.9,135.9,136.1,125.3,185.2,167.3,205.3,181.8,163.3,164.9,167.0,178.3
1962-08-01,145.1,145.4,292.1,266.9,204.6,150.6,138.4,138.3,159.3,226.0,154.0,250.1,185.0,154.1,172.0,194.5,198.9
1962-09-01,162.9,163.2,185.9,193.2,157.2,169.1,147.9,148.0,136.8,151.6,169.1,160.7,174.9,166.1,169.6,174.1,167.7
1962-10-01,99.7,99.9,157.4,160.8,134.2,97.1,101.5,101.4,119.5,147.6,95.3,162.7,127.8,105.9,115.6,127.8,127.6
1962-11-01,46.3,46.5,53.2,45.3,42.0,46.7,49.1,49.0,42.0,47.7,49.4,50.5,57.4,49.3,50.5,52.1,47.8
1962-12-01,44.7,44.8,65.6,65.9,59.9,58.5,58.0,58.1,60.0,68.7,65.1,79.4,52.2,48.0,52.2,57.4,59.7
1963-01-01,76.0,76.0,66.9,60.5,61.1,89.8,74.8,75.0,63.7,63.0,96.7,70.1,51.3,56.4,55.2,53.8,67.5
1963-02-01,68.1,68.2,89.5,97.7,90.0,45.9,67.1,66.7,80.1,89.4,47.9,94.6,74.2,62.1,71.0,82.2,78.0
1963-03-01,141.8,141.8,130.7,122.7,104.0,119.2,93.1,92.7,102.6,111.8,69.2,124.0,113.4,114.5,111.8,108.3,113.3
1963-04-01,159.6,159.8,131.0,139.7,143.5,142.1,150.5,150.5,144.0,134.4,148.0,129.8,152.9,148.3,146.9,145.2,144.2
1963-05-01,230.3,230.4,167.4,176.1,187.4,254.4,182.6,182.7,152.7,175.8,205.8,200.9,190.6,207.0,202.4,196.7,189.2
1963-06-01,254.3,254.3,174.6,202.8,188.7,291.8,223.4,223.6,196.8,174.6,258.8,183.7,212.4,219.2,211.9,202.6,213.7
1963-07-01,278.9,278.9,282.0,278.0,253.1,262.3,211.8,211.7,227.9,274.0,229.4,299.4,268.9,241.6,244.9,249.1,256.2
1963-08-01,192.2,192.4,175.3,180.4,154.8,182.1,142.5,142.4,115.6,146.2,162.3,144.0,183.9,182.0,179.6,176.6,165.3
1963-09-01,172.4,172.4,146.2,151.4,142.6,152.4,134.1,134.0,123.1,139.1,133.8,153.3,162.7,153.6,152.5,151.2,146.4
1963-10-01,106.3,106.4,128.1,128.7,103.9,111.8,109.3,109.3,120.0,114.4,112.3,108.4,128.9,114.7,116.2,118.1,117.8
1963-11-01,49.1,49.2,69.7,62.4,41.3,42.7,47.9,47.8,51.8,55.6,35.8,61.2,59.4,53.6,51.3,48.3,53.7
1963-12-01,54.8,55.1,65.7,65.3,68.2,53.6,51.0,50.8,78.0,70.2,45.3,64.5,76.1,63.9,67.4,71.8,63.3
1964-01-01,59.1,59.1,65.9,77.3,48.5,47.3,39.5,39.4,49.8,45.2,41.7,43.4,73.5,51.6,58.2,66.6,57.5
1964-02-01,103.0,103.0,82.2,94.8,81.8,101.4,75.8,75.8,71.3,71.8,87.4,72.1,105.3,95.5,95.2,94.9,87.9
1964-03-01,112.8,112.6,70.0,88.9,100.9,98.7,102.6,102.4,112.4,84.0,81.5,76.4,97.5,92.4,92.9,93.6,94.6
1964-04-01,152.8,152.8,160.6,162.5,137.4,170.9,142.2,142.4,124.8,135.0,161.2,137.3,144.6,136.9,135.7,134.1,148.8
1964-05-01,245.6,245.3,234.3,226.1,225.1,242.5,239.7,239.7,227.5,227.1,243.0,242.7,241.4,234.4,233.6,232.6,234.0
1964-06-01,299.8,299.4,268.5,243.2,275.3,293.8,253.3,253.2,244.2,267.2,257.5,286.9,274.0,289.8,286.9,283.2,265.5
1964-07-01,251.7,251.5,300.9,289.3,262.1,233.6,205.2,204.9,225.6,274.6,190.6,301.2,250.3,242.0,249.8,259.6,253.4
1964-08-01,173.2,173.2,208.9,193.1,174.6,189.1,160.8,160.7,167.6,187.6,188.8,198.7,165.1,168.3,170.3,172.7,180.6
1964-09-01,198.4,198.4,187.6,187.9,181.0,195.6,176.0,176.0,178.2,185.3,179.5,189.3,192.8,189.0,186.6,183.6,186.0
1964-10-01,99.1,99.1,76.6,87.7,99.1,106.5,104.9,105.0,106.8,98.9,112.1,99.7,102.8,95.8,94.4,92.6,96.8
1964-11-01,35.0,34.9,39.8,33.3,30.7,44.0,32.8,32.9,37.9,38.5,44.7,30.8,33.5,25.9,27.2,28.9,35.2
1964-12-01,29.7,29.8,36.5,39.7,31.6,30.3,28.4,28.3,42.3,35.0,35.2,35.6,43.8,32.9,34.4,36.3,35.3
1965-01-01,28.2,28.2,34.2,31.5,27.8,23.7,22.9,22.8,25.1,32.3,26.3,25.2,32.0,28.8,28.0,27.1,28.4
1965-02-01,56.7,56.7,77.8,70.0,59.9,69.9,58.9,59.2,54.7,76.1,86.0,88.6,42.1,51.2,49.6,47.6,63.8
1965-03-01,134.1,134.0,112.2,113.2,110.3,136.3,124.7,124.7,124.8,113.6,138.3,112.5,119.9,121.1,116.9,111.7,120.7
1965-04-01,121.0,121.3,115.2,124.2,108.9,119.5,116.9,116.7,100.9,111.1,118.1,108.3,127.1,131.2,129.6,127.5,118.1
1965-05-01,201.9,201.8,148.2,145.3,168.9,213.6,169.8,170.0,165.7,174.3,189.7,188.8,172.5,189.2,183.4,176.2,170.7
1965-06-01,230.8,230.7,190.1,196.3,191.2,253.2,201.2,201.5,187.7,185.7,227.3,195.1,203.2,210.4,206.7,202.0,204.1
1965-07-01,174.0,174.0,185.1,173.8,130.1,178.7,136.7,137.1,105.3,135.4,177.8,150.3,160.8,153.9,149.7,144.5,155.9
1965-08-01,238.2,238.1,199.3,208.0,192.2,230.0,203.3,203.6,173.5,188.3,227.2,189.7,230.4,223.0,217.8,211.2,208.1
1965-09-01,170.5,170.4,143.8,154.0,126.9,168.3,152.6,152.7,136.6,132.8,158.0,132.0,166.7,164.1,158.6,151.7,151.9
1965-10-01,157.6,157.4,156.2,169.0,159.2,146.0,140.3,140.1,180.2,169.3,134.6,178.8,183.0,148.2,155.1,163.7,159.7
1965-11-01,44.8,44.8,41.7,50.0,35.7,61.4,59.3,59.5,58.9,45.4,63.4,49.7,42.0,41.5,40.0,38.0,49.6
1965-12-01,25.6,25.7,24.3,27.0,10.7,19.8,17.4,17.4,16.9,21.9,25.4,23.1,34.7,24.1,21.3,17.8,22.4
1966-01-01,19.3,19.4,64.2,62.4,40.5,21.1,33.3,33.3,49.3,52.8,29.9,65.8,43.5,26.7,33.7,42.6,43.9
1966-02-01,44.5,44.6,63.9,62.9,44.5,58.4,49.6,49.7,37.3,52.5,54.4,58.4,39.6,42.8,42.9,43.0,51.6
1966-03-01,94.2,94.3,121.9,103.2,96.5,99.8,84.0,84.0,73.2,102.0,95.3,107.7,93.6,108.7,105.6,101.7,97.7
1966-04-01,143.8,143.9,133.2,147.4,114.2,110.2,104.6,104.5,109.8,119.8,101.9,128.0,148.2,122.7,122.4,122.1,125.7
1966-05-01,255.2,255.1,223.4,213.3,239.0,272.3,243.1,243.2,241.8,230.3,252.8,231.4,224.1,242.0,236.6,229.8,235.7
1966-06-01,235.7,235.6,212.7,224.1,194.3,243.6,203.1,203.2,182.3,201.2,216.3,214.9,222.5,228.8,225.3,220.9,215.0
1966-07-01,203.6,203.7,185.0,169.4,152.9,222.5,167.4,167.8,139.9,157.7,213.2,170.4,178.8,179.6,169.4,156.5,175.1
1966-08-01,202.5,202.5,159.6,151.1,178.2,212.9,192.6,192.8,192.1,185.5,210.3,185.6,185.4,184.7,177.6,168.6,180.7
1966-09-01,155.7,155.6,195.4,175.1,160.1,164.7,140.8,141.1,144.5,196.4,158.0,216.0,137.2,137.4,138.6,140.0,161.5
1966-10-01,87.3,87.4,107.6,97.8,85.2,84.7,77.7,77.5,83.3,82.7,73.3,84.8,103.8,90.0,91.5,93.3,89.9
1966-11-01,34.7,34.8,45.5,44.4,27.9,35.8,31.2,31.2,29.5,34.3,38.5,38.2,38.7,31.7,31.3,30.7,36.5
1966-12-01,19.7,19.8,31.0,27.5,16.1,20.7,19.6,19.6,16.9,25.7,26.0,27.0,29.3,24.0,22.4,20.4,23.4
1967-01-01,37.7,37.7,49.9,45.9,36.9,27.6,32.0,32.0,31.3,44.8,30.6,53.2,44.2,36.3,34.9,33.0,38.7
1967-02-01,77.8,77.9,112.3,109.7,88.1,67.7,71.4,71.3,78.8,93.9,75.8,97.0,93.1,83.4,85.9,89.0,89.3
1967-03-01,138.4,138.4,120.5,113.8,109.1,127.9,102.5,102.3,104.8,121.1,100.8,123.7,126.3,132.1,124.0,113.8,116.4
1967-04-01,161.2,161.5,177.7,164.9,174.0,199.3,185.3,185.7,177.0,185.1,197.6,201.1,140.4,162.2,159.5,156.0,173.6
1967-05-01,243.5,243.5,202.5,220.7,207.7,263.7,213.8,214.2,202.4,207.4,240.9,222.7,222.7,227.8,223.3,217.7,220.7
1967-06-01,229.6,229.7,202.5,201.8,191.0,248.9,202.2,202.5,186.4,189.5,230.6,206.2,195.6,195.5,191.8,187.1,204.5
1967-07-01,272.6,272.5,281.8,276.8,266.4,258.4,238.9,238.7,247.7,269.1,237.8,298.3,264.6,254.0,262.6,273.3,263.1
1967-08-01,210.0,209.9,213.5,208.4,192.9,200.9,173.6,173.5,184.7,205.0,180.2,214.3,195.3,187.0,183.5,179.1,196.1
1967-09-01,118.7,118.7,146.1,136.1,117.2,122.3,107.6,107.7,119.1,128.1,127.0,127.4,107.2,110.6,108.5,105.9,122.9
1967-10-01,110.2,110.3,154.0,154.6,94.5,99.5,89.4,89.2,97.3,104.0,77.7,89.9,125.2,108.4,106.5,104.0,116.3
1967-11-01,70.1,70.0,67.4,69.6,55.6,68.5,54.0,53.9,67.8,65.2,54.5,66.4,67.8,57.3,59.4,62.0,64.2
1967-12-01,25.2,25.3,42.5,34.2,23.4,37.5,21.5,21.7,17.0,33.5,36.1,40.8,22.3,26.8,27.2,27.7,29.3
1968-01-01,33.4,33.6,52.9,44.6,29.5,45.3,39.1,39.3,33.6,40.8,47.8,49.7,40.2,41.6,39.9,37.6,41.1
1968-02-01,68.7,68.7,71.8,66.9,55.5,68.5,57.6,57.6,51.4,55.1,58.2,61.3,59.6,64.4,62.6,60.3,62.4
1968-03-01,139.0,139.0,137.7,149.6,122.7,127.6,119.5,119.5,114.2,123.0,122.0,132.0,138.1,131.2,131.1,130.9,131.8
1968-04-01,225.0,225.0,204.3,207.7,229.5,237.8,222.6,222.8,214.9,222.0,249.0,224.3,215.7,222.9,223.3,223.9,219.5
1968-05-01,188.6,188.7,174.1,192.6,173.6,195.1,171.8,171.9,151.4,161.3,190.2,165.1,181.1,184.8,182.1,178.8,179.0
1968-06-01,254.4,254.3,216.6,223.4,192.5,288.9,227.9,228.7,172.9,177.7,276.2,193.6,220.8,226.6,217.0,204.9,222.4
1968-07-01,242.8,243.1,219.0,220.8,215.1,250.5,214.3,214.7,208.6,205.2,246.4,213.5,223.4,224.1,224.9,225.9,222.8
1968-08-01,218.6,218.4,148.0,140.7,142.3,239.4,187.6,188.1,145.2,130.8,228.9,142.1,163.9,178.7,164.9,147.6,168.4
1968-09-01,137.0,136.8,133.2,135.6,113.2,123.0,98.4,98.3,116.9,120.6,100.6,116.5,124.7,111.9,109.7,106.9,120.8
1968-10-01,90.2,90.2,112.6,105.4,77.5,82.5,72.6,72.6,75.6,86.1,72.8,85.4,96.2,86.7,86.6,86.5,89.4
1968-11-01,37.5,37.6,44.8,42.1,37.4,37.9,40.7,40.7,50.2,48.4,39.4,50.5,41.7,39.4,40.3,41.5,42.2
1968-12-01,40.9,40.9,44.2,50.6,35.9,43.6,38.6,38.7,41.0,38.8,45.5,39.4,53.3,35.4,38.8,43.0,43.3
1969-01-01,26.7,26.8,42.3,40.2,19.2,20.9,24.2,24.2,28.4,24.5,20.2,21.2,41.4,29.2,29.1,29.0,30.6
1969-02-01,59.7,59.8,72.5,75.2,55.7,56.4,54.4,54.5,57.3,63.6,54.0,64.1,70.1,59.1,58.0,56.6,63.1
1969-03-01,129.1,129.0,89.7,104.8,94.6,137.0,106.8,107.2,95.9,97.9,136.6,96.2,107.7,97.1,92.6,86.9,106.2
1969-04-01,162.8,163.0,145.2,163.1,155.1,175.9,173.1,173.1,178.0,154.0,188.8,146.4,160.5,160.5,158.0,154.9,164.2
1969-05-01,179.8,180.0,221.5,223.3,176.0,159.6,146.2,146.1,158.8,184.9,149.2,192.0,195.8,173.4,177.6,182.9,184.2
1969-06-01,228.7,228.6,177.0,182.3,189.3,256.5,208.3,208.6,184.3,178.5,245.4,192.5,201.0,206.6,204.7,202.3,200.5
1969-07-01,271.2,271.2,250.5,254.0,224.4,252.6,208.7,208.8,210.1,224.2,224.1,230.8,252.0,248.1,245.8,243.0,238.9
1969-08-01,209.5,209.4,197.6,193.3,190.6,228.1,188.3,188.6,176.8,182.8,225.5,178.1,194.9,196.8,193.0,188.2,195.8
1969-09-01,197.4,197.4,164.8,180.1,167.9,199.8,177.5,177.8,170.8,170.4,201.2,178.1,183.7,171.7,171.8,171.9,179.1
1969-10-01,125.7,125.7,139.9,140.7,104.3,108.9,98.8,98.3,128.8,108.2,88.7,123.0,139.0,101.0,110.1,121.6,120.9
1969-11-01,56.6,56.7,76.9,79.8,42.7,54.9,39.2,39.3,42.6,50.8,46.4,45.7,69.7,52.1,51.2,50.1,57.9
1969-12-01,30.0,30.0,31.4,34.5,20.9,34.3,27.5,27.6,25.9,23.2,34.6,28.8,26.9,21.3,23.4,26.0,29.1
1970-01-01,42.9,42.9,38.8,40.7,19.0,40.0,34.7,34.7,37.5,23.5,33.7,27.2,40.2,28.4,28.4,28.6,35.6
1970-02-01,44.1,44.2,31.9,44.0,42.6,53.5,36.9,36.8,38.4,43.9,38.4,43.9,52.0,50.4,48.2,45.4,42.4
1970-03-01,113.7,113.5,94.1,92.3,101.9,100.0,95.0,94.7,97.9,95.9,78.2,89.6,93.4,111.4,106.3,99.9,97.3
1970-04-01,95.8,96.0,99.4,102.2,94.0,102.4,92.7,92.9,89.6,100.8,112.8,106.0,92.8,95.1,93.7,91.9,97.5
1970-05-01,207.5,207.7,172.2,157.0,162.1,236.5,197.1,197.7,174.8,176.8,243.9,192.2,174.1,185.3,172.2,155.7,183.1
1970-06-01,312.7,312.7,232.5,259.2,255.9,335.6,292.2,292.6,270.2,233.8,329.8,230.3,274.8,293.5,285.2,274.8,276.3
1970-07-01,228.1,228.2,220.8,214.4,179.9,218.6,172.6,172.7,168.9,190.6,204.7,204.1,220.7,205.7,201.4,196.0,201.7
1970-08-01,231.7,231.6,188.4,186.9,187.1,263.7,205.7,206.3,199.0,206.8,256.7,215.7,185.4,181.9,178.5,174.2,203.0
1970-09-01,179.6,179.6,205.1,196.7,167.1,172.7,141.4,141.5,156.3,182.2,154.4,192.6,180.7,157.3,161.5,166.8,174.4
1970-10-01,61.2,61.2,104.9,102.1,77.2,66.2,73.8,73.8,85.9,84.0,91.8,80.3,65.6,55.7,60.4,66.3,81.9
1970-11-01,47.6,47.6,60.5,51.0,41.7,48.7,56.7,56.7,64.0,51.7,54.1,56.8,52.0,50.6,48.8,46.6,53.1
1970-12-01,28.3,28.4,38.3,38.6,27.8,38.6,33.7,33.9,28.4,37.6,48.4,47.4,30.2,28.0,27.5,26.9,34.3
1971-01-01,76.4,76.5,71.9,83.4,48.6,60.9,50.3,50.2,52.9,47.3,49.1,52.4,100.3,74.2,76.9,80.3,67.2
1971-02-01,51.4,51.3,63.3,57.5,43.7,45.6,45.4,45.5,52.0,49.4,51.7,56.9,43.5,43.1,42.4,41.6,50.9
1971-03-01,120.1,119.9,105.3,116.6,93.7,104.3,92.7,92.7,97.2,98.2,95.0,101.7,109.4,99.7,97.2,94.0,104.1
1971-04-01,172.8,173.0,213.2,208.4,207.9,178.8,152.8,152.6,176.3,210.7,162.1,226.2,179.4,163.0,173.9,187.7,186.5
1971-05-01,248.8,248.6,173.1,192.0,199.0,286.8,233.1,233.6,216.4,191.5,275.9,191.5,186.2,213.5,203.0,189.8,213.9
1971-06-01,150.7,150.6,163.9,159.4,135.6,175.9,147.9,148.1,137.1,146.2,178.7,149.9,130.9,139.0,138.4,137.6,151.5
1971-07-01,315.8,315.6,300.3,304.5,299.2,296.3,259.3,259.3,275.4,293.5,268.4,307.1,302.0,290.8,299.4,310.1,292.5
1971-08-01,249.4,249.3,231.6,240.2,225.5,250.2,208.0,208.0,207.4,224.9,213.1,224.3,237.5,229.5,230.3,231.4,229.1
1971-09-01,159.8,159.8,208.7,183.6,174.2,156.0,147.2,147.0,173.3,189.9,152.4,207.0,157.4,157.7,162.4,168.4,171.5
1971-10-01,161.2,161.1,187.1,185.8,160.0,133.6,145.5,145.3,156.6,171.5,125.7,185.3,172.7,158.4,163.0,168.8,164.2
1971-11-01,45.5,45.5,50.3,50.1,39.5,45.8,44.2,44.3,43.4,49.0,58.9,46.2,46.6,44.2,44.0,43.7,46.9
1971-12-01,10.9,11.0,48.1,45.7,20.0,10.7,14.5,14.5,27.2,30.8,18.6,35.0,26.1,16.4,19.4,23.1,27.4
1972-01-01,47.0,47.1,42.3,54.5,40.3,48.3,48.5,48.6,54.4,45.4,54.0,50.2,58.4,46.0,47.0,48.2,49.5
1972-02-01,57.4,57.2,65.0,70.1,54.5,45.6,42.5,42.4,54.8,45.9,36.0,56.7,53.4,50.5,55.7,62.2,55.5
1972-03-01,144.3,144.2,165.2,179.4,168.1,139.8,149.1,149.0,175.0,174.0,149.1,172.1,149.6,141.1,150.0,161.1,160.9
1972-04-01,126.9,126.9,111.5,100.8,118.4,149.4,129.3,129.5,116.8,122.2,138.1,120.4,98.0,122.6,116.4,108.6,118.1
1972-05-01,160.7,160.7,136.9,137.1,131.3,165.5,157.5,157.7,143.1,137.1,181.1,137.7,147.5,153.2,144.9,134.5,147.2
1972-06-01,222.4,222.4,185.7,197.0,184.8,233.1,185.2,185.6,151.4,178.2,214.4,195.0,212.7,204.4,201.7,198.4,194.7
1972-07-01,219.2,219.2,188.6,189.9,184.8,223.9,191.3,191.7,171.4,182.8,219.4,199.8,202.5,185.4,183.4,180.8,193.6
1972-08-01,209.8,209.7,199.9,206.9,170.7,238.2,191.6,192.1,165.1,174.3,225.4,181.8,182.1,190.6,181.8,170.8,195.3
1972-09-01,156.8,156.6,160.6,143.4,132.8,162.5,129.9,130.2,128.7,149.4,160.4,168.7,120.6,126.8,125.2,123.2,141.9
1972-10-01,129.0,129.0,166.9,157.5,163.1,138.6,145.6,145.8,158.4,169.9,163.4,164.9,137.2,135.0,143.4,154.0,152.1
1972-11-01,36.6,36.8,72.3,58.5,35.3,40.1,37.8,37.9,38.4,48.9,36.9,48.6,60.9,47.0,48.5,50.3,48.4
1972-12-01,84.5,84.4,84.9,81.3,63.5,62.4,59.7,59.6,81.1,70.7,42.4,78.6,101.2,79.5,83.3,88.0,75.7
1973-01-01,23.7,23.8,38.6,40.6,31.3,21.8,25.2,25.2,31.3,39.3,25.8,43.8,40.9,32.4,34.9,38.0,33.0
1973-02-01,46.2,46.3,66.7,53.6,63.5,57.1,51.1,51.1,54.6,77.5,56.2,88.3,43.5,57.9,58.5,59.2,56.6
1973-03-01,133.4,133.2,136.9,134.8,133.0,129.6,123.5,123.7,123.3,140.3,137.3,148.1,119.2,125.8,123.2,120.0,130.4
1973-04-01,131.6,131.7,133.1,127.3,129.3,143.8,126.6,127.0,119.6,129.2,155.8,127.2,121.6,121.1,120.4,119.4,129.0
1973-05-01,205.9,206.0,227.2,229.1,214.6,222.4,193.4,193.5,202.3,212.2,211.6,214.5,201.9,199.0,201.8,205.2,212.2
1973-06-01,265.2,265.3,219.9,212.1,234.5,290.1,250.9,251.5,246.1,242.9,287.5,249.5,239.3,246.0,237.1,225.8,241.6
1973-07-01,228.2,228.3,181.5,188.4,195.4,237.1,191.6,191.8,190.1,186.8,205.6,197.0,208.5,201.7,200.1,198.1,198.3
1973-08-01,273.5,273.4,234.3,261.8,255.5,275.3,250.4,250.7,248.6,250.0,271.2,258.3,269.4,253.5,255.1,257.0,257.2
1973-09-01,149.9,150.1,198.8,190.4,166.7,140.6,132.5,132.6,146.0,183.0,131.8,189.1,169.8,143.8,151.9,162.1,163.1
1973-10-01,101.0,101.1,117.7,116.7,110.3,110.8,89.5,89.6,104.9,121.0,97.7,133.8,115.4,98.2,105.1,113.8,108.2
1973-11-01,84.6,84.6,70.4,74.0,51.9,91.5,65.7,65.8,57.5,64.0,69.5,71.8,72.3,81.0,74.9,67.3,71.0
1973-12-01,39.9,39.9,40.7,45.1,33.6,45.5,44.3,44.5,41.5,38.1,49.3,36.9,37.2,42.8,41.8,40.6,42.1
1974-01-01,40.3,40.4,38.5,39.0,26.2,26.1,28.9,28.8,32.6,31.2,20.2,26.9,45.6,36.9,35.7,34.2,34.2
1974-02-01,54.6,54.6,53.6,62.5,54.0,59.4,66.7,66.9,66.6,62.4,72.9,67.0,47.8,50.0,49.1,47.9,59.5
1974-03-01,163.4,163.2,97.3,118.1,90.1,174.1,117.1,117.6,95.3,76.7,146.3,77.3,108.3,111.9,105.0,96.4,116.4
1974-04-01,212.2,212.1,205.1,200.7,216.9,217.8,221.7,222.0,222.3,208.5,237.9,206.1,188.8,208.0,205.3,201.9,211.0
1974-05-01,197.9,197.9,187.5,176.0,174.7,221.8,180.3,180.7,172.6,183.9,210.7,199.9,154.1,164.6,161.0,156.5,181.7
1974-06-01,199.3,199.3,196.7,183.8,191.5,232.4,208.2,208.7,190.3,199.1,248.7,209.7,172.9,196.0,191.0,184.6,198.0
1974-07-01,161.0,161.1,213.3,192.3,168.3,174.7,160.4,160.9,143.8,188.3,201.5,199.8,156.9,162.8,161.3,159.4,175.6
1974-08-01,213.7,213.6,193.7,213.2,204.3,217.2,211.1,211.3,212.3,210.0,230.4,204.1,207.5,190.3,191.3,192.5,208.6
1974-09-01,176.2,176.1,149.4,176.7,137.3,153.9,134.5,134.4,129.0,139.1,129.1,132.8,184.0,167.2,166.7,166.1,154.7
1974-10-01,48.3,48.4,29.5,38.2,25.7,61.3,56.0,56.1,43.6,32.9,67.5,28.2,38.9,47.6,39.0,28.1,42.9
1974-11-01,25.5,25.6,51.8,56.9,33.4,34.4,30.4,30.4,31.0,33.9,30.5,34.9,33.7,30.6,33.4,36.9,38.6
1974-12-01,33.7,33.7,43.6,41.6,22.5,32.3,21.2,21.3,20.4,33.2,23.4,34.5,27.4,30.1,26.3,21.5,31.1
1975-01-01,48.4,48.3,55.6,57.3,38.9,56.5,44.4,44.5,47.7,43.0,44.5,38.0,48.2,49.2,46.3,42.7,49.5
1975-02-01,92.8,92.8,139.0,144.8,133.3,105.8,109.6,109.4,137.8,145.5,94.4,148.4,106.9,92.3,102.0,114.1,122.6
1975-03-01,123.5,123.3,86.8,103.4,91.9,113.9,103.6,103.6,80.9,78.4,106.4,67.9,111.3,118.5,113.0,106.1,101.2
1975-04-01,146.5,146.5,141.9,138.7,133.9,158.5,119.3,119.4,119.6,126.8,137.0,131.8,127.4,133.0,136.2,140.3,134.6
1975-05-01,239.8,239.5,185.2,194.9,201.4,242.9,198.7,199.4,183.2,201.5,245.8,210.7,184.5,208.4,201.1,191.8,203.5
1975-06-01,234.2,234.2,175.3,172.1,189.3,290.6,231.6,232.6,186.2,192.5,297.2,196.1,168.7,202.2,188.1,170.3,204.2
1975-07-01,248.0,248.0,254.5,241.6,247.6,261.7,247.5,247.7,227.6,259.7,253.6,272.3,233.2,250.6,243.9,235.5,246.2
1975-08-01,280.1,280.0,218.1,221.4,251.3,299.3,290.4,290.5,267.2,249.6,297.7,248.4,250.1,272.1,264.3,254.5,257.6
1975-09-01,180.8,180.8,157.4,174.8,147.8,179.7,165.9,166.0,144.9,139.5,171.8,137.4,167.4,166.1,165.1,163.8,164.5
1975-10-01,66.6,66.8,101.8,90.1,83.4,72.0,89.4,89.4,108.5,85.7,78.4,79.1,91.7,79.6,83.5,88.5,87.9
1975-11-01,56.7,56.7,54.1,52.1,43.8,61.4,44.9,44.9,58.0,56.4,44.9,52.7,50.7,45.0,43.3,41.2,51.4
1975-12-01,23.3,23.5,46.4,44.6,26.0,31.5,26.8,27.0,29.6,36.7,35.4,42.8,26.1,25.4,25.0,24.5,33.4
1976-01-01,47.9,47.8,32.0,36.1,31.2,54.9,35.0,35.1,36.4,35.9,41.6,36.1,36.5,37.2,35.0,32.3,37.7
1976-02-01,97.7,97.5,73.0,72.1,56.7,94.1,67.3,67.5,71.4,55.8,71.6,53.9,88.1,77.2,74.8,71.7,74.3
1976-03-01,115.4,115.4,182.0,175.0,155.4,132.8,135.1,135.2,153.5,166.9,139.9,167.7,113.2,124.6,128.9,134.2,149.3
1976-04-01,187.5,187.3,213.8,211.0,217.3,211.0,209.3,209.7,209.8,224.4,221.3,236.1,169.9,183.6,186.6,190.3,206.1
1976-05-01,239.0,238.9,247.7,246.2,239.9,226.5,209.7,209.6,224.8,244.5,211.8,267.0,230.0,224.4,231.0,239.4,233.2
1976-06-01,295.1,295.1,298.0,287.5,278.8,290.4,283.5,283.6,283.0,292.1,293.8,314.9,273.5,274.9,273.8,272.3,286.5
1976-07-01,262.2,262.2,228.0,240.5,255.1,279.0,273.0,273.5,248.9,240.2,301.3,239.5,244.0,268.1,264.9,260.9,255.0
1976-08-01,245.5,245.4,221.5,208.5,234.9,262.8,251.2,251.5,246.3,246.0,279.6,256.7,220.0,242.1,238.3,233.4,236.6
1976-09-01,124.8,124.6,122.8,116.3,102.2,117.0,99.4,99.6,103.7,115.2,110.1,119.4,102.6,97.7,96.9,95.9,110.4
1976-10-01,71.7,71.6,111.7,103.1,86.5,38.8,64.6,64.4,93.6,99.2,43.9,99.8,100.4,72.8,80.7,90.7,84.7
1976-11-01,45.0,44.9,41.2,37.2,33.4,47.1,31.6,31.6,33.2,40.1,31.3,45.8,30.8,42.7,39.2,34.8,37.4
1976-12-01,40.4,40.5,43.7,47.1,35.5,44.7,44.0,44.0,46.8,38.4,42.0,39.3,34.0,43.1,41.3,39.1,42.9
1977-01-01,17.9,17.9,25.3,28.0,20.1,19.4,21.2,21.3,28.9,27.9,20.2,23.8,23.9,23.8,22.8,21.5,23.9
1977-02-01,53.3,53.3,62.5,64.0,55.4,41.6,49.4,49.1,66.3,53.9,28.8,44.7,62.5,59.5,61.5,64.1,56.6
1977-03-01,93.4,93.5,123.4,121.2,116.3,89.7,100.9,100.6,118.8,117.7,94.6,122.9,83.9,88.4,93.6,100.2,107.6
1977-04-01,133.9,133.7,108.4,112.2,127.5,123.7,120.6,120.7,128.5,130.4,127.5,131.1,110.1,128.4,125.0,120.7,121.0
1977-05-01,250.9,250.8,193.8,209.2,228.1,291.6,253.2,253.7,229.3,213.6,294.0,213.5,209.8,239.1,235.0,229.9,232.2
1977-06-01,184.7,184.5,167.6,174.3,124.1,199.2,160.8,161.6,123.3,134.6,213.9,152.1,136.4,140.5,130.1,116.9,159.5
1977-07-01,197.6,197.4,227.8,226.4,183.6,197.9,186.9,187.1,167.4,186.9,221.1,204.7,169.4,183.3,180.6,177.2,198.5
1977-08-01,151.3,151.3,158.1,149.2,136.7,168.1,138.8,139.0,132.3,145.4,161.5,151.9,127.4,135.9,131.9,126.9,145.2
1977-09-01,154.6,154.4,148.5,132.0,127.9,170.1,136.7,137.1,124.6,136.9,162.7,153.5,112.9,138.2,130.4,120.6,138.5
1977-10-01,106.8,106.7,99.6,98.0,89.0,88.1,102.4,102.1,117.0,83.5,87.3,77.3,129.4,114.3,113.2,111.9,101.9
1977-11-01,41.3,41.3,60.3,60.0,40.3,30.7,34.2,34.2,36.6,48.2,35.5,42.5,53.0,40.0,41.5,43.3,45.5
1977-12-01,24.4,24.4,39.6,38.1,29.7,13.5,22.1,22.2,46.8,35.1,22.0,34.4,39.4,22.7,28.6,35.9,31.9
1978-01-01,34.8,34.7,41.7,43.4,32.6,33.6,33.2,33.1,43.4,36.0,30.2,31.1,30.4,31.6,31.9,32.3,36.9
1978-02-01,73.3,73.3,47.4,47.5,41.1,69.5,59.7,59.8,62.4,41.1,62.0,38.0,57.9,61.7,54.7,45.8,55.3
1978-03-01,118.7,118.7,101.4,108.1,79.9,86.9,67.4,67.3,66.2,88.8,70.5,91.7,105.2,90.7,90.5,90.2,91.0
1978-04-01,181.3,181.2,170.9,180.7,182.2,152.8,159.9,159.8,176.1,181.6,143.4,187.0,164.0,169.2,170.0,171.0,171.2
1978-05-01,222.4,222.4,141.2,147.3,145.9,264.6,193.0,193.8,159.2,141.9,258.2,145.5,171.9,178.8,167.9,154.1,175.9
1978-06-01,219.8,219.7,203.9,201.2,169.7,238.7,202.8,203.4,165.9,166.5,237.2,170.8,190.0,188.2,180.0,169.7,197.2
1978-07-01,191.7,191.6,208.2,201.4,172.7,178.9,175.2,175.3,163.5,179.7,170.2,189.8,183.0,178.4,178.2,177.9,184.9
1978-08-01,193.8,193.8,209.4,200.4,168.3,204.8,161.1,161.4,155.3,177.7,198.9,193.4,166.2,171.8,169.4,166.3,183.2
1978-09-01,87.4,87.7,156.6,121.3,88.4,97.7,83.9,83.9,82.1,112.6,99.5,123.2,93.6,90.4,89.9,89.2,103.7
1978-10-01,87.3,87.2,102.0,88.5,83.0,89.3,73.8,73.9,90.0,89.6,87.6,96.8,88.3,78.0,81.9,86.8,87.1
1978-11-01,49.7,49.7,84.0,60.9,43.8,35.5,50.5,50.2,79.4,58.4,30.7,46.3,74.8,64.2,63.1,61.6,59.4
1978-12-01,32.6,32.6,40.8,43.1,39.4,31.3,28.6,28.6,44.5,49.1,29.7,49.1,30.1,25.5,28.7,32.7,36.8
1979-01-01,33.7,33.7,52.5,52.9,41.6,31.5,30.0,30.1,39.3,50.2,31.3,35.8,42.8,38.1,41.9,46.6,41.9
1979-02-01,64.2,64.0,48.3,61.7,57.0,56.5,42.0,42.1,49.6,48.6,54.1,45.8,62.1,51.6,56.6,62.9,54.4
1979-03-01,91.2,91.3,81.4,97.0,77.8,79.1,81.0,80.9,82.8,77.7,75.4,72.0,91.1,81.7,81.0,80.0,85.0
1979-04-01,131.2,131.1,124.1,110.8,120.6,134.1,111.1,111.2,127.6,132.8,124.5,133.1,104.1,107.8,104.2,99.6,118.6
1979-05-01,252.3,252.3,231.3,257.0,221.2,245.7,203.1,203.2,205.0,217.2,214.6,211.2,257.6,227.6,228.6,229.9,231.6
1979-06-01,229.8,229.7,199.6,204.8,191.8,217.0,182.6,182.9,172.3,195.2,204.4,215.1,221.9,185.6,188.5,192.2,199.1
1979-07-01,145.1,145.2,198.9,155.7,146.2,168.1,147.0,147.4,129.2,163.6,179.2,185.5,129.7,140.4,137.3,133.3,154.2
1979-08-01,212.5,212.2,186.6,181.1,154.2,194.3,167.9,167.9,145.0,154.4,171.3,168.5,186.3,181.1,176.1,169.9,176.2
1979-09-01,155.7,155.8,182.3,180.6,168.8,157.2,152.7,152.8,159.5,179.1,154.0,185.5,155.5,152.0,154.8,158.3,165.5
1979-10-01,180.5,180.4,124.1,145.9,134.3,186.4,142.3,142.7,125.8,119.6,153.8,107.8,162.1,157.0,153.7,149.5,146.5
1979-11-01,35.5,35.5,46.6,35.9,41.4,42.3,52.6,52.6,63.9,52.3,48.7,48.6,30.6,49.7,46.3,42.1,45.0
1979-12-01,26.6,26.6,41.7,41.2,24.6,23.9,15.8,15.7,20.5,32.8,20.7,29.3,31.3,25.0,23.6,21.9,28.7
1980-01-01,46.8,46.8,37.7,42.7,42.2,43.5,44.6,44.7,50.7,43.2,39.4,43.8,47.1,44.3,45.3,46.5,44.0
1980-02-01,56.3,56.2,91.2,103.5,80.3,46.0,62.0,61.9,75.5,80.3,55.9,84.9,76.7,64.6,72.3,81.9,76.7
1980-03-01,109.8,109.9,94.4,100.0,70.1,125.1,86.3,86.7,68.8,72.0,106.3,75.1,90.3,84.6,79.2,72.3,91.3
1980-04-01,144.1,144.1,134.6,124.2,142.1,161.4,160.4,160.7,148.6,153.9,184.1,164.3,116.3,136.1,131.9,126.5,142.6
1980-05-01,294.6,294.4,198.0,213.5,248.1,285.4,274.2,274.2,268.5,229.5,271.2,220.5,270.7,277.5,269.7,259.8,251.2
1980-06-01,195.9,195.6,156.3,173.5,155.9,203.3,176.2,176.7,144.7,137.9,204.1,132.8,169.0,182.8,178.9,174.0,171.6
1980-07-01,142.5,142.6,138.3,136.1,129.0,163.9,132.8,132.9,128.8,124.6,150.4,122.3,123.3,134.3,129.5,123.4,135.7
1980-08-01,198.4,198.2,198.6,207.2,176.2,165.8,180.2,180.0,166.6,159.0,162.7,168.0,204.0,199.4,198.3,197.0,187.5
1980-09-01,177.0,176.9,180.9,154.7,151.6,181.7,166.9,167.0,169.3,158.4,176.8,152.3,164.7,164.9,159.6,153.0,166.1
1980-10-01,104.2,104.1,91.9,82.3,79.9,99.3,83.6,83.8,83.7,92.6,95.5,90.4,89.9,87.6,86.3,84.7,88.5
1980-11-01,39.8,39.9,59.8,58.2,48.5,61.1,48.1,48.5,47.0,61.6,65.4,58.6,38.8,40.0,39.8,39.5,51.6
1980-12-01,36.9,36.9,46.0,41.6,31.4,34.3,33.4,33.4,35.2,38.4,34.5,32.1,34.6,35.3,33.1,30.3,37.1
1981-01-01,44.3,44.3,60.3,53.4,51.3,47.8,42.6,42.7,37.4,53.3,44.5,62.4,49.4,51.8,54.0,56.9,49.4
1981-02-01,68.5,68.5,98.4,90.5,70.4,66.7,60.4,60.4,75.1,85.0,64.3,96.7,60.2,62.9,61.0,58.6,75.2
1981-03-01,69.6,69.8,95.4,94.8,74.6,64.6,61.7,61.7,70.9,78.8,58.7,75.3,92.1,74.6,76.3,78.5,78.2
1981-04-01,199.5,199.5,178.4,198.9,174.9,218.0,177.1,177.4,149.8,160.8,203.4,173.5,179.9,176.8,179.1,181.9,184.0
1981-05-01,258.4,258.4,168.4,181.6,179.2,261.9,214.8,215.0,184.6,172.3,235.0,172.5,224.1,225.8,212.8,196.5,203.8
1981-06-01,175.3,175.3,178.6,185.5,161.7,152.4,128.9,128.7,139.3,163.1,123.5,170.0,171.5,153.5,156.5,160.2,160.5
1981-07-01,161.8,162.0,164.7,153.8,142.3,176.5,143.6,143.8,135.2,143.8,166.5,148.5,139.9,143.6,139.4,134.0,151.0
1981-08-01,183.6,183.8,205.7,198.8,165.7,203.5,169.8,170.3,151.1,169.7,204.4,188.7,183.1,167.9,167.4,166.7,182.7
1981-09-01,160.9,160.7,139.6,136.5,155.7,159.7,154.3,154.4,159.7,155.7,153.0,152.7,151.5,153.9,153.4,152.8,150.6
1981-10-01,84.6,84.5,68.1,86.4,56.6,89.3,83.1,83.2,63.7,60.7,87.7,59.3,69.1,77.7,72.2,65.3,76.3
1981-11-01,54.9,54.8,72.3,54.8,48.6,54.7,52.6,52.7,46.7,58.7,58.8,62.9,40.8,51.3,49.4,47.1,54.4
1981-12-01,31.2,31.1,28.0,25.3,22.8,39.6,21.8,21.9,20.5,24.0,31.9,17.9,23.8,25.8,25.4,24.8,26.1
1982-01-01,57.7,57.7,50.1,55.4,53.6,52.6,59.6,59.5,70.6,53.7,43.5,47.8,70.7,59.8,63.1,67.3,57.7
1982-02-01,99.0,98.8,96.8,98.4,98.2,80.0,91.0,90.8,108.2,98.4,70.2,99.5,113.1,97.6,99.7,102.4,96.7
1982-03-01,153.7,153.6,123.2,142.2,124.2,133.2,126.9,126.9,123.5,127.3,117.0,129.7,144.4,139.5,136.1,131.9,133.3
1982-04-01,210.9,211.1,196.4,188.6,202.0,224.2,190.0,190.1,181.9,196.1,216.1,199.3,198.3,205.2,204.2,202.9,197.7
1982-05-01,245.2,245.1,221.2,222.9,221.4,235.3,221.2,221.2,214.1,221.2,222.1,232.1,239.3,225.6,222.9,219.4,225.1
1982-06-01,223.6,223.8,204.6,205.5,194.3,222.3,198.8,198.8,180.7,194.2,205.6,200.4,218.1,206.8,205.3,203.4,204.1
1982-07-01,306.0,305.8,224.6,226.1,229.3,314.3,262.3,262.8,229.4,220.3,301.4,234.0,239.4,270.8,255.3,235.9,250.7
1982-08-01,228.9,228.8,176.6,177.5,190.2,229.7,193.8,193.8,178.1,181.8,214.6,176.5,209.7,212.3,207.6,201.7,194.8
1982-09-01,213.1,212.8,191.5,193.2,200.2,189.8,169.0,168.7,173.8,198.0,148.4,194.6,205.6,199.5,203.0,207.4,189.7
1982-10-01,106.5,106.4,63.0,73.9,46.0,96.4,70.5,70.4,75.0,48.8,72.6,47.4,108.8,89.3,83.5,76.1,76.2
1982-11-01,70.5,70.4,74.1,71.1,52.6,61.7,49.1,49.1,52.5,54.1,51.3,49.4,73.5,66.7,65.1,63.0,62.5
1982-12-01,35.6,35.5,29.5,32.1,21.7,30.6,26.9,26.8,26.8,26.4,30.8,26.4,37.9,34.9,32.2,28.8,30.1
1983-01-01,30.9,31.0,45.1,44.6,24.9,30.1,27.2,27.1,32.7,30.3,23.5,21.9,34.9,37.5,35.4,32.6,34.6
1983-02-01,70.6,70.5,80.7,85.9,81.3,73.8,75.4,75.5,87.3,87.8,85.4,86.7,59.1,72.0,72.3,72.6,79.0
1983-03-01,75.2,75.2,98.0,94.3,87.3,64.3,75.2,75.0,81.3,96.3,68.9,95.5,77.4,81.9,82.0,82.2,83.7
1983-04-01,136.6,136.8,119.9,126.3,125.7,113.6,115.4,115.2,119.6,119.5,108.2,109.5,139.4,131.0,129.0,126.5,123.2
1983-05-01,152.5,152.5,132.2,156.2,103.5,144.9,113.6,113.6,99.5,92.3,125.2,84.9,151.9,135.8,133.3,130.2,130.5
1983-06-01,251.0,250.9,209.0,211.1,212.1,256.4,231.6,231.9,209.3,207.0,249.4,212.7,221.1,226.1,220.5,213.5,222.8
1983-07-01,315.2,315.1,302.4,300.6,278.1,306.0,263.3,263.5,252.1,275.1,290.1,304.6,292.0,290.0,289.8,289.6,288.0
1983-08-01,249.7,249.7,215.5,211.3,233.4,253.2,245.9,246.3,233.0,230.9,276.4,238.1,221.8,238.3,232.9,226.2,232.7
1983-09-01,136.7,136.9,179.8,178.1,148.0,131.0,127.6,127.4,134.1,152.3,124.7,151.9,152.3,141.7,147.0,153.7,150.3
1983-10-01,96.5,96.8,118.1,121.8,103.7,101.3,98.5,98.5,107.3,108.7,102.2,114.8,112.3,101.6,105.0,109.3,108.5
1983-11-01,69.1,69.0,87.5,73.2,59.3,65.9,73.8,73.8,88.5,73.2,71.3,76.1,71.3,71.4,71.6,71.9,74.2
1983-12-01,56.1,56.1,63.4,60.5,38.2,56.9,55.0,55.0,57.2,49.0,47.0,46.9,58.4,51.2,49.3,46.9,55.2
1984-01-01,38.2,38.3,32.4,44.2,21.1,43.5,35.5,35.5,33.1,26.5,39.3,19.5,47.4,36.9,34.1,30.6,36.6
1984-02-01,75.7,75.8,71.0,79.7,72.2,64.9,70.0,69.9,81.7,76.2,62.4,85.8,82.2,67.5,69.7,72.5,74.1
1984-03-01,151.6,151.6,153.4,152.2,139.7,141.3,127.9,127.7,126.6,139.7,122.4,156.6,144.3,142.1,138.8,134.6,141.4
1984-04-01,178.0,177.8,184.9,168.3,180.2,200.9,200.8,201.2,190.2,187.0,219.2,195.8,160.8,177.9,176.1,173.9,184.0
1984-05-01,153.1,153.1,114.8,128.4,103.3,191.6,131.4,132.1,94.7,102.1,187.0,104.5,131.5,123.1,114.1,102.7,128.7
1984-06-01,141.6,141.8,206.7,184.1,171.0,137.6,123.6,123.4,144.6,189.3,128.7,211.6,150.7,144.2,148.2,153.2,159.6
1984-07-01,157.1,157.2,232.8,210.7,190.0,164.0,137.2,137.0,176.5,202.9,132.7,228.9,166.1,159.0,169.9,183.5,180.7
1984-08-01,241.3,241.1,198.3,192.9,183.6,225.4,210.8,211.1,192.9,187.5,233.5,194.3,209.1,210.6,201.6,190.3,204.8
1984-09-01,101.1,101.0,104.6,103.3,64.7,99.8,89.3,89.5,69.9,72.6,103.7,71.0,89.3,89.5,83.1,75.0,91.0
1984-10-01,102.1,102.2,113.5,120.0,76.7,107.3,93.8,94.0,84.9,83.7,93.3,74.5,121.6,99.8,98.9,97.7,102.0
1984-11-01,69.8,69.7,70.3,61.3,44.2,62.2,68.6,68.5,62.7,48.8,58.6,42.7,75.6,71.5,68.0,63.6,63.6
1984-12-01,35.2,35.3,45.7,37.2,22.2,38.1,22.2,22.2,36.1,26.7,25.9,27.4,51.4,36.4,36.9,37.5,34.5
1985-01-01,39.6,39.5,44.0,45.1,33.9,41.5,36.3,36.5,34.8,34.9,47.8,31.9,34.8,37.0,39.0,41.6,39.8
1985-02-01,92.3,92.2,112.6,103.9,124.0,81.8,94.7,94.5,124.8,126.8,75.0,126.7,85.3,93.1,100.1,108.9,103.1
1985-03-01,69.8,69.8,86.2,79.5,66.2,58.7,61.3,61.3,67.5,74.6,63.7,84.1,72.7,67.1,64.8,61.9,70.8
1985-04-01,153.5,153.5,165.1,162.5,149.1,134.5,129.0,128.8,136.5,147.4,116.5,142.7,151.3,148.0,146.5,144.7,147.1
1985-05-01,226.4,226.0,164.7,181.8,180.1,232.8,209.9,210.2,182.9,157.1,220.3,151.4,179.6,213.7,206.5,197.4,193.5
1985-06-01,164.8,164.8,192.6,170.1,143.3,177.2,161.0,161.2,147.2,152.4,181.8,169.4,151.9,158.9,152.9,145.4,164.2
1985-07-01,245.5,245.4,263.0,259.0,230.4,242.9,203.9,203.9,213.3,237.7,202.2,262.1,243.2,233.7,237.8,242.9,237.1
1985-08-01,210.1,210.1,236.9,228.6,188.8,205.0,197.9,198.0,191.1,198.6,207.1,202.7,210.7,206.8,206.0,204.9,210.2
1985-09-01,153.3,153.3,207.2,192.6,162.7,135.7,131.1,131.1,142.2,179.3,122.6,192.9,147.4,146.0,150.9,157.1,161.7
1985-10-01,102.9,103.0,158.1,138.2,125.9,92.7,100.4,100.3,126.2,141.0,90.1,152.5,130.6,99.9,110.6,124.1,122.2
1985-11-01,38.5,38.5,39.3,38.3,34.6,46.9,39.3,39.3,45.9,43.9,43.1,37.3,39.9,40.6,38.1,35.0,40.2
1985-12-01,28.1,28.1,48.1,44.9,28.3,19.7,17.6,17.5,26.3,37.1,11.8,40.9,33.2,27.1,29.5,32.4,31.6
1986-01-01,35.5,35.6,35.3,31.7,24.0,37.4,34.5,34.7,30.2,29.3,43.3,23.6,35.3,32.7,30.8,28.3,33.0
1986-02-01,97.9,97.8,71.6,94.2,93.3,94.6,106.5,106.5,104.2,99.6,94.6,106.2,86.3,87.3,83.5,78.8,93.7
1986-03-01,107.4,107.4,88.6,93.5,65.6,96.6,81.8,81.8,80.9,75.9,70.5,86.2,94.2,92.0,87.8,82.4,87.4
1986-04-01,102.3,102.5,90.2,124.5,101.6,106.4,114.6,114.7,105.0,94.2,121.3,86.5,103.8,104.0,102.7,101.1,108.0
1986-05-01,240.7,240.5,172.8,185.3,193.5,241.5,221.5,221.6,215.2,188.9,218.4,184.2,217.9,219.1,210.7,200.1,206.6
1986-06-01,277.7,277.6,220.7,221.9,231.4,290.3,255.0,255.5,247.3,223.5,274.5,228.2,235.7,245.7,236.9,225.8,243.2
1986-07-01,225.5,225.6,238.3,223.1,206.4,217.5,186.3,186.3,193.0,214.7,200.6,227.8,207.8,203.9,201.7,199.0,211.3
1986-08-01,199.1,199.0,205.3,199.3,174.8,221.3,182.8,183.1,175.7,174.8,202.0,172.8,180.9,190.9,187.1,182.3,191.8
1986-09-01,124.3,124.5,175.2,169.8,152.9,142.0,115.5,115.6,135.6,166.1,122.3,179.8,132.6,121.3,129.3,139.4,144.8
1986-10-01,131.9,131.7,122.6,124.4,106.7,112.3,107.0,106.8,113.2,107.3,96.0,107.3,132.2,121.5,119.9,117.8,117.2
1986-11-01,87.1,87.1,94.0,85.8,56.0,74.1,71.1,71.2,71.6,61.8,59.6,59.4,91.7,84.3,78.8,71.8,77.8
1986-12-01,32.5,32.6,49.5,47.4,30.9,33.8,38.0,38.1,39.3,43.4,35.8,40.3,43.1,39.4,38.2,36.7,40.5
1987-01-01,53.2,53.2,46.3,44.8,46.6,54.7,45.2,45.4,41.5,50.7,55.8,52.3,42.5,41.8,42.7,43.7,46.7
1987-02-01,63.4,63.4,38.8,49.3,42.9,76.9,68.5,68.8,49.4,37.8,80.0,34.4,62.3,60.2,57.8,54.7,55.7
1987-03-01,154.2,154.3,133.7,131.8,140.0,146.1,133.8,133.8,140.5,143.7,127.5,141.2,129.4,140.5,135.3,128.7,137.2
1987-04-01,178.5,178.5,184.4,170.8,182.2,170.2,156.8,156.9,175.8,185.1,155.8,188.8,168.9,165.7,168.0,170.9,171.9
1987-05-01,182.3,182.5,143.6,130.5,152.2,198.8,154.4,154.7,138.3,149.2,176.2,168.9,147.7,161.9,154.2,144.5,152.6
1987-06-01,155.3,155.3,136.9,133.4,128.4,138.4,116.8,116.5,121.5,134.4,104.4,127.3,132.4,142.7,135.6,126.6,131.2
1987-07-01,223.3,223.2,203.1,207.8,194.3,203.4,195.7,196.0,188.8,198.1,190.7,197.1,214.0,204.8,201.7,197.9,202.5
1987-08-01,156.6,156.7,191.0,166.7,144.0,158.0,127.1,127.1,124.9,167.9,135.9,184.4,148.9,144.0,145.5,147.4,152.8
1987-09-01,143.3,143.3,177.8,160.2,140.1,148.5,139.5,139.5,131.0,141.5,140.6,150.3,126.8,135.9,134.3,132.2,146.6
1987-10-01,135.5,135.5,97.4,111.8,97.5,139.1,115.3,115.3,112.6,90.4,116.1,88.0,136.2,120.3,119.6,118.6,114.7
1987-11-01,14.8,14.8,49.0,36.7,19.0,21.6,16.7,16.7,24.1,33.7,20.6,36.2,13.7,15.9,17.8,20.2,26.2
1987-12-01,31.5,31.6,36.8,36.1,27.5,34.1,24.2,24.2,39.9,34.2,25.2,40.0,34.4,28.2,29.0,30.1,32.6
1988-01-01,47.0,47.0,49.4,46.6,29.7,26.2,30.5,30.4,37.6,34.8,25.2,26.2,55.0,45.4,41.8,37.3,39.8
1988-02-01,58.7,58.6,66.9,65.1,54.1,47.8,49.3,49.3,57.3,66.4,45.9,74.1,53.0,53.7,52.2,50.2,57.4
1988-03-01,86.2,86.3,56.1,59.6,55.8,103.5,68.1,68.3,53.4,59.5,86.9,57.6,62.8,70.1,62.8,53.7,66.4
1988-04-01,211.9,212.0,174.0,195.4,194.6,194.9,188.9,188.7,200.9,197.9,188.0,207.5,213.1,201.6,201.6,201.7,195.6
1988-05-01,280.6,280.6,194.8,217.0,219.6,298.6,258.1,258.3,227.0,199.2,265.3,194.5,248.0,258.3,247.5,234.0,237.8
1988-06-01,168.1,168.0,180.2,163.4,135.8,163.1,121.2,121.3,110.9,145.8,145.0,185.7,147.1,149.3,146.1,142.1,148.9
1988-07-01,217.9,217.8,237.7,229.2,196.9,187.1,157.5,157.4,166.4,205.6,153.2,222.9,215.3,202.8,204.4,206.5,200.9
1988-08-01,221.4,221.3,227.1,218.1,225.3,202.3,196.0,195.8,202.3,224.2,185.1,241.1,222.9,220.6,222.6,225.2,213.9
1988-09-01,128.6,128.7,132.3,122.0,108.6,135.5,118.1,118.3,100.3,112.0,128.4,116.2,121.4,127.7,122.7,116.5,120.9
1988-10-01,109.0,109.0,88.3,86.4,69.3,114.9,78.2,78.3,76.3,80.5,84.0,86.7,89.9,85.8,81.6,76.2,86.6
1988-11-01,58.6,58.5,61.5,62.5,51.7,67.2,51.9,52.0,55.8,62.5,69.4,75.0,56.5,52.5,52.7,53.0,58.8
1988-12-01,33.0,33.0,23.1,19.8,19.4,34.4,24.7,24.8,15.6,17.1,33.6,17.3,23.2,33.1,28.5,22.6,24.0
1989-01-01,61.8,61.8,76.5,58.4,43.4,44.3,56.8,56.5,71.1,47.4,41.4,45.4,95.6,77.1,76.3,75.3,62.1
1989-02-01,77.3,77.2,68.8,55.2,46.6,72.8,84.1,84.0,87.5,51.7,69.8,36.8,75.0,77.1,71.7,64.9,69.1
1989-03-01,143.3,143.3,153.9,140.2,132.7,120.1,109.8,109.6,123.5,140.6,102.4,147.2,143.0,137.7,136.2,134.2,132.6
1989-04-01,136.5,136.6,76.6,86.6,79.0,157.6,107.2,107.3,88.8,78.8,133.3,81.1,104.7,117.6,104.3,87.5,101.4
1989-05-01,336.5,336.4,292.3,268.7,312.7,342.4,315.0,315.1,312.4,319.6,319.2,337.5,305.1,325.7,320.2,313.3,307.3
1989-06-01,265.0,265.0,223.0,181.6,227.3,279.9,258.1,258.4,240.3,226.4,282.2,239.7,225.1,251.5,238.7,222.5,233.4
1989-07-01,227.6,227.7,212.0,201.3,210.9,231.2,182.8,182.9,202.0,218.1,202.6,241.2,211.0,208.5,209.4,210.5,207.3
1989-08-01,225.1,225.1,222.6,198.8,203.4,209.1,198.1,197.8,203.2,205.2,174.5,219.7,217.2,223.9,220.5,216.1,207.3
1989-09-01,178.4,178.2,140.4,134.3,135.3,192.7,146.1,146.4,133.8,149.7,164.9,171.8,140.2,154.5,146.2,135.7,148.1
1989-10-01,122.7,122.7,130.6,132.4,108.6,97.1,99.9,99.9,110.8,117.8,91.4,126.1,131.1,120.6,118.9,116.8,117.2
1989-11-01,87.3,87.3,101.5,96.4,94.3,98.8,104.4,104.4,109.5,106.1,95.7,113.5,104.2,98.6,101.1,104.3,100.1
1989-12-01,46.2,46.1,57.4,55.1,36.1,36.9,34.7,34.7,40.6,44.3,33.2,52.5,57.3,43.9,46.3,49.2,45.8
1990-01-01,39.4,39.6,74.1,65.7,20.4,27.6,26.2,26.1,30.2,25.9,18.1,17.6,51.9,36.4,31.9,26.3,41.6
1990-02-01,102.4,102.5,105.4,111.6,89.5,95.4,90.1,90.1,91.5,99.9,81.1,97.6,109.9,101.1,96.9,91.5,99.3
1990-03-01,120.6,120.8,159.5,149.6,132.9,126.7,126.9,126.8,124.0,146.4,133.0,161.8,127.1,123.7,125.7,128.3,135.7
1990-04-01,215.1,215.1,123.8,134.8,164.3,220.9,197.0,197.1,189.9,156.4,204.8,156.3,187.3,193.3,174.5,150.9,172.7
1990-05-01,304.0,304.1,283.7,283.1,291.4,305.0,285.6,285.6,289.6,292.6,281.1,315.9,309.3,290.8,292.0,293.5,290.7
1990-06-01,157.9,157.9,165.5,162.8,146.0,143.8,121.3,121.2,133.0,150.2,120.0,160.5,155.7,144.4,144.3,144.2,147.1
1990-07-01,250.9,250.9,266.0,254.0,255.8,237.0,221.4,221.4,237.7,273.3,235.3,297.4,252.0,241.2,239.7,237.7,247.0
1990-08-01,254.2,254.2,246.3,248.1,212.0,241.5,222.3,222.4,213.4,213.6,238.5,239.4,253.3,239.2,232.4,223.9,235.4
1990-09-01,117.6,117.7,149.7,126.9,94.2,121.1,87.4,87.5,82.6,114.2,97.2,139.1,114.0,104.8,98.5,90.6,111.1
1990-10-01,156.1,156.1,139.0,143.6,130.6,131.5,135.6,135.4,140.6,132.3,120.1,135.8,162.2,150.2,144.1,136.4,140.5
1990-11-01,40.4,40.3,40.7,40.6,28.1,25.6,36.5,36.3,37.6,39.1,35.3,44.4,41.3,40.7,36.5,31.3,37.4
1990-12-01,39.7,39.7,35.7,35.3,25.1,38.2,28.4,28.4,30.7,24.4,26.9,28.7,41.2,38.0,32.9,26.5,33.0
1991-01-01,71.2,71.1,58.5,75.7,59.2,75.2,67.3,67.4,70.4,63.5,68.1,62.0,72.8,67.1,65.7,64.0,68.7
1991-02-01,75.7,75.8,100.9,106.2,89.3,73.6,83.7,83.5,93.4,105.0,80.2,120.2,102.7,88.7,91.0,93.8,92.8
1991-03-01,117.6,117.5,98.4,98.5,103.5,128.6,109.8,109.7,112.0,102.2,108.2,105.3,99.2,108.4,106.3,103.6,106.7
1991-04-01,171.5,171.4,183.9,172.6,188.8,189.8,196.6,196.5,191.6,192.0,190.1,208.1,149.9,175.4,174.3,173.0,181.8
1991-05-01,182.5,182.3,181.5,152.9,155.9,211.6,157.5,157.8,152.9,187.7,200.5,218.0,152.8,168.3,155.8,140.1,167.8
1991-06-01,191.6,191.3,183.7,175.5,139.7,152.7,122.9,123.0,118.3,137.6,137.7,145.8,191.3,169.1,164.8,159.4,157.3
1991-07-01,308.0,307.7,277.3,261.1,263.0,296.7,275.1,275.6,242.7,260.6,292.3,280.4,277.5,292.0,283.4,272.6,274.0
1991-08-01,200.3,200.1,274.4,240.2,242.4,203.5,207.8,207.9,225.1,274.6,217.8,304.0,197.9,201.2,203.1,205.4,227.6
1991-09-01,190.4,190.3,175.8,167.8,167.6,178.8,153.0,153.1,152.1,173.6,159.3,186.0,191.8,179.3,178.0,176.4,170.1
1991-10-01,181.5,181.2,113.7,133.1,111.6,143.7,134.7,134.7,120.2,96.0,128.7,95.3,187.5,173.3,168.2,161.8,137.6
1991-11-01,43.9,43.8,42.5,39.2,40.5,45.1,51.4,51.3,55.9,49.1,47.7,46.3,50.8,54.5,50.8,46.1,46.4
1991-12-01,49.3,49.3,52.0,47.7,44.6,44.6,45.9,45.8,54.8,43.8,34.6,52.3,54.4,54.5,52.0,48.8,48.3
1992-01-01,42.5,42.4,65.2,53.3,43.7,51.3,40.5,40.6,50.8,46.7,47.3,49.5,48.0,44.5,43.3,41.9,49.0
1992-02-01,47.5,47.5,78.7,61.7,43.3,42.3,51.2,51.2,58.4,61.0,50.7,72.4,61.6,58.2,57.4,56.3,57.3
1992-03-01,103.7,103.8,101.3,94.7,91.0,102.5,79.8,79.6,88.9,93.8,82.6,93.8,107.5,101.7,99.2,96.1,94.4
1992-04-01,150.7,150.7,164.5,149.6,141.0,144.4,121.8,121.7,130.3,148.4,126.3,164.0,150.8,140.8,142.3,144.2,143.1
1992-05-01,295.7,295.5,244.8,269.2,278.9,302.6,285.6,285.6,267.1,255.8,298.0,260.2,289.6,293.6,286.7,278.0,277.0
1992-06-01,300.7,300.4,177.6,178.0,188.1,331.1,252.6,253.5,199.0,176.4,304.4,198.8,227.4,257.4,225.5,185.3,224.2
1992-07-01,252.6,252.5,213.9,215.9,222.2,264.5,216.4,216.5,219.9,215.3,235.0,218.0,236.4,231.7,224.4,215.1,225.6
1992-08-01,221.0,221.0,242.3,247.7,202.7,209.7,177.0,177.0,175.8,204.8,185.9,225.1,230.4,208.8,210.0,211.4,213.3
1992-09-01,177.1,177.1,169.4,157.7,164.6,188.0,162.2,162.4,162.2,164.5,166.7,173.5,170.8,170.4,164.7,157.5,166.3
1992-10-01,105.4,105.3,53.8,63.5,79.4,122.6,88.8,89.1,88.3,78.3,101.2,73.2,94.6,93.5,87.7,80.3,83.3
1992-11-01,44.4,44.5,44.6,37.8,35.9,40.4,48.6,48.6,46.4,41.6,48.2,34.1,52.9,54.3,49.7,43.8,44.0
1992-12-01,51.2,51.2,48.9,43.7,40.5,44.5,38.3,38.2,53.9,49.9,29.4,54.0,57.3,47.3,47.0,46.7,45.8
1993-01-01,73.6,73.4,58.4,67.0,47.4,74.7,57.0,57.0,54.1,43.4,59.3,38.5,73.4,67.8,62.6,56.0,61.5
1993-02-01,54.3,54.4,78.0,70.0,75.1,43.9,55.9,55.7,75.3,58.2,44.8,43.6,91.1,69.5,77.1,86.7,66.5
1993-03-01,137.6,137.5,155.4,143.6,160.1,130.3,146.0,145.9,163.8,166.1,134.4,172.3,134.5,138.2,139.0,139.9,146.7
1993-04-01,223.3,223.2,171.7,178.5,169.4,213.8,172.4,172.9,155.6,165.9,196.5,175.9,206.7,203.1,192.1,178.3,183.4
1993-05-01,240.0,240.0,216.3,244.8,232.9,256.9,224.3,224.3,221.3,204.8,231.8,194.6,229.6,231.7,226.5,219.9,230.7
1993-06-01,195.7,195.9,202.4,195.0,202.5,218.3,203.2,203.2,201.4,208.1,217.1,224.6,185.6,201.4,193.0,182.5,200.7
1993-07-01,183.1,182.9,201.2,182.8,180.0,179.8,149.7,149.6,170.6,191.3,161.7,206.1,186.7,175.6,172.7,169.1,177.5
1993-08-01,204.9,204.8,243.2,237.0,227.7,192.9,166.7,166.7,173.4,243.9,179.1,269.3,223.3,200.0,205.8,213.0,210.1
1993-09-01,104.0,104.0,133.0,141.4,111.2,97.2,109.9,109.9,112.7,109.9,97.2,106.2,126.6,103.3,105.2,107.5,117.3
1993-10-01,104.9,104.8,58.5,81.1,69.6,103.1,88.1,88.3,84.3,56.3,91.6,45.4,102.7,94.7,91.0,86.3,83.8
1993-11-01,28.2,28.2,50.1,37.4,45.4,21.5,44.4,44.3,67.6,51.6,32.1,59.3,49.3,31.9,37.0,43.4,42.5
1993-12-01,25.0,25.1,23.1,25.5,8.5,14.5,9.5,9.5,8.6,13.7,13.4,9.2,33.1,24.3,21.2,17.3,18.4
1994-01-01,26.9,26.9,44.0,39.2,26.3,32.2,28.1,28.2,27.7,34.8,39.5,32.3,31.5,30.9,28.6,25.7,33.1
1994-02-01,77.4,77.3,69.2,79.1,75.1,66.3,75.8,75.8,79.9,64.0,66.7,62.2,74.5,77.2,73.9,69.7,74.2
1994-03-01,87.6,87.6,104.9,98.7,91.7,97.2,90.2,90.2,91.7,99.8,97.6,95.7,84.2,89.4,88.6,87.6,94.3
1994-04-01,176.7,176.5,122.4,131.4,151.1,177.9,153.5,153.4,148.0,145.0,158.1,135.2,149.0,164.6,151.2,134.4,148.0
1994-05-01,200.9,200.9,178.9,206.4,189.3,218.0,183.4,183.8,168.4,173.6,214.1,175.1,200.9,204.3,202.3,199.7,193.8
1994-06-01,217.8,217.6,219.9,210.7,228.8,229.6,203.6,203.7,206.6,247.6,223.6,249.5,218.2,224.5,219.2,212.6,217.4
1994-07-01,350.2,349.6,268.2,289.3,282.9,365.5,309.1,309.3,277.6,268.5,334.5,276.4,306.9,318.4,302.9,283.3,301.5
1994-08-01,206.2,205.8,234.0,232.4,197.8,213.8,203.6,203.8,184.2,198.6,217.7,206.9,202.4,201.6,197.7,192.8,210.8
1994-09-01,100.1,100.0,117.2,132.1,108.2,90.7,103.1,103.0,94.7,107.3,101.8,100.1,131.9,115.6,118.4,122.0,111.9
1994-10-01,147.8,147.5,141.2,138.1,122.3,132.1,116.9,117.0,129.5,137.8,120.5,146.4,135.5,139.8,131.6,121.2,132.7
1994-11-01,62.4,62.3,42.2,46.3,41.6,70.5,50.3,50.4,52.2,40.1,61.0,29.5,59.2,58.9,56.9,54.4,51.6
1994-12-01,53.3,53.2,34.5,41.9,30.3,46.0,41.7,41.7,48.7,35.3,37.0,29.6,51.0,52.5,46.7,39.5,42.7
1995-01-01,50.0,49.9,56.7,49.1,37.5,48.9,57.4,57.4,52.1,45.0,56.0,49.0,44.1,60.4,52.1,41.6,50.8
1995-02-01,68.7,68.6,59.8,55.8,54.6,61.2,59.2,59.2,56.4,51.7,60.2,45.4,67.5,71.0,65.6,58.7,59.6
1995-03-01,131.0,131.0,142.4,133.3,132.0,127.1,131.3,131.3,137.3,139.0,129.2,132.0,125.5,133.9,128.6,121.9,132.9
1995-04-01,150.3,150.0,126.0,116.7,135.5,172.1,148.7,149.1,121.9,127.7,177.9,125.3,111.7,141.7,133.2,122.5,134.9
1995-05-01,235.9,235.8,197.5,202.5,198.7,248.2,206.9,207.2,200.4,211.3,233.2,222.3,219.2,218.4,207.1,192.8,211.3
1995-06-01,182.6,182.6,159.1,141.9,176.2,204.0,181.6,181.7,170.6,172.4,197.1,186.0,148.2,186.8,171.9,153.1,169.1
1995-07-01,301.4,301.2,268.1,267.9,270.3,291.6,277.0,277.3,262.1,266.4,293.5,281.0,293.2,283.5,276.0,266.6,276.4
1995-08-01,267.4,267.3,201.2,204.8,240.1,290.9,268.8,269.2,251.4,232.4,301.0,237.9,252.5,255.8,247.5,237.1,243.4
1995-09-01,123.8,123.6,104.3,114.5,91.0,114.6,115.3,115.5,91.4,93.0,136.5,92.5,118.8,118.2,109.1,97.6,110.1
1995-10-01,135.3,135.2,117.6,118.6,89.4,131.5,118.5,118.5,114.7,96.5,111.2,98.7,130.3,130.4,121.7,110.8,117.9
1995-11-01,73.9,73.8,66.1,49.0,52.2,72.6,60.8,60.9,63.1,62.3,71.7,64.9,59.1,61.6,58.0,53.5,60.9
1995-12-01,31.8,31.7,27.0,25.4,31.0,52.4,39.6,39.7,42.0,28.9,48.3,36.0,30.2,25.8,27.8,30.2,33.5
1996-01-01,60.0,60.0,52.4,47.7,53.3,52.4,77.6,77.6,83.5,45.9,59.9,39.9,74.4,65.2,63.3,60.7,60.7
1996-02-01,87.8,87.6,81.7,87.3,64.2,72.8,60.6,60.7,52.9,62.7,59.1,68.8,89.2,78.4,78.4,78.3,74.0
1996-03-01,120.6,120.5,139.4,129.4,129.6,134.3,118.3,118.6,121.3,130.3,132.5,143.3,110.3,101.9,101.6,101.1,124.2
1996-04-01,215.5,215.2,183.4,170.4,211.8,219.0,192.0,192.1,208.9,213.0,215.3,221.4,200.7,189.2,185.0,179.6,195.5
1996-05-01,124.5,124.5,151.5,155.4,128.2,143.6,126.7,126.9,112.1,128.3,151.3,131.3,122.6,129.1,127.4,125.3,135.6
1996-06-01,197.4,197.3,230.6,229.3,206.4,188.6,177.6,177.3,199.0,221.0,177.7,225.1,197.3,197.6,199.5,201.9,205.3
1996-07-01,178.5,178.4,246.0,227.3,207.3,183.5,176.3,176.2,185.1,232.3,189.4,257.0,189.4,180.4,181.9,183.7,202.3
1996-08-01,219.6,219.4,193.6,186.3,195.9,230.1,214.0,214.4,191.5,197.1,233.2,201.5,190.7,198.0,189.7,179.2,200.9
1996-09-01,126.3,126.1,132.7,95.7,115.3,163.3,137.5,138.1,122.6,132.5,180.4,146.9,76.5,110.6,100.3,87.3,121.5
1996-10-01,96.5,96.4,101.8,94.6,84.7,114.8,104.5,104.6,106.8,94.6,106.7,91.9,80.4,88.1,83.5,77.7,97.4
1996-11-01,32.3,32.4,47.4,48.2,22.5,37.1,38.0,38.0,28.8,26.4,41.4,15.6,30.3,37.2,32.4,26.4,37.0
1996-12-01,52.4,52.4,51.5,51.5,42.4,46.5,45.2,45.1,49.6,40.0,42.6,29.2,65.2,49.7,51.7,54.2,49.2
1997-01-01,66.6,66.5,50.0,43.8,42.8,72.1,61.4,61.5,63.5,43.8,63.2,53.6,63.9,61.7,57.8,52.8,55.9
1997-02-01,79.9,80.0,95.7,93.6,69.8,69.3,66.2,66.1,57.5,67.7,64.0,68.5,89.9,86.3,82.5,77.8,78.3
1997-03-01,148.4,148.2,121.4,102.0,116.6,152.1,110.1,110.2,111.8,125.2,129.2,123.9,126.9,122.0,115.4,107.0,119.4
1997-04-01,167.0,166.9,214.6,180.3,186.6,170.0,178.6,178.6,180.0,196.7,183.8,213.1,163.0,171.4,170.0,168.3,181.4
1997-05-01,217.6,217.6,241.4,247.2,227.0,202.2,200.0,199.8,208.6,233.9,192.0,245.9,226.2,221.9,220.1,217.8,222.9
1997-06-01,248.2,247.9,164.6,192.0,205.2,239.2,237.8,237.9,214.6,173.9,245.6,172.6,213.8,244.4,228.2,207.8,212.2
1997-07-01,223.5,223.2,199.0,180.0,189.0,246.6,208.1,208.6,176.4,205.5,248.0,225.8,184.8,194.7,180.4,162.5,199.0
1997-08-01,266.1,266.2,238.7,243.6,241.4,280.1,239.5,239.6,233.8,243.4,266.5,248.7,257.3,250.1,244.5,237.5,247.6
1997-09-01,184.6,184.5,240.6,232.5,206.1,162.4,165.4,165.0,190.2,213.2,151.6,239.3,205.6,193.8,200.0,207.8,200.7
1997-10-01,117.3,117.4,133.3,122.3,114.9,111.6,123.8,123.6,122.2,124.7,120.3,136.0,112.4,123.1,120.7,117.7,121.5
1997-11-01,51.5,51.4,67.8,66.5,41.5,52.0,48.0,48.0,57.9,57.4,53.2,62.3,52.4,47.9,46.9,45.6,55.8
1997-12-01,32.9,32.8,22.6,29.5,21.3,27.9,23.4,23.4,27.3,25.8,28.1,21.6,32.5,29.1,26.5,23.2,27.0
1998-01-01,64.4,64.3,69.2,74.8,54.3,66.3,59.1,59.1,58.3,54.0,60.0,53.5,69.1,64.6,64.1,63.4,64.5
1998-02-01,69.1,69.1,134.7,115.2,95.9,57.6,63.7,63.4,87.5,109.3,41.3,125.2,83.1,83.0,84.6,86.6,90.5
1998-03-01,129.9,130.0,128.7,124.0,110.7,134.6,105.3,105.5,95.3,116.3,128.8,122.2,120.3,117.9,116.1,113.8,118.4
1998-04-01,129.2,129.1,133.7,139.6,107.0,109.3,92.0,91.9,92.7,102.5,94.4,93.9,142.0,124.4,124.0,123.5,117.5
1998-05-01,244.6,244.7,233.5,224.8,215.1,259.3,224.9,225.2,205.8,214.8,251.8,230.5,227.6,232.9,226.3,217.9,228.2
1998-06-01,193.3,193.2,222.7,211.0,183.9,198.1,160.6,160.7,163.8,195.7,180.1,209.8,190.6,183.7,182.0,179.9,190.7
1998-07-01,193.2,192.9,166.7,160.3,148.4,176.7,157.7,158.0,135.3,145.0,185.8,152.0,179.0,169.1,160.4,149.5,162.6
1998-08-01,193.6,193.5,243.1,230.8,217.4,168.0,184.4,184.3,192.5,222.2,194.2,244.2,217.9,198.9,201.3,204.3,208.4
1998-09-01,106.8,106.8,118.4,118.5,92.2,101.5,89.5,89.3,101.0,96.5,71.7,95.6,111.0,91.8,94.9,98.7,103.0
1998-10-01,71.8,71.9,59.4,61.1,45.0,77.3,59.5,59.7,44.5,46.4,73.4,35.2,60.6,65.3,58.2,49.3,59.4
1998-11-01,39.4,39.5,51.1,44.1,37.8,31.0,45.1,45.1,54.5,51.8,47.8,53.1,43.8,44.1,39.9,34.6,44.6
1998-12-01,56.0,56.0,54.6,55.3,31.2,52.4,46.1,46.1,37.6,31.7,49.9,30.1,65.6,66.0,60.2,53.0,50.1
1999-01-01,57.5,57.4,79.5,70.0,45.7,40.6,40.4,40.3,42.1,52.9,39.0,56.6,68.7,52.9,55.1,58.0,55.9
1999-02-01,62.1,62.1,48.8,48.2,61.2,60.0,51.1,51.1,50.5,63.4,60.3,60.7,57.0,59.6,61.5,63.9,54.9
1999-03-01,108.5,108.4,112.2,118.5,101.3,97.7,101.6,101.7,111.4,110.0,95.6,115.1,107.0,105.1,100.7,95.1,107.8
1999-04-01,166.7,166.6,144.1,155.9,161.9,172.2,175.5,175.5,164.6,155.6,185.3,151.2,146.4,162.9,156.6,148.7,161.3
1999-05-01,258.8,258.7,185.8,192.6,209.1,254.0,225.2,225.2,219.7,194.0,244.3,204.1,246.1,243.8,233.1,219.6,218.8
1999-06-01,202.1,202.0,189.8,188.7,210.7,235.5,224.6,224.7,212.5,204.4,234.0,222.8,164.0,201.9,193.1,182.0,203.7
1999-07-01,258.9,258.8,239.9,228.1,238.1,273.2,251.0,251.2,248.8,243.0,265.2,254.3,225.8,241.9,232.2,219.9,243.4
1999-08-01,207.6,207.5,200.6,188.8,192.0,200.7,167.8,168.0,176.8,192.4,202.4,201.9,196.3,187.0,185.5,183.5,189.5
1999-09-01,206.9,206.7,183.5,187.0,191.2,213.3,193.5,193.7,181.7,178.4,198.3,177.2,194.1,207.9,202.1,194.8,192.6
1999-10-01,113.8,113.5,126.7,120.9,96.8,111.4,112.2,112.3,106.9,115.3,117.5,117.6,100.0,110.7,106.0,100.1,113.3
1999-11-01,60.9,60.8,57.5,53.7,42.1,61.9,52.3,52.3,53.7,51.7,51.8,53.3,53.5,53.7,48.5,42.0,53.7
1999-12-01,38.9,38.9,28.6,34.8,18.9,30.6,32.0,32.0,25.1,26.1,35.4,19.7,36.5,37.3,30.4,21.7,31.1
2000-01-01,64.2,64.1,61.8,55.0,34.9,65.6,50.6,50.6,38.5,45.2,55.1,52.1,57.0,66.2,58.8,49.6,53.8
2000-02-01,65.7,65.7,77.4,72.4,73.0,65.8,75.1,75.0,77.6,75.7,64.9,71.9,61.8,74.9,74.5,73.9,72.3
2000-03-01,78.0,78.0,105.3,93.2,79.6,86.0,65.0,65.0,68.7,84.1,71.9,97.0,66.4,71.8,72.9,74.2,80.8
2000-04-01,200.9,200.7,166.9,168.2,163.3,182.9,157.8,157.8,169.6,173.4,155.1,178.3,197.7,182.5,178.7,173.9,172.7
2000-05-01,284.0,283.8,210.7,221.8,215.2,307.4,250.1,250.8,209.5,187.7,295.1,186.2,254.0,270.0,256.6,239.7,240.2
2000-06-01,239.7,239.5,282.9,281.1,261.2,218.9,209.6,209.3,235.7,268.4,197.3,290.6,248.1,239.4,241.0,242.9,248.3
2000-07-01,102.4,102.2,180.7,158.1,109.2,114.2,99.4,99.7,98.1,135.1,137.3,154.5,99.0,106.1,102.1,97.1,125.3
2000-08-01,230.9,230.8,235.7,238.8,235.7,202.1,202.3,202.3,217.8,241.0,205.3,265.3,239.3,228.4,233.0,238.8,226.6
2000-09-01,145.8,145.7,161.8,149.5,115.5,130.7,114.6,114.7,107.9,119.3,123.1,120.3,151.5,133.7,132.9,131.9,133.9
2000-10-01,90.2,90.3,68.5,63.0,72.0,94.6,92.3,92.3,90.2,69.9,82.9,63.4,83.6,94.8,88.2,79.9,80.0
2000-11-01,87.5,87.1,66.3,70.0,31.9,63.0,54.7,54.6,49.2,33.5,46.2,23.0,80.8,74.6,66.5,56.2,61.2
2000-12-01,58.2,58.1,50.9,47.2,45.9,41.1,50.4,50.2,52.3,39.7,38.0,30.1,71.0,66.7,63.6,59.7,50.9
2001-01-01,50.2,50.0,68.1,69.4,54.6,39.8,37.6,37.3,58.3,60.5,26.9,62.8,60.8,54.0,54.8,55.8,55.1
2001-02-01,69.7,69.9,85.4,86.4,70.4,88.8,62.9,62.8,70.0,75.6,62.8,77.6,68.1,66.3,67.9,69.8,74.8
2001-03-01,93.0,92.9,62.5,73.8,51.4,102.2,66.7,67.1,52.9,58.0,98.0,57.8,71.0,75.7,68.3,59.0,71.3
2001-04-01,125.1,125.2,120.4,129.6,120.2,127.7,127.3,127.3,114.7,120.2,129.0,121.7,127.6,130.3,126.7,122.2,124.9
2001-05-01,276.4,276.3,250.5,257.0,256.0,281.7,268.2,268.4,260.6,248.8,284.8,250.9,255.9,276.1,266.9,255.3,263.1
2001-06-01,181.1,181.0,209.3,192.9,175.2,186.7,166.9,166.9,179.6,199.3,181.1,212.1,167.1,171.9,167.2,161.2,183.3
2001-07-01,242.6,242.4,258.4,254.5,244.3,249.6,238.9,238.9,227.7,235.6,253.5,240.1,238.7,243.7,244.3,245.2,245.2
2001-08-01,201.7,201.7,240.2,230.3,222.0,201.5,201.6,201.5,208.8,223.6,207.0,231.8,199.0,199.4,202.6,206.6,214.7
2001-09-01,77.0,76.9,87.6,71.3,65.4,77.8,69.5,69.6,70.9,78.5,80.2,84.7,65.6,71.6,69.6,67.0,73.7
2001-10-01,105.9,106.0,146.7,137.6,100.2,87.6,90.7,90.4,109.1,109.1,79.2,106.6,129.6,109.2,113.4,118.7,114.0
2001-11-01,49.6,49.6,67.8,57.0,50.5,50.9,45.1,45.2,49.9,64.5,59.5,71.5,45.6,46.2,47.2,48.4,53.5
2001-12-01,30.2,30.3,54.4,48.4,36.2,28.3,36.0,36.0,41.8,49.8,38.2,67.3,35.1,28.4,27.6,26.6,40.1
2002-01-01,64.2,64.0,79.0,71.3,48.5,39.0,46.3,46.2,62.4,56.0,35.2,52.8,92.9,69.6,72.0,75.1,62.4
2002-02-01,93.8,93.8,64.0,72.0,73.4,91.7,85.4,85.5,76.1,74.0,81.2,69.4,82.4,91.0,84.4,76.1,78.9
2002-03-01,111.2,110.9,163.9,165.6,126.6,106.1,129.9,129.8,137.0,138.0,118.2,144.9,119.3,105.6,112.2,120.4,135.4
2002-04-01,152.0,151.9,183.0,176.3,171.1,154.0,151.4,151.4,168.1,181.5,147.4,196.9,148.8,150.5,153.4,157.0,164.4
2002-05-01,190.2,189.9,180.3,187.5,160.0,192.5,168.3,168.4,168.8,169.6,192.1,178.1,180.2,174.3,167.4,158.8,178.0
2002-06-01,205.2,205.2,258.2,251.9,209.1,224.5,185.5,185.6,193.2,215.2,222.7,230.4,202.7,195.6,199.3,203.9,218.2
2002-07-01,176.1,176.1,196.7,197.5,156.3,180.0,156.3,156.4,149.7,157.0,176.0,178.3,181.0,157.2,155.4,153.2,173.4
2002-08-01,224.7,224.4,186.7,190.4,178.7,224.2,193.3,193.8,159.0,161.4,220.6,158.2,194.7,213.9,196.7,175.0,192.3
2002-09-01,170.7,170.8,160.5,157.3,159.1,185.9,156.7,157.0,150.6,171.8,186.5,186.9,149.5,161.7,157.0,151.1,161.9
2002-10-01,96.5,96.6,90.9,86.2,73.3,88.9,100.5,100.4,85.9,77.7,90.5,85.6,78.5,98.0,88.5,76.5,88.4
2002-11-01,50.9,50.7,35.6,40.1,26.9,45.3,35.0,35.0,39.0,31.3,33.0,28.7,50.2,46.2,42.3,37.4,39.2
2002-12-01,59.9,59.7,29.4,35.8,33.5,51.5,40.6,40.7,40.5,33.5,45.4,26.9,49.9,44.7,40.9,36.0,40.7
2003-01-01,40.3,40.3,53.6,49.4,46.4,29.7,35.3,35.1,45.8,52.8,25.2,54.5,45.0,45.6,44.2,42.5,43.8
2003-02-01,116.4,116.4,130.5,137.3,139.9,106.3,120.0,120.0,149.6,144.1,104.0,150.3,133.9,113.5,117.0,121.4,128.6
2003-03-01,162.9,162.8,199.6,171.2,173.8,170.0,158.4,158.3,178.5,186.4,160.0,202.4,156.1,159.3,156.0,151.8,170.7
2003-04-01,219.2,219.1,208.6,209.1,216.3,223.1,213.5,213.6,213.6,214.7,223.0,222.4,212.9,219.1,216.1,212.3,214.2
2003-05-01,246.6,246.5,181.2,198.3,184.7,254.8,206.2,206.4,191.7,193.3,226.5,202.8,219.0,221.7,206.1,186.5,206.9
2003-06-01,287.5,287.2,286.4,294.9,290.3,272.4,257.3,257.0,266.5,280.0,247.7,282.8,299.5,293.5,295.8,298.6,281.2
2003-07-01,219.6,219.4,260.4,255.4,234.5,227.7,219.6,219.6,221.4,243.2,239.7,254.3,216.9,222.3,221.7,220.9,234.9
2003-08-01,272.8,272.5,297.8,295.4,289.6,255.0,254.5,254.3,256.5,286.9,248.0,300.8,281.3,281.1,285.0,289.9,277.2
2003-09-01,201.9,201.7,220.4,203.8,204.5,209.9,205.2,205.5,205.4,221.0,214.8,230.1,192.0,190.6,188.5,185.8,205.6
2003-10-01,128.9,128.7,118.0,111.0,100.8,137.1,128.7,129.2,109.7,104.4,150.4,111.4,99.5,116.3,107.1,95.6,117.0
2003-11-01,69.6,69.6,84.5,73.5,65.9,51.9,60.0,59.9,77.3,71.2,53.5,59.1,97.8,74.5,73.6,72.4,71.1
2003-12-01,67.4,67.2,67.1,65.5,59.3,54.8,54.3,54.4,58.2,54.5,55.6,49.2,77.5,73.6,70.8,67.3,62.6
2004-01-01,50.7,50.5,39.9,39.3,21.0,39.1,22.8,22.8,23.2,29.4,18.8,29.7,46.4,39.0,36.3,33.0,34.0
2004-02-01,59.4,59.1,90.1,74.2,56.7,62.8,67.0,67.2,51.4,65.3,84.0,71.5,44.7,59.2,56.9,54.1,66.3
2004-03-01,122.3,122.1,143.2,136.4,125.7,120.6,120.8,120.8,126.3,136.9,121.9,131.9,127.0,128.5,128.1,127.5,129.2
2004-04-01,198.3,198.3,189.0,195.4,180.5,202.1,178.5,178.7,166.6,181.2,191.1,187.7,187.5,180.5,180.7,181.0,186.6
2004-05-01,172.6,172.7,206.3,187.5,180.3,202.2,163.1,163.4,168.8,213.3,188.7,238.9,149.5,155.4,153.3,150.6,180.0
2004-06-01,178.5,178.4,212.0,203.1,190.5,175.0,166.3,166.1,176.2,207.9,172.7,213.0,182.6,179.1,181.1,183.5,187.4
2004-07-01,210.2,209.9,211.4,206.8,187.6,192.1,178.4,178.3,184.5,191.8,181.9,198.3,211.4,198.0,194.7,190.7,196.5
2004-08-01,234.3,234.3,192.8,213.9,193.7,231.4,213.4,213.5,195.8,184.4,225.0,178.4,224.7,224.5,219.1,212.2,211.3
2004-09-01,195.7,195.7,181.9,183.6,182.7,195.0,187.9,187.9,184.3,192.0,187.2,191.6,189.8,190.7,188.9,186.7,187.3
2004-10-01,127.2,127.1,96.7,113.4,111.3,113.0,115.2,115.1,113.3,98.2,109.0,82.8,131.9,129.5,128.1,126.3,114.2
2004-11-01,47.6,47.7,43.6,42.4,42.0,64.5,54.8,55.1,50.8,45.3,66.6,56.5,35.7,49.4,45.1,39.8,48.2
2004-12-01,38.0,38.0,51.6,53.0,47.3,34.7,45.2,45.1,57.7,42.3,37.3,38.4,58.1,51.1,55.0,60.0,48.6
2005-01-01,43.4,43.6,77.2,67.5,52.6,47.8,47.8,47.9,57.0,62.7,53.2,59.7,40.8,49.4,49.5,49.6,56.5
2005-02-01,72.5,72.4,59.1,71.2,65.3,68.8,64.0,64.0,67.3,68.4,72.2,70.2,62.7,71.3,68.4,64.7,67.4
2005-03-01,137.8,137.9,139.3,142.1,126.2,145.8,118.0,118.2,109.3,118.9,146.3,123.6,139.4,127.9,131.2,135.4,131.9
2005-04-01,236.0,235.7,148.7,165.1,164.9,235.1,193.3,193.7,157.6,160.7,220.4,173.1,200.9,207.8,194.3,177.2,184.3
2005-05-01,208.6,208.7,210.2,226.5,201.9,208.8,195.8,195.9,194.9,205.0,216.1,207.3,218.1,209.7,210.7,211.8,209.7
2005-06-01,250.2,250.1,260.5,242.4,237.0,259.3,243.1,243.5,236.7,246.9,268.5,256.9,240.5,250.2,243.7,235.6,246.8
2005-07-01,201.0,201.1,199.9,203.4,201.2,211.5,179.8,179.7,194.3,209.4,176.2,212.3,207.1,196.8,203.2,211.2,198.5
2005-08-01,204.2,203.9,195.8,176.1,177.5,190.2,154.0,154.0,164.3,187.6,174.8,195.8,189.2,184.3,179.5,173.4,179.1
2005-09-01,214.8,214.7,183.4,180.1,198.3,196.7,209.5,209.5,198.0,197.8,197.5,200.6,210.3,210.6,207.1,202.8,197.5
2005-10-01,179.9,179.9,154.3,163.8,159.7,181.5,176.9,177.2,179.0,158.6,183.6,155.9,182.8,172.8,172.9,173.1,170.8
2005-11-01,74.3,74.3,78.9,51.6,53.7,75.7,56.6,56.7,57.6,60.4,64.6,55.1,72.0,69.7,64.3,57.4,62.7
2005-12-01,36.2,36.3,42.7,39.2,27.9,38.3,35.6,35.8,31.5,34.1,50.4,32.8,34.9,41.1,38.5,35.3,37.3
2006-01-01,95.1,95.0,98.1,89.8,88.6,75.6,75.1,74.8,94.2,84.5,54.8,85.1,103.7,95.9,95.1,94.0,87.9
2006-02-01,49.0,49.0,61.5,64.5,47.2,47.2,44.8,44.8,44.7,42.0,47.5,39.8,59.7,47.8,49.3,51.2,52.2
2006-03-01,99.4,99.5,102.6,100.9,109.4,98.1,106.0,105.9,115.9,117.1,102.9,116.5,105.9,107.8,107.3,106.7,105.4
2006-04-01,139.1,139.2,146.3,143.0,137.7,124.6,118.8,118.6,126.1,152.9,114.3,165.5,142.2,126.2,128.9,132.3,134.6
2006-05-01,236.4,236.4,191.1,206.5,194.3,239.4,217.6,217.7,195.9,186.7,234.3,174.7,224.5,230.5,225.7,219.7,212.1
2006-06-01,265.5,265.3,279.6,264.5,263.8,256.7,242.1,242.1,250.2,276.3,250.4,278.6,260.5,261.6,261.3,260.9,260.6
2006-07-01,360.0,359.7,328.5,326.8,320.8,371.2,333.9,334.2,320.4,322.2,346.7,329.1,335.2,344.4,335.6,324.6,334.5
2006-08-01,147.2,147.1,131.9,128.6,120.0,158.0,135.5,135.8,115.0,117.3,166.6,116.9,130.5,141.5,134.0,124.5,133.2
2006-09-01,231.4,231.3,191.2,215.7,210.6,219.9,204.6,204.6,195.3,192.7,205.5,182.7,228.0,227.9,228.4,229.1,211.0
2006-10-01,111.9,111.9,136.5,142.8,118.0,95.1,96.0,95.7,110.8,120.9,78.1,114.6,128.4,114.1,115.5,117.3,117.8
2006-11-01,74.4,74.3,81.1,72.2,54.7,58.7,50.7,50.5,55.9,60.3,46.0,61.5,70.2,73.7,70.1,65.5,64.7
2006-12-01,53.6,53.6,89.8,77.1,42.9,41.1,36.8,36.8,40.3,50.9,29.3,54.7,67.0,57.1,56.6,56.1,56.8
2007-01-01,44.6,44.7,47.2,42.8,31.4,40.0,36.2,36.1,34.5,36.0,33.8,32.0,44.2,45.7,42.4,38.1,40.0
2007-02-01,55.5,55.4,88.4,80.8,50.6,46.3,39.1,39.0,42.2,62.5,38.6,64.5,60.4,56.6,55.9,55.2,59.5
2007-03-01,170.1,169.9,153.4,158.0,155.4,172.2,160.0,160.2,148.1,154.3,181.8,147.0,151.9,167.4,162.3,155.9,159.6
2007-04-01,276.6,276.7,324.4,313.6,300.1,272.2,254.1,254.0,278.4,317.6,253.5,334.8,278.6,272.8,276.9,282.0,288.8
2007-05-01,247.3,247.2,212.8,232.1,204.1,234.0,213.4,213.6,190.2,193.1,231.6,193.1,245.9,234.6,231.8,228.4,221.6
2007-06-01,208.5,208.3,205.7,220.8,177.5,195.7,173.2,173.1,160.0,174.3,188.4,179.9,216.4,206.0,200.4,193.3,195.2
2007-07-01,182.8,182.9,208.0,219.1,181.5,179.8,173.2,173.1,177.3,199.2,185.2,200.9,193.7,184.4,184.0,183.6,192.3
2007-08-01,212.7,212.5,202.5,201.4,194.4,200.5,187.1,187.1,183.9,194.9,199.5,196.3,203.5,202.1,201.4,200.5,198.0
2007-09-01,139.3,139.2,153.0,137.5,130.9,132.0,120.6,120.6,119.4,141.8,132.8,150.5,128.2,135.5,132.9,129.7,133.7
2007-10-01,108.9,108.9,134.7,122.2,118.2,110.2,107.7,107.8,113.6,130.8,112.6,139.7,99.8,106.1,103.1,99.4,115.6
2007-11-01,41.4,41.4,55.7,42.8,24.3,56.4,38.2,38.6,24.5,36.3,74.1,45.1,34.9,40.0,35.0,28.7,41.3
2007-12-01,37.1,37.1,65.6,53.4,44.7,18.3,34.3,34.1,55.9,59.6,21.0,66.9,57.1,38.8,40.0,41.5,45.9
2008-01-01,49.2,49.2,76.8,73.2,42.0,34.2,30.0,29.8,41.1,43.9,24.6,40.0,61.5,52.4,53.4,54.6,51.6
2008-02-01,90.6,90.6,162.2,150.0,121.9,84.2,98.3,98.0,118.0,136.5,72.7,136.6,96.8,103.9,105.3,107.0,118.6
2008-03-01,112.2,112.2,100.5,108.5,81.6,118.6,101.0,101.0,85.0,77.3,116.9,71.3,109.0,114.1,107.7,99.7,102.1
2008-04-01,130.7,130.6,113.6,130.9,109.9,146.3,139.2,139.4,123.0,114.9,181.1,113.6,125.1,129.6,123.5,115.8,129.4
2008-05-01,293.7,293.7,244.8,247.5,241.8,351.3,298.1,298.8,245.7,236.6,350.6,246.0,247.5,283.5,264.4,240.4,270.0
2008-06-01,284.7,284.3,206.5,211.4,241.3,289.0,254.1,254.2,232.9,222.9,280.1,214.0,248.9,277.7,263.0,244.5,242.7
2008-07-01,227.0,227.0,224.2,216.3,208.1,260.8,202.7,202.9,190.1,212.5,239.8,221.5,207.0,217.5,214.5,210.7,216.3
2008-08-01,172.1,172.1,208.2,211.6,172.5,159.3,158.4,158.3,157.7,172.7,149.2,167.6,189.6,179.2,180.7,182.5,180.3
2008-09-01,128.6,128.4,127.4,122.7,120.2,129.9,137.4,137.5,134.5,126.2,129.5,135.9,117.4,123.0,119.2,114.4,127.1
2008-10-01,107.4,107.6,101.5,101.6,82.0,102.7,95.1,95.1,93.3,86.0,90.0,82.4,123.2,105.0,102.4,99.2,99.0
2008-11-01,40.4,40.5,75.3,74.3,34.8,44.0,34.2,34.3,36.0,44.5,41.9,38.8,45.4,36.8,39.6,43.0,49.7
2008-12-01,34.4,34.3,51.2,61.3,48.2,29.0,49.0,48.8,59.1,51.9,32.5,60.2,43.3,36.5,37.0,37.6,48.0
2009-01-01,60.9,60.8,95.5,87.6,86.6,60.3,60.6,60.6,90.6,87.9,56.3,93.6,73.3,64.6,69.8,76.3,77.0
2009-02-01,31.5,31.6,62.0,56.7,46.3,33.4,36.6,36.6,34.9,47.2,44.3,45.7,40.9,37.2,42.1,48.3,44.7
2009-03-01,86.0,86.1,88.5,74.2,89.7,93.8,98.0,97.9,98.3,100.9,88.7,103.2,68.6,87.5,83.7,78.9,87.4
2009-04-01,301.9,301.8,201.7,241.8,223.6,313.6,256.0,256.5,214.0,207.1,281.7,209.0,267.6,266.6,252.1,234.0,247.8
2009-05-01,246.2,246.2,211.7,210.0,200.3,262.7,246.9,247.3,212.1,201.5,281.3,202.8,219.7,242.7,227.3,208.0,226.2
2009-06-01,184.1,184.0,215.4,185.9,181.5,215.5,202.9,203.0,183.4,208.8,233.5,243.1,145.9,182.5,172.4,159.6,192.8
2009-07-01,226.5,226.6,206.5,201.0,197.7,232.2,220.2,220.2,209.6,205.0,227.9,208.3,201.5,219.4,207.5,192.4,211.1
2009-08-01,276.7,276.5,261.9,254.9,245.2,261.4,238.6,238.6,239.9,254.6,230.4,263.5,264.1,259.4,253.1,245.0,252.9
2009-09-01,199.5,199.2,179.5,180.0,149.6,191.6,159.5,159.8,148.7,160.1,169.0,170.7,178.1,178.0,167.6,154.6,171.9
2009-10-01,74.1,74.1,98.0,85.3,79.8,85.1,88.9,89.1,85.8,91.1,107.1,106.1,69.0,79.0,74.7,69.3,85.3
2009-11-01,59.6,59.6,63.2,67.6,34.3,35.1,32.4,32.1,39.5,40.7,29.8,31.3,73.3,52.9,50.6,47.6,50.1
2009-12-01,34.5,34.6,46.1,38.9,30.9,32.7,41.0,40.9,40.9,36.2,41.6,34.3,42.8,37.9,35.8,33.2,38.7
2010-01-01,27.2,27.2,34.5,27.7,21.1,29.7,20.7,20.8,28.1,22.8,31.3,21.8,31.5,23.4,22.8,22.0,26.7
2010-02-01,49.7,49.7,57.9,58.1,35.8,36.9,38.5,38.4,31.3,38.4,34.0,37.1,54.5,50.3,47.0,42.8,45.8
2010-03-01,117.3,117.4,146.9,143.8,133.0,121.3,127.9,127.9,120.7,135.2,124.1,137.9,130.5,127.1,128.6,130.5,131.8
2010-04-01,216.2,216.3,220.2,220.2,222.5,219.9,219.2,219.4,212.0,227.9,222.2,238.1,206.5,207.8,208.5,209.3,217.9
2010-05-01,102.5,102.8,101.8,100.9,112.8,120.6,136.4,136.6,129.9,119.9,156.1,126.3,92.5,108.0,104.1,99.1,114.3
2010-06-01,286.8,286.7,212.4,213.2,272.8,288.0,273.1,272.9,263.3,260.1,262.5,257.8,261.0,284.5,276.0,265.3,254.7
2010-07-01,302.5,302.5,269.5,276.6,271.0,307.6,280.5,280.6,267.1,273.4,275.2,286.7,278.9,284.3,278.6,271.4,279.5
2010-08-01,150.0,149.9,159.9,147.2,136.6,135.9,133.1,133.2,135.2,152.1,135.5,156.6,144.4,126.8,127.0,127.3,141.9
2010-09-01,142.2,142.4,169.3,150.8,127.0,138.6,120.9,120.9,122.2,149.7,130.9,160.6,140.8,138.6,132.4,124.7,139.7
2010-10-01,134.1,134.2,126.9,124.9,126.9,131.4,110.2,110.3,112.4,128.0,125.0,128.9,144.6,133.8,132.2,130.2,125.2
2010-11-01,25.5,25.6,52.2,49.7,21.3,23.7,26.0,26.1,25.2,26.4,41.9,22.2,39.6,26.9,27.6,28.5,34.4
2010-12-01,20.1,20.2,30.1,30.5,16.2,23.6,27.0,27.2,21.5,20.0,40.3,19.0,34.8,23.1,24.6,26.4,26.3
2011-01-01,48.5,48.6,54.6,52.6,44.1,39.1,41.5,41.5,47.0,49.5,43.8,54.2,58.3,51.7,51.5,51.2,48.7
2011-02-01,93.9,93.8,77.4,86.5,66.5,73.6,65.2,65.1,64.2,57.9,57.6,52.2,103.1,91.8,91.1,90.2,77.4
2011-03-01,193.0,192.9,196.2,194.8,202.2,171.9,168.5,168.2,191.2,203.3,146.9,203.7,197.7,193.6,195.6,198.0,188.5
2011-04-01,226.6,226.9,261.9,246.6,239.9,257.9,240.9,241.1,239.1,244.0,256.7,252.1,207.8,228.9,229.1,229.2,241.8
2011-05-01,285.8,285.8,284.3,280.0,288.9,272.7,251.2,251.1,263.6,293.4,247.2,307.6,285.9,277.3,277.7,278.3,275.1
2011-06-01,257.7,257.6,178.7,174.6,186.4,267.6,215.2,215.4,192.8,180.7,244.4,181.1,227.3,245.3,228.0,206.3,207.8
2011-07-01,166.8,166.7,189.3,175.3,144.4,149.3,131.2,131.5,127.2,154.6,153.8,163.8,177.2,154.9,157.0,159.6,158.0
2011-08-01,184.3,184.4,235.8,232.3,176.5,158.2,145.8,145.5,162.7,190.7,138.8,197.3,193.4,169.7,171.8,174.4,187.2
2011-09-01,195.1,195.1,208.4,195.5,180.3,171.7,164.0,163.9,165.0,189.2,147.4,195.0,203.6,192.6,192.4,192.1,184.8
2011-10-01,156.3,156.2,160.0,159.0,145.8,142.1,146.9,146.9,147.9,144.0,141.0,133.1,161.8,160.0,158.7,157.1,152.6
2011-11-01,116.5,116.3,105.7,103.1,102.2,78.4,75.9,75.5,115.0,88.2,44.9,73.7,136.2,101.0,109.4,120.0,99.0
2011-12-01,27.6,27.8,30.9,27.7,17.8,24.0,23.6,23.7,22.4,26.5,27.3,21.8,35.0,30.9,27.5,23.3,26.4
2012-01-01,51.9,51.9,56.3,58.1,50.8,61.0,50.9,50.9,51.4,49.1,59.1,45.8,46.9,50.4,50.2,49.9,53.6
2012-02-01,98.9,99.0,112.8,105.2,102.6,85.9,82.7,82.8,85.5,115.4,87.4,129.2,96.4,98.4,95.1,90.9,97.6
2012-03-01,164.8,164.8,208.2,182.5,169.8,152.7,136.8,136.5,150.1,176.6,129.8,193.7,170.7,157.6,162.0,167.8,166.3
2012-04-01,166.6,166.7,137.6,156.2,137.6,156.4,127.5,127.5,120.1,137.7,140.3,137.5,160.7,143.7,140.7,137.0,143.6
2012-05-01,250.9,251.1,247.5,252.6,228.6,253.6,219.4,219.5,206.4,226.4,241.1,234.7,256.2,244.3,241.3,237.5,238.7
2012-06-01,169.0,169.1,199.0,197.6,144.7,166.4,142.1,142.3,129.8,148.9,157.3,156.6,171.3,153.6,153.7,153.9,165.6
2012-07-01,209.0,209.0,209.1,199.0,189.8,202.4,198.2,198.3,186.7,200.2,209.7,205.6,205.5,201.5,194.6,186.0,199.8
2012-08-01,234.8,234.7,254.8,249.7,234.2,222.2,217.7,217.8,223.2,238.4,229.1,240.4,236.5,227.6,228.0,228.5,234.9
2012-09-01,189.0,188.9,187.2,178.5,176.3,158.9,140.4,140.2,144.6,185.0,122.3,194.7,190.4,179.4,180.9,182.9,169.4
2012-10-01,133.2,133.1,115.8,113.2,117.8,127.7,112.1,112.0,120.9,120.0,103.7,120.1,125.1,128.1,126.1,123.4,118.9
2012-11-01,47.3,47.5,56.9,52.6,35.0,42.7,51.7,51.6,54.3,39.4,42.0,33.2,52.9,49.3,47.1,44.3,49.0
2012-12-01,34.8,34.8,47.1,45.6,24.8,28.8,29.0,29.1,27.2,35.6,33.8,37.7,46.9,34.0,33.1,31.7,36.2
2013-01-01,20.2,20.3,28.5,24.8,16.3,21.3,23.4,23.4,18.0,16.7,23.6,16.9,21.5,23.8,21.8,19.3,22.2
2013-02-01,24.9,25.0,34.9,35.5,30.2,27.6,39.6,39.5,37.1,31.4,36.8,27.8,22.9,32.4,30.1,27.2,33.0
2013-03-01,142.2,142.4,104.1,112.9,116.2,158.6,123.7,123.8,115.2,111.7,139.2,111.2,116.5,125.5,119.7,112.2,121.3
2013-04-01,146.0,146.2,120.9,125.0,133.9,180.8,156.6,156.9,148.0,139.2,185.7,143.1,127.7,140.7,132.9,122.6,141.6
2013-05-01,170.0,170.1,116.3,116.5,113.7,194.5,138.0,138.3,140.1,121.4,173.3,114.4,132.5,139.1,127.1,111.6,135.8
2013-06-01,233.2,233.4,209.4,196.8,195.3,252.4,199.7,199.8,175.6,203.6,207.9,214.5,198.6,225.9,212.8,195.7,205.8
2013-07-01,299.9,299.8,310.9,306.8,290.1,300.9,277.4,277.8,262.8,297.4,301.7,303.1,295.7,297.1,293.5,288.7,294.4
2013-08-01,228.5,228.6,234.5,232.2,214.8,235.3,221.5,221.7,210.2,221.5,231.7,227.7,225.1,219.6,215.0,209.0,225.0
2013-09-01,117.2,117.3,140.6,126.5,120.2,131.7,112.6,112.7,118.8,136.6,122.4,143.5,113.1,113.5,115.1,117.1,123.2
2013-10-01,111.9,112.0,105.3,109.8,88.6,110.5,99.4,99.4,99.7,93.7,102.6,86.4,120.9,101.5,99.6,97.2,104.1
2013-11-01,42.1,42.2,44.2,42.7,39.4,55.0,53.6,53.9,37.7,40.6,72.4,43.1,38.4,47.1,42.2,35.7,45.3
2013-12-01,47.3,47.3,83.5,72.9,49.7,33.3,38.2,38.0,53.1,56.3,25.9,56.4,68.6,52.0,54.5,57.8,56.0
2014-01-01,41.9,41.9,56.3,46.5,46.1,35.4,45.2,45.0,62.7,54.0,29.0,50.8,47.9,41.3,41.2,41.0,46.9
2014-02-01,115.9,115.8,85.0,92.9,59.8,101.8,84.4,84.5,78.5,58.3,92.1,40.4,109.9,99.0,90.3,79.1,88.4
2014-03-01,166.6,166.4,207.2,200.1,183.7,160.4,167.2,167.2,186.2,201.0,159.9,211.1,167.5,158.9,162.5,167.1,181.5
2014-04-01,184.8,184.9,170.8,165.4,152.6,191.9,157.8,157.9,146.6,169.1,181.8,180.4,175.2,178.7,171.7,162.5,168.0
2014-05-01,192.4,192.5,185.7,167.9,180.0,194.9,178.4,178.5,166.8,187.6,189.6,187.0,182.8,189.8,186.2,181.5,180.4
2014-06-01,223.8,223.9,270.1,268.3,226.0,228.7,194.7,194.9,195.6,244.0,225.3,264.8,227.0,218.9,217.9,216.5,232.2
2014-07-01,262.6,262.4,190.1,209.7,228.3,276.4,235.1,235.5,219.8,216.3,271.3,216.7,234.1,236.5,233.2,228.8,228.9
2014-08-01,204.7,204.9,165.1,160.7,161.8,202.5,186.6,186.9,159.2,161.3,196.7,147.9,181.1,191.8,183.9,173.6,176.0
2014-09-01,154.9,154.8,138.0,122.7,106.7,182.8,144.0,144.5,128.0,134.2,173.6,159.0,121.8,132.4,121.7,107.6,136.4
2014-10-01,104.9,104.9,112.2,95.3,89.4,89.3,94.4,94.4,100.2,94.0,87.3,93.1,119.4,111.8,110.9,109.7,99.9
2014-11-01,55.4,55.4,63.0,60.6,43.6,47.3,63.4,63.3,72.4,43.9,57.0,34.5,71.7,67.0,66.9,66.9,60.0
2014-12-01,26.2,26.1,23.2,22.9,16.2,24.7,22.6,22.7,20.5,17.3,28.6,12.9,23.9,22.2,20.7,18.8,22.4
2015-01-01,29.8,29.9,40.9,39.0,27.5,33.9,33.3,33.3,35.7,33.3,35.4,27.2,34.3,39.2,36.5,32.9,35.3
2015-02-01,110.2,110.1,86.4,83.3,74.7,86.3,85.1,84.8,90.7,69.9,63.1,66.0,114.9,102.0,99.3,95.8,88.0
2015-03-01,131.4,131.3,168.0,152.0,135.2,124.5,127.9,128.0,121.8,144.7,123.9,154.6,144.6,131.7,134.0,137.0,139.1
2015-04-01,220.0,220.1,234.5,222.6,235.9,219.8,219.6,219.8,223.0,237.4,230.4,232.9,213.6,222.0,221.5,220.8,224.5
2015-05-01,217.4,217.5,176.2,163.1,187.9,197.6,179.7,179.7,182.9,183.9,185.2,175.2,223.2,213.1,209.7,205.1,187.0
2015-06-01,208.2,208.1,206.1,199.2,203.5,214.3,203.1,203.2,213.3,219.6,214.8,225.7,196.3,201.3,196.6,190.4,205.4
2015-07-01,243.7,243.8,278.3,274.2,241.9,228.7,211.5,211.4,212.1,245.8,217.5,253.0,261.4,244.5,247.6,251.6,245.1
2015-08-01,278.4,278.2,243.4,260.2,231.6,267.7,223.4,223.4,225.9,227.6,223.2,230.8,263.1,259.1,253.3,245.7,246.3
2015-09-01,167.1,167.0,144.6,130.9,123.6,166.8,132.2,132.5,127.7,138.6,155.6,143.5,146.4,142.9,133.4,121.0,139.9
2015-10-01,122.9,122.6,85.1,90.6,91.2,119.8,101.0,101.2,99.6,78.6,109.0,70.5,112.5,109.9,102.7,93.3,99.4
2015-11-01,56.2,56.2,94.3,86.9,52.2,44.0,61.9,61.7,62.9,51.6,45.9,41.6,69.6,65.8,66.9,68.4,67.5
2015-12-01,63.4,63.2,104.0,81.8,47.7,42.7,48.3,48.1,65.0,62.2,33.9,56.7,74.8,55.5,54.4,52.9,65.2
2016-01-01,49.6,49.6,57.0,51.1,43.2,46.7,44.8,44.5,52.6,45.2,35.2,43.7,51.4,54.5,54.5,54.5,49.4
2016-02-01,66.1,66.2,48.1,51.9,48.3,67.1,74.4,74.3,72.4,54.4,65.9,52.9,58.5,65.4,58.3,49.0,60.2
2016-03-01,97.5,97.5,113.4,105.5,87.8,99.3,99.6,99.6,97.4,96.7,103.3,91.7,86.1,92.9,87.9,81.3,99.1
2016-04-01,176.2,176.1,134.9,153.0,156.4,173.8,164.3,164.1,159.7,141.4,151.4,122.7,167.1,176.5,171.3,164.6,158.6
2016-05-01,256.1,256.3,186.5,194.9,200.4,273.3,238.3,238.5,209.1,185.6,255.6,178.7,225.9,246.1,233.0,215.9,219.5
2016-06-01,253.9,253.8,163.6,175.1,159.2,249.2,188.5,188.8,160.5,143.4,208.1,133.5,216.3,236.0,216.2,190.5,190.7
2016-07-01,203.6,203.6,235.9,216.0,184.9,190.3,190.3,190.2,181.7,192.4,178.0,203.4,207.0,202.8,198.0,191.6,201.3
2016-08-01,213.5,213.6,252.3,247.4,235.3,209.2,204.2,204.1,215.7,236.0,208.0,238.9,225.9,219.5,226.3,235.0,227.2
2016-09-01,236.1,235.9,213.0,216.8,207.4,233.0,205.1,205.2,214.2,216.0,208.9,213.9,213.4,212.9,207.7,200.9,215.2
2016-10-01,44.7,44.6,88.0,75.1,55.6,44.3,55.7,55.8,70.7,70.0,58.1,80.2,39.5,41.8,41.5,41.2,61.4
2016-11-01,64.9,64.8,56.9,62.1,50.9,68.4,57.6,57.7,57.7,56.3,67.9,55.6,67.1,61.5,58.1,53.7,60.3
2016-12-01,55.9,56.0,95.2,68.3,53.6,42.2,51.3,51.1,72.2,63.2,32.6,68.6,83.6,65.8,69.4,74.1,64.5
2017-01-01,59.1,59.1,82.9,87.8,80.2,53.7,59.7,59.7,78.8,78.5,57.6,74.4,73.3,63.1,69.8,78.5,73.0
2017-02-01,65.1,65.2,87.1,89.8,67.7,54.6,51.9,51.9,61.5,63.2,43.8,57.3,71.2,61.8,64.0,67.0,68.7
2017-03-01,132.4,132.5,177.4,158.6,148.0,127.6,141.4,141.3,149.4,159.4,131.3,160.6,136.5,142.3,142.0,141.7,148.4
2017-04-01,146.6,146.6,178.2,144.3,161.0,150.0,153.1,153.2,148.0,188.6,163.0,204.2,126.9,145.5,140.0,132.9,153.2
2017-05-01,230.2,230.4,228.1,237.5,211.1,233.9,204.4,204.6,213.5,226.5,229.3,240.8,230.6,220.6,216.3,210.7,223.9
2017-06-01,237.3,237.5,277.1,273.8,226.3,231.4,204.9,205.1,204.8,252.0,215.5,271.6,261.3,232.9,234.3,236.3,241.2
2017-07-01,202.1,201.9,214.5,213.8,188.3,188.1,179.4,179.5,181.6,203.6,188.6,213.1,196.4,185.9,183.0,179.2,196.3
2017-08-01,221.7,221.7,219.2,232.7,193.6,212.9,182.5,182.6,170.1,187.1,190.2,184.9,225.2,206.6,208.8,211.7,206.5
2017-09-01,138.1,137.8,134.6,115.5,108.2,135.3,113.4,113.5,116.8,126.8,124.9,129.2,116.8,123.1,114.0,102.1,121.1
2017-10-01,84.9,85.1,132.3,114.4,87.1,78.0,82.9,83.0,86.5,101.1,85.3,99.2,94.6,90.8,89.9,88.7,97.1
2017-11-01,43.1,43.0,44.7,41.3,30.0,40.1,32.5,32.6,36.1,41.2,43.6,38.8,38.7,39.6,36.9,33.3,38.9
2017-12-01,32.9,32.9,38.7,39.8,14.0,26.1,19.1,19.2,11.5,15.9,25.9,14.5,38.3,29.8,28.4,26.5,27.8
2018-01-01,31.6,31.6,41.0,43.4,23.6,29.3,29.4,29.4,23.7,26.7,35.0,21.9,33.1,36.0,32.4,27.8,33.2
2018-02-01,133.6,133.3,90.7,96.8,117.4,115.4,120.3,120.5,133.3,127.5,111.1,125.4,124.4,117.2,109.6,99.5,113.7
2018-03-01,124.6,124.7,104.9,108.6,103.0,121.5,119.4,119.3,116.6,95.9,96.7,86.4,121.7,124.5,118.8,111.4,112.6
2018-04-01,247.3,247.2,246.6,252.9,217.8,222.9,194.3,194.3,185.8,209.6,190.1,210.0,246.0,234.8,233.0,230.5,225.6
2018-05-01,334.7,334.4,227.5,253.4,277.8,355.8,312.0,312.5,285.0,265.3,355.4,260.3,279.3,313.2,296.1,273.9,287.7
2018-06-01,227.6,227.7,247.3,225.7,212.2,246.4,196.0,196.2,194.6,222.0,221.5,235.6,201.7,213.9,207.5,199.3,218.2
2018-07-01,320.7,320.6,290.7,291.9,313.7,323.5,324.5,324.5,313.8,307.5,331.6,322.7,311.0,332.9,326.2,317.4,311.4
2018-08-01,274.9,274.9,251.1,262.0,248.1,249.5,226.5,226.3,232.5,253.1,208.6,258.1,259.5,261.6,254.0,244.1,248.9
2018-09-01,207.4,207.4,234.8,219.6,205.4,201.3,190.2,190.0,191.8,218.4,168.0,237.7,196.9,205.5,204.3,202.7,206.5
2018-10-01,160.7,160.6,168.7,169.1,146.7,158.6,152.9,153.0,152.0,159.0,148.2,170.8,149.2,146.1,141.3,135.0,157.2
2018-11-01,72.3,72.5,84.1,75.3,68.6,66.2,70.9,70.8,82.9,77.4,59.2,82.3,86.7,75.9,75.0,73.8,75.1
2018-12-01,17.1,17.2,33.7,27.4,20.5,17.6,24.1,24.1,29.6,31.8,22.4,33.5,21.3,24.0,23.7,23.2,25.2
2019-01-01,47.0,46.9,32.6,43.1,39.2,42.2,47.4,47.4,44.3,39.9,47.9,39.1,49.7,54.7,52.1,48.7,44.0
2019-02-01,119.2,119.2,161.2,143.5,127.9,105.3,112.8,112.8,123.5,142.5,105.0,154.8,123.9,122.4,121.9,121.3,128.9
2019-03-01,88.1,88.2,157.3,144.3,116.8,76.8,86.4,86.3,96.3,134.5,83.3,146.9,110.9,99.4,102.9,107.3,113.2
2019-04-01,270.0,270.0,175.4,216.2,215.9,271.8,239.0,239.3,215.5,190.1,252.0,175.8,254.6,250.0,243.4,234.8,227.9
2019-05-01,200.8,200.8,173.6,160.5,177.4,202.6,184.6,184.8,165.3,186.2,200.4,203.1,179.1,194.4,183.7,169.7,179.6
2019-06-01,348.6,348.5,295.0,310.5,306.2,326.7,285.3,285.0,297.8,304.1,267.3,303.7,335.5,324.0,317.8,309.7,308.1
2019-07-01,219.8,219.9,277.1,255.9,241.4,219.3,194.2,194.0,217.1,267.6,183.6,298.8,230.6,214.2,218.5,224.1,232.4
2019-08-01,239.0,238.8,237.3,220.6,221.7,230.7,224.8,224.9,225.3,231.1,222.6,237.8,225.1,229.8,223.4,215.0,226.9
2019-09-01,164.3,164.1,187.5,175.2,164.4,142.9,143.2,143.1,149.0,174.7,139.1,181.4,164.8,164.6,165.0,165.5,162.8
2019-10-01,127.1,127.0,108.8,119.1,86.0,106.4,103.0,103.1,89.9,85.1,90.9,85.0,133.2,119.1,111.8,102.4,107.6
2019-11-01,48.3,48.4,48.4,44.2,33.7,34.6,39.5,39.6,43.0,38.7,41.1,39.2,61.7,50.7,47.8,44.1,43.8
2019-12-01,53.9,53.9,78.2,71.9,51.7,45.6,49.7,49.6,50.1,56.8,43.4,57.1,61.6,59.2,58.9,58.6,59.0
2020-01-01,64.6,64.5,88.0,77.9,47.0,41.4,38.4,38.3,42.9,51.6,29.6,51.8,66.8,64.8,64.1,63.1,59.2
2020-02-01,51.8,51.9,94.8,84.8,56.4,57.7,48.9,48.8,52.7,67.0,45.8,66.4,50.2,54.9,54.1,53.2,63.9
2020-03-01,176.0,176.1,182.1,176.6,174.9,172.6,172.4,172.5,176.2,174.6,179.8,170.7,172.6,178.7,175.1,170.5,175.8
2020-04-01,297.4,297.2,297.7,296.4,291.3,289.3,287.5,287.6,287.1,292.5,276.6,302.2,290.0,299.3,296.2,292.2,292.4
2020-05-01,233.6,233.6,252.1,221.8,263.8,242.0,234.9,234.9,265.3,288.1,243.5,298.4,213.3,222.6,223.6,224.8,240.5
2020-06-01,234.8,234.7,194.2,194.4,206.0,257.8,230.5,231.1,206.3,203.7,267.5,211.6,199.6,225.1,212.8,196.7,214.7
2020-07-01,223.6,223.5,294.5,275.6,237.3,197.0,182.8,182.9,192.1,249.6,183.2,266.2,239.5,221.0,228.1,237.5,232.9
2020-08-01,234.6,234.4,221.9,225.5,196.9,255.6,221.2,221.7,201.6,206.3,259.3,216.6,214.0,222.4,210.6,195.3,221.6
2020-09-01,213.9,213.8,208.7,209.8,212.8,205.7,197.2,197.1,198.0,202.8,192.2,198.5,219.8,216.6,217.2,218.0,207.1
2020-10-01,69.6,69.7,74.7,75.2,50.0,73.0,64.3,64.5,50.0,55.3,83.7,51.1,76.2,69.8,66.5,62.2,67.4
2020-11-01,69.0,69.1,109.4,92.1,85.3,52.6,72.6,72.5,99.3,95.0,66.3,104.6,96.5,81.3,86.2,92.5,85.7
2020-12-01,51.6,51.6,32.1,37.4,20.3,29.5,28.2,28.2,31.2,25.1,22.7,22.1,64.2,42.8,38.3,32.3,34.8
2021-01-01,25.3,25.4,37.4,38.7,16.7,22.7,31.1,31.2,22.6,25.9,35.5,34.5,31.8,28.6,26.0,22.5,30.0
2021-02-01,92.2,92.2,128.1,125.6,111.6,94.3,90.7,90.7,106.0,117.7,92.7,114.2,98.8,94.9,97.3,100.6,107.3
2021-03-01,143.6,143.6,169.1,160.2,149.7,141.0,124.6,124.5,142.2,166.2,123.9,175.6,139.9,135.1,136.4,138.1,146.7
2021-04-01,159.6,159.6,202.3,194.8,183.8,188.8,178.2,178.6,174.1,206.8,218.5,221.9,146.1,164.0,163.7,163.3,183.5
2021-05-01,196.5,196.5,169.3,167.3,158.2,180.8,150.8,150.7,157.9,168.7,139.6,169.0,186.1,188.0,180.1,169.8,168.4
2021-06-01,281.1,281.0,252.3,274.6,243.5,292.3,241.0,241.2,237.6,238.6,254.5,237.5,256.7,253.7,246.4,236.7,257.2
2021-07-01,219.7,219.7,208.4,209.0,185.4,220.2,179.8,180.1,162.4,194.2,211.5,197.3,209.4,200.2,194.8,187.6,198.6
2021-08-01,166.1,165.9,164.5,162.2,148.6,170.5,147.9,147.9,140.9,160.7,162.4,167.5,156.9,151.5,147.0,141.1,156.7
2021-09-01,144.8,144.8,223.3,211.8,183.2,125.0,140.9,140.7,174.8,203.3,125.1,215.2,159.1,151.7,158.2,166.8,174.3
2021-10-01,141.2,141.0,150.0,143.7,103.4,120.7,105.6,105.7,108.9,116.5,114.4,127.0,153.2,132.4,130.1,127.0,128.0
2021-11-01,33.2,33.1,53.7,47.7,35.1,29.6,39.9,39.9,48.2,49.4,38.0,56.8,42.3,41.4,39.5,37.0,42.7
2021-12-01,35.2,35.3,46.9,43.9,34.0,31.4,36.8,36.7,32.9,33.7,38.9,31.6,36.6,36.6,35.0,32.9,37.9
2022-01-01,39.6,39.7,74.6,49.0,27.7,42.6,27.8,27.8,30.7,46.4,41.4,58.9,33.9,30.4,28.4,25.7,41.2
2022-02-01,68.5,68.6,107.1,101.1,80.2,70.2,74.5,74.5,78.6,90.7,73.7,89.3,81.5,79.0,80.6,82.6,85.0
2022-03-01,239.5,239.3,239.2,241.0,238.8,232.1,228.3,228.2,243.9,232.5,226.4,226.7,227.2,231.4,227.1,221.5,235.2
2022-04-01,191.0,191.1,195.4,183.0,176.9,220.4,195.2,195.7,187.7,190.4,231.2,199.2,172.0,179.9,174.5,167.4,190.4
2022-05-01,253.7,253.7,262.6,246.4,251.5,234.7,229.1,229.2,236.3,270.5,231.1,282.1,272.3,248.3,250.7,253.9,247.7
2022-06-01,289.5,289.5,278.5,280.5,285.8,277.4,272.7,272.8,266.6,273.8,263.3,271.0,285.9,292.7,289.2,284.6,278.8
2022-07-01,267.6,267.3,324.0,283.0,268.8,260.4,220.2,220.3,243.3,304.9,218.2,329.9,262.8,255.4,251.8,247.1,265.8
2022-08-01,235.4,235.3,292.1,277.0,293.9,256.5,275.5,275.5,280.2,296.7,275.2,303.2,237.8,258.2,265.7,275.5,272.8
2022-09-01,163.7,163.4,151.7,140.3,146.5,166.2,156.8,156.8,153.5,152.2,154.8,156.8,146.8,157.6,155.2,152.0,152.3
2022-10-01,160.3,160.0,134.0,130.6,130.2,146.9,149.2,149.2,138.9,131.3,137.9,129.6,150.3,157.0,149.2,139.1,141.1
2022-11-01,82.2,82.0,70.5,75.6,68.7,56.7,76.2,75.9,87.5,65.2,45.7,46.8,98.5,88.1,85.2,81.4,75.3
2022-12-01,27.7,27.8,46.8,47.8,33.7,29.9,39.3,39.3,36.6,41.3,35.0,44.6,33.6,33.6,35.6,38.3,38.8
2023-01-01,28.5,28.5,35.2,40.2,24.0,26.6,32.4,32.5,25.3,28.9,38.8,22.5,31.4,32.3,31.3,30.0,32.2
2023-02-01,76.8,76.8,109.5,97.0,88.4,77.6,86.3,86.2,92.6,105.1,74.3,113.0,71.4,76.9,78.1,79.7,89.2
2023-03-01,97.0,96.8,118.2,114.3,92.9,102.1,86.9,86.9,85.2,101.7,98.0,103.6,94.6,90.1,90.2,90.3,99.7
2023-04-01,149.1,148.9,127.6,129.3,145.9,183.5,178.7,179.1,154.4,149.2,213.9,147.5,127.0,153.3,146.7,138.2,151.0
2023-05-01,296.6,296.1,209.5,226.3,248.0,305.3,241.3,241.4,237.4,250.9,261.1,266.5,269.6,269.6,262.4,253.0,249.3
2023-06-01,264.1,264.1,335.2,309.2,316.6,320.4,296.4,296.8,304.9,330.6,328.9,343.2,266.1,270.0,280.0,293.2,304.1
2023-07-01,245.0,244.6,241.0,242.6,221.6,218.4,205.4,205.3,201.7,216.4,208.4,215.7,254.4,236.1,235.3,234.3,227.6
2023-08-01,185.1,184.9,193.9,200.5,177.9,175.6,181.7,181.8,168.0,185.9,183.4,194.5,183.3,183.8,181.4,178.2,185.5
2023-09-01,258.8,258.6,258.2,259.1,245.4,241.3,226.2,226.2,232.8,255.1,217.8,261.8,254.4,248.0,247.2,246.1,246.6
2023-10-01,80.9,80.9,131.8,134.7,91.7,74.4,73.3,73.3,92.7,111.4,72.1,117.7,96.8,81.2,86.5,93.3,100.0
2023-11-01,49.3,49.3,38.2,51.4,24.1,40.4,31.9,31.9,36.0,29.7,31.9,26.0,36.2,41.2,36.0,29.2,38.8
2023-12-01,23.3,23.3,48.3,47.5,20.3,19.4,14.0,14.0,22.0,26.2,18.5,22.4,29.2,22.7,23.5,24.5,29.1
2024-01-01,60.4,60.4,83.7,81.2,67.3,50.1,63.9,63.7,69.7,75.5,56.9,68.0,69.1,66.4,65.6,64.6,69.7
2024-02-01,49.7,49.6,68.9,64.6,51.6,48.0,33.6,33.5,40.8,53.9,30.1,47.5,51.6,51.8,51.9,52.1,51.2
2024-03-01,142.4,141.9,121.9,131.5,106.6,121.4,104.5,104.6,98.3,112.0,102.8,110.0,139.2,134.2,130.2,125.0,120.3
2024-04-01,163.4,163.3,154.6,170.0,147.7,153.8,133.9,134.0,116.7,147.3,137.2,156.1,170.1,157.4,158.3,159.5,151.6
2024-05-01,261.3,261.0,175.2,199.4,188.3,276.4,239.6,240.1,192.9,173.5,274.8,170.4,218.1,227.4,211.6,190.9,215.3
2024-06-01,232.7,232.5,195.7,206.6,208.0,226.8,202.0,202.0,200.6,205.7,204.1,207.7,223.8,224.3,220.5,215.5,210.1
2024-07-01,254.0,254.0,243.4,241.2,227.6,241.1,228.7,228.9,209.7,230.5,233.9,233.6,255.5,239.7,237.7,235.1,236.5
2024-08-01,277.1,276.7,273.9,265.9,272.1,256.0,236.2,236.1,239.6,275.3,236.9,286.3,275.6,264.1,268.2,273.5,261.0
2024-09-01,213.1,212.8,140.5,166.3,157.0,217.4,185.0,185.2,160.6,154.7,197.5,154.6,191.0,200.7,189.8,175.5,176.8
2024-10-01,120.6,120.4,79.7,82.0,73.4,116.4,110.9,111.2,93.7,84.5,123.8,86.8,113.3,111.3,101.5,88.7,97.5
