year,age_gas_calBP,co2_ppm,co2_1s_ppm
2001.03,-51.03,368.02,0.06
1998.0,-48.0,361.78,0.37
1996.28,-46.28,359.65,0.1
1994.41,-44.41,357.11,0.16
1993.08,-43.08,353.95,0.04
1992.31,-42.31,353.72,0.22
1991.13,-41.13,352.42,0.1
1989.97,-39.97,350.81,0.16
1989.41,-39.41,349.8,0.14
1988.97,-38.97,349.28,0.13
1988.07,-38.07,347.6,0.4
1987.21,-37.21,345.44,0.03
1986.62,-36.62,344.72,0.09
1986.14,-36.14,343.97,0.06
1985.76,-35.76,343.11,0.14
1984.92,-34.92,342.05,0.46
1983.08,-33.08,341.33,0.1
1983.03,-33.03,339.46,0.3
1979.14,-29.14,334.85,0.37
1976.8,-26.8,335.55,0.63
1976.67,-26.67,332.37,1.27
1975.57,-25.57,332.37,0.04
1974.13,-24.13,331.55,0.63
1972.09,-22.09,328.42,0.63
1972.04,-22.04,330.35,2.21
1970.87,-20.87,326.31,1.34
1970.66,-20.66,326.65,1.16
1970.64,-20.64,324.91,0.18
1970.22,-20.22,324.56,0.63
1969.42,-19.42,324.71,0.63
1968.98,-18.98,325.08,0.63
1968.81,-18.81,324.09,0.63
1968.54,-18.54,320.38,1.16
1966.79,-16.79,320.49,1.16
1966.55,-16.55,322.17,1.34
1965.87,-15.87,320.98,1.74
1965.3,-15.3,319.2,0.95
1965.23,-15.23,319.89,0.63
1963.56,-13.56,319.12,0.94
1963.2,-13.2,319.07,0.63
1962.62,-12.62,318.61,0.9
1962.54,-12.54,317.45,0.63
1962.4,-12.4,319.14,0.63
1962.32,-12.32,317.52,0.63
1961.72,-11.72,316.59,0.64
1960.57,-10.57,318.21,1.72
1960.31,-10.31,313.09,1.81
1959.09,-9.09,311.98,1.81
1958.56,-8.56,316.33,0.94
1958.1,-8.1,316.1,1.72
1957.87,-7.87,314.57,0.41
1957.26,-7.26,315.27,1.16
1957.2,-7.2,316.33,0.13
1957.1,-7.1,314.44,0.79
1956.16,-6.16,315.34,0.64
1954.8,-4.8,314.71,2.21
1953.79,-3.79,313.17,0.63
1953.71,-3.71,312.8,0.63
1953.56,-3.56,312.22,1.42
1952.38,-2.38,312.18,0.41
1950.25,-0.25,312.0,0.64
1949.67,0.33,313.66,2.21
1948.77,1.23,309.69,0.41
1947.71,2.29,311.57,2.21
1946.66,3.34,310.36,0.63
1946.63,3.37,312.87,2.21
1945.62,4.38,312.56,2.21
1945.56,4.44,311.97,2.08
1945.39,4.61,311.81,3.12
1944.96,5.04,310.44,2.56
1944.76,5.24,311.28,0.41
1944.51,5.49,310.22,0.63
1943.57,6.43,312.36,2.21
1942.21,7.79,311.88,2.77
1942.04,7.96,312.84,2.56
1941.78,8.22,312.39,2.21
1940.84,9.16,311.8,2.21
1940.75,9.25,307.74,1.16
1939.97,10.03,309.8,0.64
1939.59,10.41,310.95,0.63
1939.22,10.78,311.21,0.63
1938.97,11.03,310.46,2.17
1938.16,11.84,308.48,0.64
1938.13,11.87,311.94,1.34
1937.87,12.13,311.52,2.21
1937.77,12.23,312.33,0.13
1936.86,13.14,307.41,1.16
1935.87,14.13,309.34,2.87
1935.71,14.29,307.26,1.16
1935.06,14.94,306.32,1.16
1933.88,16.12,309.63,0.63
1933.59,16.41,307.08,2.56
1932.78,17.22,305.94,1.16
1932.54,17.46,308.28,2.21
1932.29,17.71,308.26,0.63
1930.83,19.17,305.74,1.45
1929.39,20.61,305.38,0.07
1928.74,21.26,305.78,0.64
1928.54,21.46,305.71,0.94
1928.16,21.84,305.67,0.64
1927.8,22.2,308.02,3.18
1925.31,24.69,304.97,0.63
1924.75,25.25,304.72,1.72
1922.84,27.16,306.2,3.82
1922.51,27.49,303.18,0.94
1919.71,30.29,301.88,1.16
1918.67,31.33,304.61,2.21
1917.87,32.13,303.85,0.67
1915.79,34.21,301.92,0.63
1914.39,35.61,300.7,2.45
1912.52,37.48,301.3,0.63
1911.29,38.71,299.26,1.72
1911.1,38.9,297.73,1.72
1910.72,39.28,298.11,2.56
1909.76,40.24,297.87,1.16
1908.52,41.48,301.5,2.21
1905.77,44.23,299.63,0.64
1905.54,44.46,297.33,0.63
1905.35,44.65,299.02,0.63
1903.91,46.09,295.99,0.94
1901.7,48.3,295.61,1.33
1900.18,49.82,294.22,1.16
1898.94,51.06,297.05,2.21
1898.66,51.34,295.28,0.63
1893.76,56.24,293.81,0.94
1893.66,56.34,293.17,1.72
1893.06,56.94,295.32,0.64
1892.88,57.12,294.86,1.72
1892.39,57.61,295.17,0.63
1889.87,60.13,290.92,1.16
1889.01,60.99,292.34,0.68
1887.39,62.61,294.34,0.63
1885.6,64.4,288.12,2.01
1884.18,65.82,289.23,0.62
1883.79,66.21,289.76,0.94
1882.92,67.08,292.46,0.95
1879.95,70.05,287.77,1.16
1876.91,73.09,289.33,0.63
1873.74,76.26,291.56,2.21
1872.83,77.17,286.66,1.34
1870.04,79.96,286.33,1.16
1869.66,80.34,287.99,0.63
1868.41,81.59,289.54,1.72
1867.73,82.27,287.99,0.41
1866.74,83.26,285.05,1.68
1864.13,85.87,286.65,1.16
1862.98,87.02,285.35,0.94
1861.83,88.17,287.17,0.63
1858.84,91.16,286.63,0.41
1856.62,93.38,283.16,1.16
1854.72,95.28,285.57,0.63
1853.71,96.29,288.05,2.21
1851.11,98.89,285.47,0.63
1850.83,99.17,288.79,0.41
1850.26,99.74,284.0,1.16
1847.32,102.68,286.84,0.64
1845.9,104.1,283.62,1.34
1844.65,105.35,283.18,1.16
1844.46,105.54,283.53,1.16
1843.29,106.71,281.58,1.16
1840.83,109.17,283.65,0.63
1836.7,113.3,284.15,0.94
1833.18,116.82,283.82,0.94
1832.87,117.13,285.09,0.95
1826.92,123.08,285.91,0.64
1824.74,125.26,281.36,0.94
1813.66,136.34,284.43,0.94
1799.34,150.66,282.8,0.79
1796.47,153.53,280.4,1.72
1795.94,154.06,282.3,0.63
1794.1,155.9,281.62,0.94
1780.3,169.7,273.07,0.41
1779.49,170.51,280.24,0.63
1773.46,176.54,277.86,0.94
1763.7,186.3,276.4,0.94
1762.88,187.12,277.16,0.63
1752.13,197.87,278.0,0.63
1751.93,198.07,276.46,0.94
1749.12,200.88,277.6,0.63
1741.26,208.74,276.81,0.94
1733.87,216.13,278.31,0.94
1723.01,226.99,277.01,0.94
1722.8600000000001,227.14,278.27,1.27
1694.07,255.93,277.36,0.63
1689.74,260.26,276.32,0.94
1681.8899999999999,268.11,276.66,0.63
1649.1,300.9,278.02,0.63
1639.81,310.19,276.69,0.94
1628.6,321.4,273.78,0.41
1609.46,340.54,271.11,0.41
1603.42,346.58,275.07,0.63
1590.99,359.01,279.36,0.95
1588.18,361.82,281.11,0.94
1573.01,376.99,282.57,0.64
1559.8600000000001,390.14,281.83,0.94
1549.65,400.35,283.53,1.27
1529.68,420.32,283.95,0.64
1501.53,448.47,283.12,0.64
1469.4,480.6,280.31,1.27
1449.16,500.84,282.23,0.95
1428.8,521.2,279.73,0.41
1410.8600000000001,539.14,279.7,0.94
1390.33,559.67,280.91,0.63
1348.85,601.15,278.36,0.41
1330.12,619.88,284.07,0.64
1307.45,642.55,281.58,0.94
1278.2,671.8,278.43,0.41
1259.51,690.49,282.2,0.94
1251.27,698.73,282.41,0.63
1210.95,739.05,283.69,0.94
1199.81,750.19,284.54,0.64
1165.98,784.02,283.97,1.41
1146.29,803.71,284.51,1.27
1115.6100000000001,834.39,282.84,0.94
1099.4099999999999,850.59,283.09,0.64
1070.2,879.8,282.84,0.94
1049.1799999999998,900.82,280.97,0.63
1040.08,909.92,280.92,0.94
1019.27,930.73,280.06,0.63
1017.58,932.42,279.8,1.34
982.65,967.35,278.74,1.41
957.65,992.35,277.41,0.41
914.1300000000001,1035.87,280.11,2.21
875.4100000000001,1074.59,279.42,1.41
822.3299999999999,1127.67,278.62,1.41
793.0999999999999,1156.9,279.72,2.21
762.3,1187.7,279.29,2.21
730.4300000000001,1219.57,279.99,0.41
701.25,1248.75,277.1,0.41
669.1800000000001,1280.82,278.45,0.41
637.0,1313.0,279.59,0.41
614.52,1335.48,277.87,0.41
582.4100000000001,1367.59,276.2,0.41
557.47,1392.53,278.46,3.85
551.6199999999999,1398.38,276.56,0.41
517.96,1432.04,276.79,0.94
488.1300000000001,1461.87,277.11,0.41
436.94000000000005,1513.06,280.0,0.41
406.3599999999999,1543.64,279.13,0.41
384.23,1565.77,277.25,0.41
357.3299999999999,1592.67,277.8,0.41
317.54999999999995,1632.45,281.69,0.41
295.5999999999999,1654.4,280.91,0.41
274.44000000000005,1675.56,280.24,2.56
266.0999999999999,1683.9,278.31,0.62
240.5999999999999,1709.4,280.25,0.62
174.52999999999997,1775.47,277.56,0.41
153.52999999999997,1796.47,278.07,0.41
136.0,1814.0,278.1,1.0
104.0,1846.0,277.5,1.0
56.0,1894.0,277.4,1.0
30.0,1920.0,277.9,1.0
1.0,1949.0,276.7,1.0
-49.710000000000036,1999.71,278.0,1.2
-143.36000000000013,2093.36,276.9,0.7
-284.2399999999998,2234.24,276.7,0.8
-315.5500000000002,2265.55,276.7,0.8
-464.32000000000016,2414.32,277.6,1.3
-576.1199999999999,2526.12,277.9,0.5
-678.02,2628.02,273.9,1.1
-758.48,2708.48,278.9,0.6
-851.7600000000002,2801.76,275.3,1.6
-954.5500000000002,2904.55,274.7,1.2
-998.8200000000002,2948.82,276.3,0.9
-1106.6,3056.6,274.6,0.8
-1305.73,3255.73,276.3,1.5
-1333.6599999999999,3283.66,273.1,1.1
-1481.12,3431.12,274.0,0.3
-1578.29,3528.29,275.0,0.6
-1694.46,3644.46,273.4,1.3
-1743.4099999999999,3693.41,273.0,0.8
-1856.8600000000001,3806.86,271.5,1.0
-1906.17,3856.17,275.4,0.5
-2018.9499999999998,3968.95,274.9,1.3
-2158.67,4108.67,271.7,1.0
-2255.84,4205.84,271.6,0.7
-2325.08,4275.08,272.8,0.8
-2392.8199999999997,4342.82,271.5,0.9
-2544.3599999999997,4494.36,271.1,0.8
-2642.8199999999997,4592.82,269.1,0.6
-2697.46,4647.46,269.8,1.0
-2823.0,4773.0,271.5,0.8
-2971.2,4921.2,270.7,0.5
-3031.58,4981.58,269.3,1.0
-3136.79,5086.79,268.6,1.1
-3268.5699999999997,5218.57,269.8,1.2
-3361.1800000000003,5311.18,267.6,0.6
-3407.55,5357.55,265.3,1.7
-3583.29,5533.29,265.2,0.8
-3631.3,5581.3,267.6,2.0
-3807.6099999999997,5757.61,265.9,0.9
-3902.26,5852.26,265.5,0.8
-3984.09,5934.09,260.7,1.6
-4049.38,5999.38,266.7,0.9
-4139.81,6089.81,265.5,0.8
-4351.96,6301.96,263.2,0.6
-4387.21,6337.21,262.7,0.9
-4451.24,6401.24,261.2,0.7
-4622.29,6572.29,261.1,0.4
-4732.55,6682.55,259.4,0.6
-4819.65,6769.65,262.1,0.9
-4930.31,6880.31,262.9,0.5
-5020.08,6970.08,258.1,1.4
-5088.27,7038.27,257.6,0.9
-5238.07,7188.07,262.3,0.9
-5324.01,7274.01,263.0,0.7
-5455.32,7405.32,260.7,0.6
-5547.87,7497.87,258.4,0.8
-5711.37,7661.37,260.1,0.6
-5769.59,7719.59,260.4,0.4
-5910.18,7860.18,259.7,0.9
-5976.37,7926.37,259.2,0.7
-6025.85,7975.85,260.8,1.4
-6166.28,8116.28,259.6,0.5
-6244.799999999999,8194.8,259.3,0.9
-6401.879999999999,8351.88,258.3,1.2
-6509.68,8459.68,261.3,0.9
-6596.58,8546.58,260.7,0.4
-6760.68,8710.68,261.8,1.0
-6831.280000000001,8781.28,259.0,1.1
-6961.85,8911.85,260.9,0.7
-7042.99,8992.99,260.4,0.6
-7110.17,9060.17,259.3,1.0
-7193.01,9143.01,262.0,0.8
-7345.3099999999995,9295.31,263.7,1.2
-7411.120000000001,9361.12,263.8,0.8
-7486.700000000001,9436.7,265.2,0.9
-7568.0599999999995,9518.06,260.6,1.7
-7574.4400000000005,9524.44,260.9,0.6
-7605.860000000001,9555.86,263.0,0.4
-7623.27,9573.27,263.8,1.2
-7951.040000000001,9901.04,264.4,0.4
-8042.610000000001,9992.61,264.2,0.9
-8184.5,10134.5,264.0,0.3
-8242.95,10192.95,263.4,0.1
-8349.55,10299.55,265.7,0.5
-8416.56,10366.56,264.9,0.4
-8555.55,10505.55,267.5,0.4
-8730.48,10680.48,266.9,0.6
-8851.81,10801.81,266.0,1.1
-8885.74,10835.74,265.1,1.6
-9004.48,10954.48,267.6,0.7
-9139.62,11089.62,264.8,0.6
-9211.06,11161.06,264.8,0.4
-9235.87,11185.87,265.0,0.8
-9250.58,11200.58,265.3,0.4
-9306.57,11256.57,264.4,1.5
-9366.98,11316.98,264.1,0.7
-9389.37,11339.37,264.81,1.67
-9433.16,11383.16,264.84,1.29
-9449.86,11399.86,268.16,2.55
-9467.45,11417.45,264.48,2.04
-9485.93,11435.93,270.14,2.11
-9503.06,11453.06,268.87,0.7
-9522.8,11472.8,269.1,2.52
-9540.45,11490.45,267.17,0.85
-9557.23,11507.23,267.66,1.15
-9573.93,11523.93,269.51,0.85
-9593.6,11543.6,266.9,0.66
-9609.61,11559.61,262.74,1.42
-9626.41,11576.41,267.09,0.5
-9642.24,11592.24,260.7,0.29
-9661.31,11611.31,261.3,1.52
-9678.97,11628.97,266.22,2.41
-9697.92,11647.92,257.13,1.34
-9714.54,11664.54,247.55,0.34
-9732.82,11682.82,254.62,0.88
-9751.44,11701.44,253.99,1.46
-9769.72,11719.72,256.04,1.26
-9790.65,11740.65,255.89,1.4
-9809.21,11759.21,258.74,1.48
-9830.72,11780.72,258.25,0.33
-9852.79,11802.79,258.53,1.78
-9870.5,11820.5,257.17,1.48
-9893.33,11843.33,254.31,1.34
-9913.12,11863.12,253.63,1.59
-9933.17,11883.17,251.56,0.58
-9954.91,11904.91,255.9,1.16
-9976.96,11926.96,258.57,5.26
-9998.09,11948.09,248.92,2.04
-10019.55,11969.55,253.99,1.3
-10040.69,11990.69,255.39,1.39
-10065.9,12015.9,247.85,1.45
-10087.32,12037.32,248.41,0.35
-10108.8,12058.8,253.1,0.7
-10129.85,12079.85,251.03,2.57
-10155.25,12105.25,255.66,1.99
-10174.58,12124.58,253.02,0.87
-10196.5,12146.5,251.14,1.41
-10218.48,12168.48,251.42,0.85
-10240.41,12190.41,250.97,0.73
-10261.34,12211.34,249.65,1.23
-10282.92,12232.92,249.23,1.6
-10306.48,12256.48,248.95,1.48
-10330.77,12280.77,249.38,1.33
-10351.04,12301.04,248.92,0.29
-10371.28,12321.28,250.73,1.37
-10393.12,12343.12,246.97,0.76
-10415.28,12365.28,244.31,1.16
-10438.31,12388.31,243.0,1.21
-10459.38,12409.38,246.4,1.45
-10481.93,12431.93,247.67,0.82
-10504.82,12454.82,245.83,0.56
-10525.39,12475.39,246.18,0.79
-10545.84,12495.84,244.42,1.18
-10571.35,12521.35,246.74,1.29
-10593.72,12543.72,249.92,1.72
-10614.62,12564.62,244.27,1.21
-10636.6,12586.6,247.02,0.27
-10657.64,12607.64,248.09,1.18
-10679.85,12629.85,246.94,0.45
-10703.64,12653.64,243.95,1.68
-10723.9,12673.9,242.53,0.96
-10747.14,12697.14,244.24,0.96
-10769.8,12719.8,241.59,1.07
-10789.91,12739.91,247.3,0.41
-10812.58,12762.58,240.02,1.12
-10835.63,12785.63,241.5,2.09
-10859.27,12809.27,242.23,1.95
-10880.15,12830.15,242.15,1.34
-10902.71,12852.71,239.35,1.29
-10923.98,12873.98,241.24,1.3
-10943.38,12893.38,239.44,0.79
-10967.11,12917.11,238.79,1.12
-10989.23,12939.23,238.18,2.82
-11009.75,12959.75,240.71,0.95
-11030.88,12980.88,237.15,0.81
-11051.06,13001.06,239.42,2.09
-11071.92,13021.92,234.68,0.19
-11093.69,13043.69,238.86,1.94
-11116.59,13066.59,237.91,2.24
-11138.22,13088.22,241.56,1.16
-11178.45,13128.45,234.82,0.11
-11222.67,13172.67,236.91,0.96
-11266.2,13216.2,239.41,0.69
-11316.97,13266.97,240.42,0.15
-11354.15,13304.15,236.86,0.34
-11468.1,13418.1,237.83,1.87
-11536.74,13486.74,240.25,1.41
-11581.75,13531.75,235.83,0.4
-11650.81,13600.81,243.86,0.12
-11695.35,13645.35,238.55,0.46
-11762.83,13712.83,241.59,1.23
-11808.73,13758.73,241.11,2.22
-11877.2,13827.2,239.08,0.1
-11921.57,13871.57,237.95,0.85
-11990.23,13940.23,240.57,0.57
-12051.79,14001.79,235.92,1.04
-12072.86,14022.86,237.87,1.09
-12110.09,14060.09,241.27,1.17
-12134.47,14084.47,232.88,1.52
-12170.06,14120.06,236.4,0.13
-12206.6,14156.6,239.24,0.42
-12229.55,14179.55,239.36,0.81
-12255.56,14205.56,238.36,1.89
-12287.45,14237.45,236.6,1.19
-12323.02,14273.02,240.21,1.33
-12348.72,14298.72,239.04,0.22
-12358.61,14308.61,235.8,1.1
-12393.16,14343.16,242.08,1.09
-12404.48,14354.48,238.39,0.49
-12424.99,14374.99,240.33,1.05
-12460.6,14410.6,242.55,1.42
-12472.23,14422.23,242.6,1.76
-12493.28,14443.28,240.95,0.35
-12513.58,14463.58,238.61,0.77
-12547.21,14497.21,242.06,2.25
-12570.85,14520.85,241.14,1.27
-12581.3,14531.3,243.17,0.81
-12591.66,14541.66,235.83,0.56
-12602.93,14552.93,241.73,0.42
-12613.52,14563.52,239.86,1.46
-12625.93,14575.93,239.77,1.74
-12636.19,14586.19,237.97,1.14
-12645.47,14595.47,235.31,0.61
-12656.21,14606.21,237.59,0.85
-12669.39,14619.39,237.97,0.76
-12679.99,14629.99,240.1,1.12
-12695.2,14645.2,238.12,0.6
-12702.26,14652.26,234.62,0.39
-12714.09,14664.09,233.42,0.29
-12725.12,14675.12,234.34,1.04
-12736.37,14686.37,237.49,0.29
-12746.69,14696.69,228.91,0.44
-12756.96,14706.96,228.18,0.77
-12768.12,14718.12,230.53,1.1
-12780.88,14730.88,234.54,1.23
-12793.19,14743.19,231.48,1.1
-12808.52,14758.52,227.9,0.75
-12813.41,14763.41,224.64,0.78
-12826.28,14776.28,227.39,1.12
-12837.83,14787.83,227.79,0.23
-12849.14,14799.14,228.5,1.02
-12860.61,14810.61,227.58,0.43
-12872.39,14822.39,226.51,0.7
-12884.75,14834.75,228.4,0.01
-12894.77,14844.77,227.87,0.41
-12907.53,14857.53,233.17,1.47
-12919.18,14869.18,232.22,0.59
-12930.66,14880.66,227.85,1.11
-12942.46,14892.46,230.63,1.24
-12954.21,14904.21,228.72,0.54
-12965.91,14915.91,228.36,0.53
-12979.02,14929.02,228.47,0.34
-13003.66,14953.66,228.89,1.23
-13026.48,14976.48,229.79,2.09
-13037.26,14987.26,227.65,1.22
-13061.48,15011.48,228.37,1.02
-13084.78,15034.78,225.38,0.84
-13122.53,15072.53,228.99,0.24
-13145.81,15095.81,234.47,0.02
-13183.53,15133.53,229.67,0.63
-13206.52,15156.52,228.81,0.89
-13231.11,15181.11,227.84,1.04
-13268.88,15218.88,230.18,0.33
-13293.44,15243.44,228.27,1.21
-13330.74,15280.74,225.77,0.92
-13370.94,15320.94,227.64,1.42
-13395.24,15345.24,228.92,0.96
-13432.85,15382.85,225.39,1.57
-13460.08,15410.08,224.74,0.75
-13512.93,15462.93,223.27,1.38
-13596.4,15546.4,223.53,0.35
-13699.43,15649.43,222.76,1.37
-13754.79,15704.79,222.16,0.57
-13817.68,15767.68,224.86,1.87
-13894.95,15844.95,222.36,0.44
-13970.25,15920.25,223.51,0.65
-13986.52,15936.52,223.77,0.64
-14045.49,15995.49,223.72,2.06
-14048.98,15998.98,224.41,0.18
-14064.67,16014.67,222.39,0.89
-14083.78,16033.78,224.48,1.43
-14133.0,16083.0,224.24,0.82
-14164.14,16114.14,222.41,1.31
-14201.21,16151.21,224.86,1.02
-14216.71,16166.71,226.19,0.07
-14237.46,16187.46,221.49,1.18
-14258.71,16208.71,227.32,1.21
-14272.96,16222.96,223.24,0.55
-14290.56,16240.56,220.49,1.06
-14310.73,16260.73,218.56,0.97
-14328.74,16278.74,214.22,0.59
-14346.96,16296.96,212.84,0.75
-14367.43,16317.43,214.6,0.6
-14387.25,16337.25,212.43,1.19
-14404.23,16354.23,214.83,1.2
-14424.89,16374.89,211.21,0.5
-14441.89,16391.89,209.51,0.82
-14460.71,16410.71,212.95,0.94
-14481.32,16431.32,211.79,1.81
-14508.380000000001,16458.38,217.19,0.28
-14522.029999999999,16472.03,213.94,1.11
-14559.93,16509.93,207.95,0.12
-14603.509999999998,16553.51,208.65,0.52
-14640.009999999998,16590.01,208.46,0.84
-14705.880000000001,16655.88,213.15,0.81
-14783.529999999999,16733.53,210.25,1.1
-14847.55,16797.55,205.53,0.96
-14919.32,16869.32,205.19,0.96
-14978.830000000002,16928.83,202.93,0.68
-15044.77,16994.77,204.32,1.09
-15141.849999999999,17091.85,202.1,1.05
-15213.7,17163.7,198.63,1.3
-15286.25,17236.25,198.29,0.78
-15337.900000000001,17287.9,195.88,0.5
-15361.869999999999,17311.87,194.65,0.27
-15410.5,17360.5,190.5,0.91
-15435.3,17385.3,193.02,0.39
-15460.029999999999,17410.03,191.89,0.27
-15484.970000000001,17434.97,190.76,0.47
-15510.990000000002,17460.99,193.0,0.46
-15535.29,17485.29,191.48,0.5
-15560.869999999999,17510.87,191.59,0.05
-15584.59,17534.59,192.37,0.61
-15611.46,17561.46,192.62,0.3
-15636.25,17586.25,196.96,0.86
-15662.0,17612.0,195.79,0.24
-15687.880000000001,17637.88,193.21,1.23
-15715.060000000001,17665.06,194.38,0.56
-15741.21,17691.21,191.52,1.33
-15767.05,17717.05,189.52,0.56
-15793.75,17743.75,190.41,0.24
-15819.71,17769.71,191.7,0.33
-15847.57,17797.57,187.25,0.66
-15875.43,17825.43,191.21,1.24
-15904.599999999999,17854.6,189.52,0.72
-15931.0,17881.0,190.26,1.19
-15957.16,17907.16,191.72,0.26
-15985.990000000002,17935.99,188.54,0.98
-16015.830000000002,17965.83,188.66,0.1
-16042.04,17992.04,188.96,0.64
-16074.45,18024.45,187.79,1.1
-16100.09,18050.09,187.73,0.5
-16131.599999999999,18081.6,188.64,0.47
-16160.630000000001,18110.63,188.59,1.48
-16189.759999999998,18139.76,184.88,0.23
-16223.16,18173.16,189.01,1.13
-16251.79,18201.79,185.65,0.95
-16282.18,18232.18,188.88,0.47
-16314.68,18264.68,188.52,1.16
-16345.810000000001,18295.81,189.03,0.19
-16374.39,18324.39,187.12,0.84
-16410.35,18360.35,188.73,0.18
-16441.16,18391.16,188.21,1.16
-16472.43,18422.43,188.47,0.75
-16507.83,18457.83,187.45,1.07
-16536.59,18486.59,187.09,0.7
-16569.99,18519.99,187.67,0.14
-16632.94,18582.94,188.57,0.62
-16727.4,18677.4,193.9,0.5
-16797.05,18747.05,191.27,1.01
-16853.64,18803.64,192.97,1.1
-16885.15,18835.15,188.44,0.82
-16916.91,18866.91,188.5,0.53
-17043.82,18993.82,192.71,1.75
-17202.79,19152.79,191.09,1.12
-17332.16,19282.16,191.58,0.84
-17492.73,19442.73,191.52,1.3
-17618.15,19568.15,188.95,0.25
-17679.49,19629.49,191.42,0.59
-17841.19,19791.19,193.6,0.53
-17933.88,19883.88,196.06,0.42
-18068.7,20018.7,193.72,0.75
-18263.31,20213.31,190.47,1.21
-18457.6,20407.6,189.99,0.65
-18586.8,20536.8,193.93,0.69
-18716.49,20666.49,187.76,0.93
-18878.39,20828.39,192.66,1.09
-19014.43,20964.43,190.87,0.82
-19117.69,21067.69,188.4,0.87
-19262.7,21212.7,190.05,0.07
-19395.18,21345.18,187.24,1.16
-19612.85,21562.85,185.23,0.31
-19840.59,21790.59,187.96,0.22
-19963.63,21913.63,190.78,0.95
-20105.59,22055.59,187.38,1.55
-20280.89,22230.89,191.27,0.99
-20342.2,22292.2,187.22,0.45
-20397.6,22347.6,187.02,1.25
-20600.1,22550.1,184.68,0.2
-20654.1,22604.1,185.21,1.63
-20700.8,22650.8,188.49,0.23
-20799.3,22749.3,190.01,0.25
-20883.6,22833.6,186.13,0.13
-21044.0,22994.0,189.4,1.13
-21063.8,23013.8,190.53,0.64
-21157.3,23107.3,190.08,0.82
-21235.0,23185.0,188.6,0.87
-21326.7,23276.7,197.67,1.29
-21408.4,23358.4,193.53,1.72
-21495.2,23445.2,186.78,0.46
-21650.5,23600.5,187.99,0.41
-21923.8,23873.8,183.13,0.03
-22127.7,24077.7,184.68,0.62
-22319.8,24269.8,186.73,0.92
-22693.6,24643.6,180.57,2.72
-23213.6,25163.6,180.69,0.78
-23401.1,25351.1,182.66,0.08
-23593.6,25543.6,183.38,0.62
-23836.0,25786.0,186.54,0.58
-24066.0,26016.0,184.52,0.41
-24304.5,26254.5,184.57,0.52
-24365.0,26315.0,183.77,0.53
-24510.7,26460.7,186.01,0.81
-24587.1,26537.1,185.51,0.53
-24753.7,26703.7,185.44,0.33
-24907.8,26857.8,186.43,0.22
-25004.9,26954.9,188.08,0.8
-25092.0,27042.0,187.39,0.21
-25134.8,27084.8,186.27,0.06
-25220.2,27170.2,194.93,0.48
-25330.1,27280.1,190.06,0.47
-25491.9,27441.9,191.95,0.84
-25552.8,27502.8,191.23,1.92
-25599.7,27549.7,191.53,1.94
-25636.4,27586.4,191.95,0.38
-25711.3,27661.3,191.46,0.69
-25737.0,27687.0,192.71,0.08
-25764.1,27714.1,190.61,1.64
-25768.6,27718.6,189.3,0.32
-25870.7,27820.7,187.59,0.87
-25916.4,27866.4,190.58,0.49
-25935.0,27885.0,189.28,0.12
-25977.1,27927.1,188.99,0.39
-26023.2,27973.2,189.29,0.31
-26147.3,28097.3,189.96,0.64
-26264.1,28214.1,191.82,0.28
-26321.6,28271.6,191.59,0.32
-26419.7,28369.7,192.63,1.67
-26463.9,28413.9,189.16,0.24
-26476.9,28426.9,189.65,0.56
-26627.4,28577.4,193.1,0.05
-26676.4,28626.4,192.82,0.16
-26774.3,28724.3,193.8,0.2
-26891.9,28841.9,193.89,0.34
-26952.7,28902.7,192.69,0.54
-26998.6,28948.6,193.26,0.73
-27058.9,29008.9,192.87,0.49
-27200.7,29150.7,192.26,0.17
-27255.3,29205.3,188.1,0.03
-27299.6,29249.6,192.39,0.97
-27373.9,29323.9,191.01,0.89
-27416.1,29366.1,189.83,0.3
-27460.2,29410.2,189.21,0.66
-27659.2,29609.2,189.24,0.04
-27731.2,29681.2,189.77,0.25
-27792.8,29742.8,191.28,0.27
-27887.8,29837.8,190.97,0.16
-28002.1,29952.1,191.38,1.23
-28049.0,29999.0,191.57,0.22
-28151.5,30101.5,188.25,0.59
-28231.7,30181.7,188.48,0.62
-28327.9,30277.9,186.52,0.08
-28362.7,30312.7,185.99,0.6
-28450.5,30400.5,184.3,0.3
-28578.8,30528.8,182.94,0.43
-28763.0,30713.0,187.14,0.2
-28825.7,30775.7,190.33,0.73
-29155.2,31105.2,188.0,0.06
-29406.4,31356.4,188.48,0.78
-29574.1,31524.1,189.95,0.36
-29842.1,31792.1,193.71,1.23
-29868.4,31818.4,192.93,1.13
-29983.9,31933.9,192.51,0.11
-30076.9,32026.9,193.33,0.43
-30129.6,32079.6,193.91,1.12
-30197.5,32147.5,196.42,0.49
-30200.6,32150.6,196.91,1.31
-30357.9,32307.9,192.47,1.94
-30411.2,32361.2,195.25,0.28
-30484.8,32434.8,194.11,0.53
-30561.1,32511.1,194.61,0.37
-30644.6,32594.6,194.43,0.41
-30727.8,32677.8,195.08,0.29
-30764.1,32714.1,195.94,0.26
-30863.1,32813.1,199.3,2.55
-30930.9,32880.9,196.7,0.8
-31059.0,33009.0,196.33,0.46
-31198.300000000003,33148.3,197.65,0.22
-31467.5,33417.5,196.9,0.54
-31541.4,33491.4,197.13,0.41
-31605.300000000003,33555.3,197.8,0.27
-31808.1,33758.1,200.03,0.69
-31891.0,33841.0,195.63,0.74
-31935.699999999997,33885.7,195.27,0.45
-31957.5,33907.5,194.46,0.66
-31975.9,33925.9,194.47,0.03
-32007.0,33957.0,196.47,0.45
-32041.5,33991.5,195.41,0.33
-32114.199999999997,34064.2,195.93,1.02
-32240.300000000003,34190.3,194.89,0.62
-32300.800000000003,34250.8,195.79,0.76
-32362.800000000003,34312.8,196.27,0.24
-32384.4,34334.4,196.2,0.32
-32606.9,34556.9,199.65,0.74
-32652.6,34602.6,199.49,0.64
-32670.0,34620.0,200.29,0.43
-32697.800000000003,34647.8,198.89,0.98
-32760.6,34710.6,197.16,1.2
-32875.6,34825.6,202.8,0.03
-32916.8,34866.8,203.09,0.48
-33139.6,35089.6,198.78,0.57
-33215.8,35165.8,203.6,0.36
-33331.7,35281.7,205.38,0.1
-33387.0,35337.0,204.47,1.22
-33409.4,35359.4,203.62,0.87
-33433.0,35383.0,201.36,0.26
-33495.8,35445.8,200.3,0.8
-33547.1,35497.1,201.06,1.01
-33558.5,35508.5,202.04,0.9
-33580.7,35530.7,201.89,0.65
-33618.0,35568.0,201.83,0.99
-33722.5,35672.5,201.81,0.24
-33751.6,35701.6,200.5,0.63
-33904.6,35854.6,203.29,1.07
-33998.3,35948.3,198.8,0.37
-34136.5,36086.5,204.12,1.32
-34223.1,36173.1,201.78,0.23
-34311.8,36261.8,200.09,0.63
-34556.3,36506.3,198.96,0.95
-34641.8,36591.8,205.1,1.14
-34719.6,36669.6,203.77,0.16
-34762.8,36712.8,203.75,0.01
-34870.2,36820.2,202.76,1.16
-34989.8,36939.8,203.51,0.23
-35073.4,37023.4,206.36,1.13
-35168.6,37118.6,210.16,0.89
-35193.2,37143.2,207.35,0.16
-35346.5,37296.5,208.25,0.95
-35352.0,37302.0,209.66,0.59
-35388.1,37338.1,206.59,0.12
-35481.0,37431.0,212.51,1.47
-35511.3,37461.3,209.84,0.53
-35668.6,37618.6,214.3,0.4
-35697.5,37647.5,212.14,0.72
-35827.2,37777.2,212.09,1.62
-35945.0,37895.0,214.21,1.09
-36050.3,38000.3,211.21,0.68
-36138.5,38088.5,214.36,1.48
-36215.6,38165.6,208.34,0.59
-36242.4,38192.4,206.52,0.45
-36334.2,38284.2,207.41,0.17
-36409.2,38359.2,208.0,0.67
-36462.8,38412.8,210.79,0.64
-36522.9,38472.9,207.23,0.04
-36583.2,38533.2,210.08,0.4
-36623.6,38573.6,208.23,1.98
-36671.8,38621.8,204.79,0.46
-36720.8,38670.8,204.46,0.74
-36773.4,38723.4,206.54,0.31
-36862.6,38812.6,206.09,0.26
-36924.7,38874.7,205.65,0.02
-37005.6,38955.6,205.99,1.31
-37026.8,38976.8,202.34,1.42
-37103.6,39053.6,204.28,0.68
-37170.5,39120.5,207.32,0.2
-37315.7,39265.7,208.69,1.7
-37353.2,39303.2,209.5,0.47
-37369.9,39319.9,209.33,0.48
-37389.8,39339.8,207.87,0.79
-37429.4,39379.4,204.78,1.06
-37452.9,39402.9,191.53,0.9
-37504.4,39454.4,198.14,1.03
-37565.4,39515.4,200.4,1.36
-37671.0,39621.0,195.7,2.08
-37759.2,39709.2,196.67,1.06
-37807.1,39757.1,193.58,1.16
-37935.0,39885.0,193.87,0.2
-37950.5,39900.5,197.55,0.67
-38092.7,40042.7,192.6,2.21
-38162.1,40112.1,193.08,0.44
-38195.3,40145.3,193.69,0.42
-38358.4,40308.4,197.9,1.39
-38535.95,40485.95,201.32,1.37
-38603.44,40553.44,201.48,1.09
-38804.3,40754.3,200.47,0.74
-38957.39,40907.39,200.97,1.92
-39217.9,41167.9,201.53,1.88
-39353.59,41303.59,204.19,1.54
-39655.97,41605.97,205.49,0.99
-39809.21,41759.21,201.12,1.0
-39950.69,41900.69,199.89,1.36
-40365.82,42315.82,200.9,1.24
-40678.3,42628.3,204.83,0.19
-40899.87,42849.87,206.35,1.07
-41018.08,42968.08,204.26,0.76
-41221.89,43171.89,203.16,1.43
-41400.66,43350.66,201.66,1.81
-41565.82,43515.82,204.22,0.86
-41711.16,43661.16,203.18,1.05
-41859.01,43809.01,201.69,1.13
-42145.2,44095.2,204.31,0.92
-42254.45,44204.45,202.0,0.52
-42400.47,44350.47,206.22,1.86
-42540.5,44490.5,204.83,1.32
-42705.54,44655.54,212.29,0.85
-42866.01,44816.01,210.44,0.56
-43046.16,44996.16,211.49,0.35
-43192.02,45142.02,207.95,0.71
-43330.39,45280.39,213.92,0.82
-43510.32,45460.32,214.5,0.81
-43746.06,45696.06,217.51,2.16
-43927.11,45877.11,222.72,0.33
-44107.33,46057.33,221.77,1.74
-44231.26,46181.26,219.25,1.19
-44358.55,46308.55,218.35,1.45
-44685.9,46635.9,216.42,1.44
-44796.44,46746.44,214.18,0.99
-44937.94,46887.94,210.84,1.5
-45136.28,47086.28,210.27,0.53
-45364.98,47314.98,207.6,1.2
-45574.36,47524.36,204.26,0.98
-45760.39,47710.39,203.79,0.39
-45993.75,47943.75,205.66,0.97
-46273.18,48223.18,206.18,2.05
-46477.86,48427.86,200.98,0.56
-47037.95,48987.95,201.58,0.88
-47352.98,49302.98,200.12,0.4
-47512.66,49462.66,204.06,1.22
-47778.32,49728.32,203.87,1.26
-48056.51,50006.51,204.38,1.65
-48270.55,50220.55,206.74,0.48
-48577.41,50527.41,207.41,0.46
-49079.17,51029.17,207.64,0.91
-49481.45,51431.45,211.57,0.39
-49829.53,51779.53,215.08,1.77
-50136.82,52086.82,213.82,0.73
-50434.78,52384.78,219.08,0.28
-50623.68,52573.68,220.72,0.36
-50850.74,52800.74,221.15,1.09
-51158.25,53108.25,223.72,1.68
-51450.45,53400.45,223.26,0.89
-51856.25,53806.25,221.14,1.49
-52206.6,54156.6,220.37,0.85
-52437.13,54387.13,217.96,1.84
-52744.61,54694.61,213.89,1.14
-53064.49,55014.49,216.86,0.61
-53343.46,55293.46,208.19,0.72
-53603.13,55553.13,214.78,0.55
-53959.54,55909.54,210.27,1.23
-54287.13,56237.13,207.67,0.81
-54553.58,56503.58,212.44,0.67
-55260.94,57210.94,215.7,0.63
-55526.27,57476.27,217.38,2.49
-55893.72,57843.72,223.72,0.49
-56267.01,58217.01,224.35,0.8
-56483.32,58433.32,223.15,1.22
-57155.07,59105.07,231.29,0.15
-57430.41,59380.41,226.35,1.37
-57783.47,59733.47,223.45,0.7
-58159.88,60109.88,216.66,0.84
-58423.06,60373.06,212.87,0.71
-58566.63,60516.63,217.25,0.6
-58867.62,60817.62,213.78,1.38
-59110.88,61060.88,207.95,1.26
-59284.84,61234.84,210.57,1.01
-59604.11,61554.11,210.9,0.7
-59950.72,61900.72,206.38,1.2
-60602.01,62552.01,202.56,0.95
-60824.57,62774.57,202.71,2.34
-61010.9,62960.9,200.15,0.65
-61605.79,63555.79,197.4,1.22
-61946.88,63896.88,197.24,0.78
-62163.78,64113.78,199.73,1.31
-62707.29,64657.29,203.7,0.51
-62917.42,64867.42,201.67,1.19
-63096.72,65046.72,199.17,0.66
-63596.45,65546.45,208.98,3.34
-63814.509999999995,65764.51,198.17,0.74
-63987.229999999996,65937.23,200.59,1.46
-64489.31,66439.31,204.39,2.87
-65009.71000000001,66959.71,207.21,1.69
-65364.59,67314.59,201.14,2.0
-65779.68,67729.68,203.76,1.06
-66196.19,68146.19,200.17,1.62
-66669.99,68619.99,203.43,0.57
-67131.53,69081.53,205.42,0.89
-67642.02,69592.02,211.26,1.13
-68102.16,70052.16,215.55,1.78
-68477.26,70427.26,220.33,0.55
-68978.87,70928.87,225.17,1.38
-69329.17,71279.17,235.02,1.24
-69743.65,71693.65,237.56,0.75
-70142.81,72092.81,239.46,0.88
-70540.15,72490.15,232.79,0.94
-70916.04,72866.04,232.33,0.97
-71269.32,73219.32,230.89,2.09
-71800.96,73750.96,232.74,0.94
-72271.48,74221.48,231.33,0.7
-72575.65,74525.65,241.24,0.98
-73117.95,75067.95,243.27,1.62
-73595.13,75545.13,249.52,0.74
-73900.65,75850.65,249.94,0.63
-74297.47,76247.47,239.34,1.12
-74746.74,76696.74,238.01,1.98
-75106.48,77056.48,231.68,1.54
-75665.92,77615.92,224.92,1.3
-76130.75,78080.75,226.65,0.84
-76557.95,78507.95,224.14,0.65
-77019.54,78969.54,227.3,0.56
-77460.36,79410.36,229.26,1.34
-77927.76,79877.76,234.74,0.72
-78380.36,80330.36,230.6,0.62
-78771.79,80721.79,233.92,1.46
-79256.94,81206.94,230.33,0.8
-79761.43,81711.43,234.13,1.17
-80118.79,82068.79,238.89,0.94
-80576.72,82526.72,240.87,1.64
-81038.26,82988.26,246.32,0.7
-81604.11,83554.11,247.1,1.0
-81990.9,83940.9,250.79,0.8
-82407.44,84357.44,243.16,0.76
-82986.77,84936.77,238.42,1.1
-83417.47,85367.47,234.69,0.6
-83940.69,85890.69,228.76,1.57
-84548.32,86498.32,223.38,0.72
-85077.64,87027.64,221.06,2.32
-85631.18,87581.18,223.63,0.93
-86186.18,88136.18,217.8,1.57
-86751.05,88701.05,223.99,0.5
-87294.72,89244.72,227.38,1.1
-87746.26,89696.26,228.88,0.58
-88367.29,90317.29,229.74,1.29
-88884.02,90834.02,231.56,0.57
-89495.03,91445.03,231.12,0.57
-89999.74,91949.74,233.74,1.11
-90717.82,92667.82,232.46,2.22
-91474.71,93424.71,235.16,0.83
-91873.21,93823.21,238.21,0.77
-92618.55,94568.55,242.41,0.53
-93284.11,95234.11,242.91,1.07
-93971.48,95921.48,246.2,1.54
-94524.88,96474.88,245.76,0.6
-95320.89,97270.89,242.35,2.04
-95977.46,97927.46,239.86,0.45
-96633.72,98583.72,243.18,0.23
-97411.42,99361.42,242.99,1.01
-98126.85,100076.85,245.63,1.07
-98593.18,100543.18,247.87,1.1
-99375.68,101325.68,244.76,1.13
-100021.89,101971.89,240.07,0.94
-100814.78,102764.78,237.07,1.75
-101358.74,103308.74,240.68,0.94
-102324.33,104274.33,247.76,0.83
-102381.23,104331.23,238.88,1.55
-103016.45,104966.45,242.36,2.65
-103557.15,105507.15,248.78,9.96
-104039.87,105989.87,257.58,4.2
-104306.38,106256.38,241.4,2.65
-104418.25,106368.25,244.83,3.05
-105024.82,106974.82,240.34,2.65
-106451.91,108401.91,236.43,2.65
-107179.42,109129.42,244.44,1.58
-107889.97,109839.97,244.13,2.65
-108605.36,110555.36,246.69,2.65
-109926.8,111876.8,257.93,2.94
-110686.06,112636.06,256.79,2.65
-110991.73,112941.73,263.12,2.65
-111169.27,113119.27,264.75,3.64
-111728.64,113678.64,260.58,2.65
-112300.0,114250.0,267.9,2.65
-112865.39,114815.39,275.07,2.65
-113496.67,115446.67,276.96,1.63
-113958.58,115908.58,273.16,2.65
-114525.58,116475.58,273.63,2.65
-115235.55,117185.55,274.03,2.65
-115669.36,117619.36,274.98,4.03
-116708.27,118658.27,277.72,2.65
-117292.52,119242.52,267.74,2.65
-117765.5,119715.5,274.59,1.3
-118194.12,120144.12,268.73,2.65
-118592.91,120542.91,276.82,2.65
-119476.02,121426.02,279.48,2.26
-119891.97,121841.97,276.61,2.65
-120150.0,122100.0,278.25,3.4
-120342.36,122292.36,279.0,2.65
-121063.95,123013.95,279.16,2.65
-121680.91,123630.91,274.6,6.56
-122009.48,123959.48,275.87,2.65
-122454.52,124404.52,281.54,2.65
-122867.45,124817.45,275.52,2.65
-123342.63,125292.63,276.81,2.78
-124063.7,126013.7,275.15,2.65
-124749.91,126699.91,273.02,2.65
-125012.03,126962.03,274.93,2.65
-125363.83,127313.83,275.78,2.65
-125553.55,127503.55,276.88,3.83
-126074.48,128024.48,276.03,0.28
-126222.67,128172.67,280.72,2.65
-126516.73,128466.73,285.76,2.65
-126928.0,128878.0,271.08,2.65
-127128.04,129078.04,268.44,1.92
-127705.64,129655.64,260.61,3.45
-128423.03,130373.03,251.84,2.65
-128868.36,130818.36,250.84,2.65
-129372.20000000001,131322.2,241.13,1.89
-130026.23999999999,131976.24,232.28,2.65
-130759.88,132709.88,228.0,2.65
-130981.95999999999,132931.96,224.63,2.65
-131825.81,133775.81,222.74,2.65
-132572.28,134522.28,212.43,2.65
-134615.55,136565.55,203.74,0.79
-135813.42,137763.42,199.18,2.65
-136884.3,138834.3,198.55,1.08
-137999.97,139949.97,192.75,0.19
-140410.56,142360.56,196.51,0.95
-141701.3,143651.3,194.59,2.65
-142849.59,144799.59,196.02,2.65
-144158.24,146108.24,193.59,0.64
-146283.47,148233.47,195.81,4.05
-147516.15,149466.15,201.78,2.65
-148644.88,150594.88,202.51,2.65
-149494.85,151444.85,202.35,1.86
-151824.66,153774.66,198.78,1.73
-152939.13,154889.13,196.3,2.65
-154356.82,156306.82,189.38,2.65
-156716.0,158666.0,189.0,3.0
-157766.0,159716.0,185.5,3.0
-158205.0,160155.0,187.5,3.0
-161908.0,163858.0,204.3,3.0
-162384.65,164334.65,196.5,3.0
-164193.0,166143.0,191.6,3.0
-164834.0,166784.0,190.1,3.0
-165964.1,167914.1,186.7,3.0
-166795.5,168745.5,183.8,3.0
-167564.4,169514.4,196.6,3.0
-169989.0,171939.0,197.8,3.0
-172492.0,174442.0,197.7,3.0
-173883.35,175833.35,196.0,3.0
-174903.0,176853.0,190.3,3.0
-175583.93,177533.93,189.4,3.0
-175779.5,177729.5,190.1,3.0
-177923.0,179873.0,207.7,3.0
-179352.0,181302.0,213.2,3.0
-180246.0,182196.0,217.7,3.0
-181308.0,183258.0,198.1,3.0
-182421.0,184371.0,199.7,3.0
-184461.0,186411.0,203.4,3.0
-186487.0,188437.0,210.7,3.0
-187856.5,189806.5,231.3,3.0
-189304.5,191254.5,231.4,3.0
-190014.08,191964.08,220.3,3.0
-191124.5,193074.5,218.0,3.0
-193176.5,195126.5,226.5,3.0
-193849.5,195799.5,220.0,3.0
-195637.35,197587.35,226.4,3.0
-196377.45,198327.45,241.2,3.0
-196988.0,198938.0,242.6,3.0
-199802.0,201752.0,250.9,3.0
-200794.5,202744.5,239.1,3.0
-201892.0,203842.0,247.6,3.0
-203253.28,205203.28,244.4,3.0
-203625.76,205575.76,231.9,3.0
-203994.58,205944.58,232.2,3.0
-204409.94,206359.94,228.6,3.0
-204946.85,206896.85,226.3,3.0
-205290.3,207240.3,229.4,3.0
-205672.89,207622.89,231.4,3.0
-206158.78,208108.78,238.1,3.0
-206324.53,208274.53,237.2,3.0
-206871.57,208821.57,230.0,3.0
-207132.26,209082.26,240.5,3.0
-207495.04,209445.04,242.2,3.0
-208016.09,209966.09,244.6,3.0
-208225.17,210175.17,243.9,3.0
-208882.07,210832.07,247.2,3.0
-209108.47,211058.47,252.0,3.0
-209627.84,211577.84,246.9,3.0
-210128.75,212078.75,239.5,3.0
-210583.08,212533.08,257.4,3.0
-211380.35,213330.35,243.4,3.0
-212208.81,214158.81,251.2,3.0
-213130.75,215080.75,241.4,3.0
-213962.34,215912.34,240.3,3.0
-214356.15,216306.15,242.6,3.0
-214914.97,216864.97,247.5,3.0
-215465.64,217415.64,251.7,3.0
-215744.96,217694.96,251.1,3.0
-216250.79,218200.79,245.3,3.0
-217117.61,219067.61,240.5,3.0
-218985.62,220935.62,214.1,3.0
-219747.46,221697.46,216.1,3.0
-220589.58,222539.58,207.1,3.0
-221179.04,223129.04,208.8,3.0
-222321.51,224271.51,205.6,3.0
-224309.83,226259.83,203.3,3.0
-224899.84,226849.84,215.7,3.0
-225769.98,227719.98,235.5,3.0
-226489.42,228439.42,234.5,3.0
-226816.99,228766.99,233.1,3.0
-227622.05,229572.05,224.5,3.0
-229179.66,231129.66,232.4,3.0
-230241.77,232191.77,233.9,3.0
-230906.06,232856.06,241.6,3.0
-234040.86,235990.86,245.2,3.0
-234476.01,236426.01,252.1,3.0
-234900.8,236850.8,241.4,3.0
-235441.66,237391.66,247.4,3.0
-235955.53,237905.53,243.1,3.0
-236475.34,238425.34,239.1,3.0
-237058.26,239008.26,245.6,3.0
-237437.04,239387.04,245.8,3.0
-237788.66,239738.66,247.4,3.0
-238240.37,240190.37,252.8,3.0
-239383.05,241333.05,259.7,3.0
-239905.4,241855.4,263.2,3.0
-240735.46,242685.46,279.0,3.0
-241188.52,243138.52,280.2,3.0
-242171.77,244121.77,263.7,3.0
-242632.34,244582.34,252.3,3.0
-243107.01,245057.01,249.9,3.0
-243614.0,245564.0,236.7,3.0
-244238.81,246188.81,230.4,3.0
-244920.49,246870.49,219.4,3.0
-247149.87,249099.87,214.7,3.0
-249440.57,251390.57,200.2,3.0
-250182.26,252132.26,213.9,3.0
-251003.72,252953.72,195.4,3.0
-251806.68,253756.68,196.7,3.0
-252637.11,254587.11,195.4,3.0
-254348.66,256298.66,199.0,3.0
-255110.59,257060.59,201.9,3.0
-255958.07,257908.07,204.0,3.0
-257446.9,259396.9,203.9,3.0
-258944.24,260894.24,209.6,3.0
-259343.92,261293.92,205.7,3.0
-260104.58,262054.58,208.9,3.0
-260867.09999999998,262817.1,214.6,3.0
-262633.76,264583.76,228.1,3.0
-264184.45,266134.45,199.9,3.0
-265057.0,267007.0,211.7,3.0
-266307.83,268257.83,188.7,3.0
-267045.5,268995.5,187.2,3.0
-267990.47,269940.47,194.2,3.0
-269086.04,271036.04,198.8,3.0
-270199.64,272149.64,184.7,3.0
-271215.83,273165.83,190.4,3.0
-272214.08,274164.08,193.9,3.0
-273204.64,275154.64,194.1,3.0
-274307.72,276257.72,198.4,3.0
-275493.0,277443.0,193.2,3.0
-276640.91,278590.91,202.2,3.0
-277669.05,279619.05,204.5,3.0
-278608.95,280558.95,211.0,3.0
-279450.74,281400.74,215.3,3.0
-280642.89,282592.89,223.7,3.0
-282484.68,284434.68,231.3,3.0
-283981.32,285931.32,228.0,3.0
-284659.96,286609.96,226.4,3.0
-285493.86,287443.86,231.4,3.0
-285870.05,287820.05,230.4,3.0
-286336.43,288286.43,231.0,3.0
-288234.5,290184.5,234.9,3.0
-288913.79,290863.79,220.4,3.0
-289612.87,291562.87,217.1,3.0
-290868.31,292818.31,207.6,3.0
-291700.74,293650.74,206.0,3.0
-292505.29,294455.29,206.7,3.0
-293414.23,295364.23,212.7,3.0
-294878.87,296828.87,213.1,3.0
-296754.62,298704.62,217.1,3.0
-297426.28,299376.28,224.4,3.0
-298165.87,300115.87,231.0,3.0
-299075.62,301025.62,236.1,3.0
-300134.19,302084.19,239.0,3.0
-301166.0,303116.0,236.0,3.0
-302150.92,304100.92,240.2,3.0
-303149.81,305099.81,240.7,3.0
-303828.15,305778.15,250.2,3.0
-304631.12,306581.12,248.6,3.0
-305513.27,307463.27,244.8,3.0
-306375.7,308325.7,225.8,3.0
-307473.73,309423.73,227.8,3.0
-308060.98,310010.98,226.2,3.0
-308826.1,310776.1,233.2,3.0
-309720.03,311670.03,237.8,3.0
-310643.43,312593.43,239.0,3.0
-311393.13,313343.13,241.9,3.0
-312101.85,314051.85,251.6,3.0
-312886.21,314836.21,256.7,3.0
-313707.52,315657.52,257.1,3.0
-314500.72,316450.72,246.8,3.0
-315199.87,317149.87,272.6,3.0
-315982.55,317932.55,251.6,3.0
-316902.6,318852.6,245.2,3.0
-317879.66,319829.66,233.4,3.0
-318966.34,320916.34,255.8,3.0
-319867.45,321817.45,249.2,3.0
-321433.35,323383.35,257.2,3.0
-322216.92,324166.92,260.4,3.0
-323057.41,325007.41,260.3,3.0
-323873.0,325823.0,260.5,3.0
-324641.09,326591.09,266.2,3.0
-325485.84,327435.84,264.0,3.0
-326136.81,328086.81,266.1,3.0
-326820.75,328770.75,270.1,3.0
-327464.29,329414.29,271.9,3.0
-328103.33,330053.33,275.1,3.0
-329343.55,331293.55,265.0,3.0
-330194.12,332144.12,271.7,3.0
-330848.62,332798.62,272.6,3.0
-331550.09,333500.09,273.1,3.0
-332047.56,333997.56,282.4,3.0
-332399.5,334349.5,289.1,3.0
-332593.89,334543.89,288.4,3.0
-333152.31,335102.31,298.6,3.0
-333757.51,335707.51,278.1,3.0
-334427.54,336377.54,285.8,3.0
-334917.82,336867.82,278.6,3.0
-335566.67,337516.67,270.5,3.0
-336263.5,338213.5,255.7,3.0
-337041.44,338991.44,241.9,3.0
-338033.89,339983.89,239.6,3.0
-338785.08,340735.08,234.2,3.0
-340841.56,342791.56,250.1,3.0
-341973.59,343923.59,200.7,3.0
-343050.85,345000.85,205.2,3.0
-344370.91,346320.91,204.8,3.0
-345594.81,347544.81,211.9,3.0
-347189.09,349139.09,220.3,3.0
-349726.35,351676.35,221.1,3.0
-351224.6,353174.6,216.2,3.0
-352462.98,354412.98,209.4,3.0
-353867.77,355817.77,209.2,3.0
-357060.38,359010.38,193.0,3.0
-358733.84,360683.84,186.1,3.0
-360617.6,362567.6,185.8,3.0
-363240.23,365190.23,201.2,3.0
-366115.9,368065.9,206.3,3.0
-369435.87,371385.87,201.9,3.0
-371507.62,373457.62,199.9,3.0
-373254.6,375204.6,214.7,3.0
-375084.88,377034.88,224.6,3.0
-376810.24,378760.24,229.6,3.0
-380981.49,382931.49,227.0,3.0
-382607.45,384557.45,240.0,3.0
-384333.71,386283.71,239.1,3.0
-385874.82,387824.82,246.8,3.0
-387460.21,389410.21,245.8,3.0
-390337.25,392287.25,258.1,3.0
-391027.15,392977.15,259.5,3.0
-392053.69,394003.69,273.6,3.0
-392956.1,394906.1,260.7,3.0
-396325.13,398275.13,276.3,3.0
-397976.16,399926.16,277.1,3.0
-398760.08,400710.08,283.2,3.0
-400190.92,402140.92,283.1,3.0
-400909.84,402859.84,275.7,3.0
-402363.3,404313.3,276.5,3.0
-403112.63,405062.63,280.5,3.0
-404592.8,406542.8,279.6,3.0
-405332.5,407282.5,285.6,3.0
-406868.72,408818.72,284.5,3.0
-407648.24,409598.24,274.7,3.0
-408503.8,410453.8,282.6,3.0
-409397.97,411347.97,283.5,3.0
-411308.65,413258.65,274.9,3.0
-412260.86,414210.86,264.9,3.0
-413229.59,415179.59,271.6,3.0
-413995.61,415945.61,276.4,1.6
-414475.32,416425.32,271.7,1.2
-415490.44,417440.44,273.4,1.5
-416006.78,417956.78,271.8,1.7
-416555.3,418505.3,274.6,1.8
-417625.78,419575.78,273.7,0.8
-418183.76,420133.76,271.2,1.5
-418751.76,420701.76,273.8,1.6
-419962.15,421912.15,268.6,1.4
-420582.65,422532.65,266.4,1.8
-421275.5,423225.5,270.6,1.1
-422557.75,424507.75,267.7,2.9
-423182.26,425132.26,268.3,1.9
-423790.91,425740.91,270.8,1.1
-424287.27,426237.27,270.0,2.5
-424671.56,426621.56,265.4,2.0
-425204.96,427154.96,255.3,1.3
-425991.4,427941.4,252.1,0.7
-426890.2,428840.2,248.2,0.9
-427228.36,429178.36,242.5,1.5
-429073.76,431023.76,219.7,1.7
-430229.31,432179.31,227.2,2.2
-431900.3,433850.3,211.5,1.7
-432429.07,434379.07,207.6,1.3
-433989.69,435939.69,209.8,1.6
-435535.42,437485.42,207.5,1.3
-437113.42,439063.42,200.3,1.6
-438709.58,440659.58,201.7,1.6
-440280.78,442230.78,201.3,1.1
-441894.65,443844.65,202.0,1.5
-443381.73,445331.73,199.1,1.1
-445269.18,447219.18,201.1,0.9
-446509.18,448459.18,203.5,0.6
-447621.04,449571.04,208.1,1.8
-448692.89,450642.89,201.7,1.7
-449797.28,451747.28,201.2,2.1
-450785.84,452735.84,204.9,1.4
-451825.64,453775.64,201.9,1.8
-452914.31,454864.31,198.4,1.3
-454051.61,456001.61,193.3,1.6
-455164.44,457114.44,192.5,1.0
-455795.13,457745.13,199.1,0.6
-456258.29,458208.29,204.3,1.0
-456844.01,458794.01,203.3,1.0
-457261.55,459211.55,208.3,1.4
-458302.21,460252.21,202.4,1.3
-459336.06,461286.06,195.5,0.8
-460464.1,462414.1,190.7,1.9
-461576.65,463526.65,194.4,0.7
-462649.47,464599.47,199.9,2.6
-463315.36,465265.36,205.2,0.9
-463651.73,465601.73,210.0,0.7
-464682.3,466632.3,208.1,2.2
-465756.64,467706.64,204.4,1.9
-466927.71,468877.71,203.4,1.2
-468090.13,470040.13,205.5,0.9
-468775.98,470725.98,206.5,0.9
-469250.79,471200.79,215.5,2.3
-469874.53,471824.53,218.7,0.9
-470313.07,472263.07,229.2,1.4
-470913.27,472863.27,232.7,0.7
-471267.82,473217.82,243.7,1.8
-471850.85,473800.85,243.9,1.1
-472142.36,474092.36,245.6,0.9
-473024.11,474974.11,241.2,1.7
-473975.2,475925.2,233.1,0.6
-474999.8,476949.8,232.8,1.1
-475991.0,477941.0,236.6,1.0
-476942.46,478892.46,239.1,0.9
-477452.95,479402.95,236.5,1.2
-477825.69,479775.69,231.3,1.0
-478378.3,480328.3,220.8,0.7
-478776.68,480726.68,218.8,2.3
-479712.96,481662.96,223.8,1.4
-480630.96,482580.96,223.4,1.7
-481445.38,483395.38,227.3,1.3
-482229.79,484179.79,231.4,1.1
-482986.18,484936.18,231.4,1.3
-483717.52,485667.52,231.2,1.2
-484448.67,486398.67,233.0,1.4
-485179.25,487129.25,232.9,1.2
-485898.07,487848.07,231.3,1.2
-486615.45,488565.45,237.1,1.8
-487352.09,489302.09,242.0,0.2
-487769.79,489719.79,240.9,0.4
-488076.29,490026.29,252.8,2.5
-488544.91,490494.91,249.3,2.7
-488783.95,490733.95,242.6,0.6
-489501.08,491451.08,243.3,1.3
-490204.55,492154.55,246.7,1.6
-490913.78,492863.78,243.7,1.4
-491643.11,493593.11,239.7,1.9
-492350.39,494300.39,239.1,1.2
-493074.13,495024.13,238.3,2.0
-493775.69,495725.69,238.5,1.4
-494494.07,496444.07,237.6,1.6
-495237.63,497187.63,236.4,2.1
-496015.98,497965.98,236.5,1.7
-496787.42,498737.42,232.8,0.8
-497576.78,499526.78,230.6,0.5
-498354.78,500304.78,230.8,1.0
-499133.96,501083.96,228.2,1.7
-499911.42,501861.42,230.8,1.4
-500687.64,502637.64,231.2,0.8
-501468.93,503418.93,232.0,1.6
-502227.19,504177.19,232.2,1.4
-502961.78,504911.78,234.1,0.8
-503734.24,505684.24,233.9,1.1
-504533.73,506483.73,235.5,1.8
-505362.4,507312.4,236.0,2.1
-506167.72,508117.72,238.2,0.9
-506990.98,508940.98,237.0,0.8
-507834.98,509784.98,240.3,0.7
-508702.33,510652.33,233.4,1.0
-509562.45,511512.45,236.4,1.4
-510413.78,512363.78,235.2,0.5
-511254.74,513204.74,242.0,0.8
-512083.12,514033.12,238.2,1.0
-512897.78,514847.78,239.2,1.2
-513700.78,515650.78,241.5,1.3
-514470.98,516420.98,243.0,0.5
-515204.98,517154.98,247.2,2.2
-515926.01,517876.01,246.2,2.6
-516650.46,518600.46,245.5,1.1
-517379.13,519329.13,245.3,1.3
-518123.36,520073.36,247.7,1.4
-518871.81,520821.81,245.5,0.8
-519624.47,521574.47,243.5,0.7
-521851.82,523801.82,241.9,1.4
-522620.87,524570.87,236.8,0.8
-523387.0,525337.0,235.8,1.2
-524157.0,526107.0,233.7,0.7
-524945.81,526895.81,230.3,0.8
-525748.69,527698.69,227.8,0.6
-526566.69,528516.69,224.7,1.9
-527453.43,529403.43,222.7,1.0
-528340.51,530290.51,221.2,1.2
-529251.38,531201.38,220.3,0.5
-530128.76,532078.76,220.7,0.9
-530642.53,532592.53,214.5,0.5
-531037.57,532987.57,211.4,2.2
-531604.37,533554.37,204.4,0.6
-531982.24,533932.24,200.0,0.8
-532718.18,534668.18,195.1,0.7
-533093.56,535043.56,193.8,0.8
-533745.05,535695.05,190.5,1.7
-534228.47,536178.47,199.8,1.2
-535384.47,537334.47,199.4,0.8
-536490.76,538440.76,205.0,0.9
-537563.82,539513.82,206.4,0.7
-538633.82,540583.82,212.9,1.3
-539703.82,541653.82,211.2,0.7
-540790.21,542740.21,205.0,0.8
-541894.87,543844.87,203.6,1.2
-542935.99,544885.99,208.1,0.8
-543914.91,545864.91,210.3,1.6
-544880.15,546830.15,209.6,1.6
-545856.68,547806.68,209.7,0.8
-546820.78,548770.78,204.6,1.9
-547770.11,549720.11,202.5,1.6
-548280.73,550230.73,208.8,0.7
-548632.55,550582.55,213.6,0.9
-549431.09,551381.09,215.2,0.5
-550161.09,552111.09,219.9,0.5
-550731.56,552681.56,221.7,1.4
-551070.92,553020.92,222.3,0.9
-551295.99,553245.99,226.3,0.9
-551669.39,553619.39,222.1,1.1
-551858.65,553808.65,220.3,0.3
-552529.62,554479.62,223.6,1.1
-553208.35,555158.35,224.3,2.2
-553892.35,555842.35,226.7,1.2
-554457.02,556407.02,233.9,1.5
-554973.29,556923.29,241.0,1.4
-555248.65,557198.65,243.0,0.8
-555435.05,557385.05,249.1,2.1
-555707.14,557657.14,244.0,1.5
-555888.21,557838.21,250.5,0.8
-556204.56,558154.56,245.6,1.3
-556356.02,558306.02,240.4,0.9
-556827.69,558777.69,238.1,1.2
-557366.01,559316.01,234.5,1.0
-557686.76,559636.76,229.7,0.4
-557922.62,559872.62,230.2,0.7
-558486.62,560436.62,230.3,1.5
-559015.6,560965.6,228.3,0.9
-559500.74,561450.74,231.6,1.2
-559938.07,561888.07,231.9,1.2
-560360.49,562310.49,234.6,1.5
-560705.6,562655.6,234.1,0.9
-561184.85,563134.85,240.1,2.1
-561585.74,563535.74,242.3,0.5
-561977.9,563927.9,245.7,1.8
-562360.56,564310.56,245.8,0.5
-562774.36,564724.36,247.6,1.5
-563184.3,565134.3,251.4,1.7
-563588.96,565538.96,252.4,1.7
-563945.64,565895.64,252.6,1.0
-564295.3,566245.3,251.4,0.7
-564638.64,566588.64,253.7,0.8
-564968.35,566918.35,254.3,1.6
-565289.49,567239.49,253.9,0.7
-565598.65,567548.65,254.5,1.6
-565934.89,567884.89,253.2,0.9
-566254.14,568204.14,253.9,1.2
-566584.24,568534.24,252.8,1.1
-566980.15,568930.15,253.0,0.6
-567364.59,569314.59,250.2,0.4
-567733.93,569683.93,251.3,1.3
-568117.25,570067.25,250.0,1.3
-568513.46,570463.46,251.3,1.3
-568912.13,570862.13,251.8,1.2
-569311.44,571261.44,251.8,1.3
-569683.36,571633.36,249.6,0.5
-570024.69,571974.69,251.6,1.7
-570365.5,572315.5,250.3,1.04
-570719.87,572669.87,246.31,1.15
-571103.52,573053.52,247.66,0.68
-571525.75,573475.75,249.19,1.08
-571963.02,573913.02,248.72,0.39
-572414.65,574364.65,251.77,1.78
-572856.0,574806.0,251.86,0.7
-573283.96,575233.96,252.08,1.3
-573704.53,575654.53,248.86,0.98
-574162.85,576112.85,252.54,0.52
-574649.1,576599.1,252.9,1.06
-575165.1,577115.1,251.3,1.06
-575703.85,577653.85,251.34,1.13
-576246.35,578196.35,251.08,0.6
-576792.35,578742.35,249.06,0.48
-577330.55,579280.55,252.92,1.07
-577883.12,579833.12,251.47,1.8
-578260.5,580210.5,244.14,1.67
-578451.78,580401.78,243.81,0.87
-578864.0,580814.0,236.17,0.3
-579168.65,581118.65,230.26,0.57
-579596.53,581546.53,225.21,1.57
-579978.3,581928.3,219.41,0.81
-580504.53,582454.53,215.45,1.07
-580886.3,582836.3,209.88,1.18
-581624.25,583574.25,206.68,0.51
-582008.8,583958.8,210.64,0.64
-584770.84,586720.84,223.96,0.87
-585221.85,587171.85,225.99,1.45
-585938.67,587888.67,234.4,0.5
-586329.35,588279.35,238.78,0.98
-586990.9,588940.9,246.35,1.8
-587475.35,589425.35,250.2,0.4
-588090.15,590040.15,248.1,0.56
-588538.8,590488.8,243.56,0.76
-589069.47,591019.47,237.38,0.75
-590433.47,592383.47,225.68,1.13
-590835.52,592785.52,229.39,1.25
-591611.25,593561.25,233.16,0.28
-592096.75,594046.75,238.15,0.89
-592913.81,594863.81,237.98,1.05
-593486.47,595436.47,232.92,0.6
-594271.56,596221.56,221.22,1.77
-594841.13,596791.13,216.44,0.91
-595853.61,597803.61,216.27,1.48
-596379.75,598329.75,219.02,1.0
-597268.22,599218.22,225.97,1.14
-597864.63,599814.63,229.38,1.39
-599305.15,601255.15,232.45,1.3
-600650.75,602600.75,237.86,0.79
-601999.15,603949.15,239.14,1.09
-603353.15,605303.15,244.53,0.7
-604675.91,606625.91,248.48,1.68
-606029.3,607979.3,254.58,1.22
-607297.3,609247.3,259.22,1.82
-608479.5,610429.5,257.74,0.46
-609601.01,611551.01,257.82,2.11
-609650.63,611600.63,259.68,1.16
-610811.97,612761.97,258.14,1.41
-611992.8,613942.8,256.19,0.39
-613190.6,615140.6,252.75,1.06
-614349.12,616299.12,252.9,0.62
-614406.6,616356.6,252.73,0.94
-615659.57,617609.57,252.64,1.06
-617003.75,618953.75,248.29,1.0
-618333.75,620283.75,245.89,0.29
-619701.45,621651.45,243.53,0.81
-621000.73,622950.73,243.89,2.84
-621104.95,623054.95,239.19,0.83
-622546.95,624496.95,237.93,1.02
-623447.92,625397.92,235.02,0.35
-624097.5,626047.5,228.51,0.88
-625019.43,626969.43,215.71,0.48
-625880.1,627830.1,205.76,0.94
-627189.62,629139.62,199.52,0.77
-627819.85,629769.85,205.27,0.87
-627916.1,629866.1,200.78,0.5
-629576.32,631526.32,200.46,1.81
-630406.94,632356.94,196.5,1.51
-632127.54,634077.54,193.1,1.55
-632931.14,634881.14,195.95,1.53
-633059.03,635009.03,194.86,1.76
-634571.56,636521.56,194.0,0.66
-635764.37,637714.37,195.33,1.85
-637468.27,639418.27,188.85,0.96
-638422.25,640372.25,190.18,0.5
-640124.6,642074.6,191.38,1.05
-640906.65,642856.65,191.56,1.13
-642350.83,644300.83,195.31,1.25
-643200.65,645150.65,195.82,0.95
-644426.95,646376.95,189.89,2.02
-645304.85,647254.85,191.85,1.0
-646662.42,648612.42,193.48,0.74
-647241.1,649191.1,196.17,0.44
-648398.46,650348.46,189.25,1.22
-648997.1,650947.1,193.44,0.71
-650154.26,652104.26,187.27,0.54
-650758.95,652708.95,186.79,0.97
-651780.25,653730.25,192.87,1.85
-652488.65,654438.65,194.82,0.98
-653574.35,655524.35,200.0,0.53
-654182.65,656132.65,200.35,0.75
-655231.09,657181.09,192.93,0.65
-655704.21,657654.21,189.23,1.78
-655772.0,657722.0,190.88,0.87
-656814.1,658764.1,184.1,0.29
-657343.82,659293.82,187.38,1.06
-657461.9,659411.9,185.68,0.41
-658513.55,660463.55,188.43,0.95
-659168.32,661118.32,193.97,0.99
-659265.9,661215.9,191.59,0.77
-660332.18,662282.18,189.69,1.52
-660846.61,662796.61,193.91,2.12
-660927.55,662877.55,190.86,1.02
-661987.52,663937.52,191.02,1.2
-662370.4,664320.4,192.55,1.3
-662458.09,664408.09,187.77,0.83
-663371.94,665321.94,180.17,1.12
-663886.52,665836.52,180.54,1.12
-664803.36,666753.36,174.77,1.04
-665459.86,667409.86,173.71,1.38
-666465.26,668415.26,177.71,0.68
-666965.54,668915.54,180.67,0.71
-667869.3,669819.3,187.66,0.18
-668346.32,670296.32,191.51,0.92
-669120.75,671070.75,194.88,0.97
-669507.93,671457.93,196.83,0.69
-670200.88,672150.88,194.79,0.58
-670811.38,672761.38,197.13,0.99
-671746.11,673696.11,201.12,1.0
-672279.38,674229.38,204.67,0.73
-673078.4,675028.4,211.69,0.58
-673456.53,675406.53,216.12,0.81
-674580.74,676530.74,222.57,0.76
-675202.31,677152.31,219.96,0.61
-675650.74,677600.74,216.59,0.93
-676378.18,678328.18,218.21,1.38
-676791.62,678741.62,220.09,1.52
-677505.37,679455.37,229.16,0.81
-677785.17,679735.17,232.7,0.9
-678362.58,680312.58,233.61,0.55
-678677.61,680627.61,233.11,1.16
-679275.67,681225.67,225.81,1.21
-679719.93,681669.93,227.9,1.32
-680393.71,682343.71,221.31,0.89
-680790.09,682740.09,219.14,0.95
-681507.86,683457.86,220.24,1.68
-681878.75,683828.75,222.7,0.6
-682473.68,684423.68,225.64,1.65
-682808.06,684758.06,224.36,1.29
-683344.84,685294.84,221.82,0.77
-683729.87,685679.87,220.62,0.7
-684319.11,686269.11,220.63,1.39
-684631.81,686581.81,222.62,1.05
-685204.04,687154.04,222.7,1.05
-685495.5,687445.5,222.97,1.24
-686050.38,688000.38,226.73,1.0
-686350.13,688300.13,227.65,1.34
-686859.87,688809.87,227.64,1.14
-687207.83,689157.83,230.67,1.66
-687743.26,689693.26,232.07,1.29
-688001.45,689951.45,232.27,1.49
-688524.65,690474.65,235.8,0.99
-688786.39,690736.39,236.45,0.53
-689271.83,691221.83,239.29,1.05
-689517.67,691467.67,238.42,1.24
-690017.96,691967.96,239.38,1.95
-690368.34,692318.34,243.56,0.56
-690882.46,692832.46,239.3,1.27
-691127.09,693077.09,238.47,2.15
-691624.04,693574.04,243.7,2.1
-691871.29,693821.29,237.76,0.84
-692330.35,694280.35,239.34,0.99
-692586.82,694536.82,240.46,0.71
-692999.14,694949.14,239.31,0.91
-693309.26,695259.26,239.8,1.42
-693782.31,695732.31,236.8,0.57
-694031.88,695981.88,238.74,1.46
-694484.89,696434.89,238.05,1.52
-694694.83,696644.83,238.13,1.28
-695140.29,697090.29,239.44,0.96
-695392.45,697342.45,238.42,1.11
-695796.68,697746.68,239.88,1.27
-696089.0,698039.0,241.03,0.79
-696555.54,698505.54,240.9,1.92
-696803.23,698753.23,241.83,0.73
-697265.75,699215.75,238.86,1.02
-697489.02,699439.02,239.01,0.65
-697914.71,699864.71,239.73,0.8
-698153.69,700103.69,237.21,0.55
-698535.02,700485.02,236.72,0.65
-698864.84,700814.84,236.61,0.48
-699318.53,701268.53,235.42,0.97
-699574.52,701524.52,232.46,0.54
-700043.15,701993.15,230.88,1.02
-700250.92,702200.92,232.16,0.75
-700784.27,702734.27,232.18,1.62
-701059.98,703009.98,230.59,0.26
-701518.52,703468.52,233.35,1.26
-701846.07,703796.07,232.28,1.12
-702300.52,704250.52,232.83,0.52
-702631.81,704581.81,233.54,1.36
-703103.34,705053.34,234.04,0.46
-703293.91,705243.91,235.09,1.68
-703776.95,705726.95,237.18,1.33
-704103.2,706053.2,237.66,1.57
-704542.95,706492.95,236.05,1.75
-704760.74,706710.74,236.05,0.93
-705360.7,707310.7,238.85,0.8
-705693.73,707643.73,233.51,1.46
-706249.68,708199.68,233.58,1.0
-706463.45,708413.45,233.11,1.01
-707009.15,708959.15,234.84,1.15
-707503.79,709453.79,231.43,0.86
-707959.55,709909.55,230.51,0.99
-708506.45,710456.45,227.03,0.73
-709033.36,710983.36,224.9,0.62
-709449.04,711399.04,225.39,0.29
-710071.47,712021.47,224.12,1.49
-710293.73,712243.73,224.0,1.45
-711362.5,713312.5,223.89,0.47
-712115.58,714065.58,227.64,1.61
-712453.8,714403.8,227.08,2.01
-713165.73,715115.73,223.14,0.59
-713615.38,715565.38,227.58,0.55
-714360.16,716310.16,213.6,0.66
-714635.91,716585.91,210.51,1.65
-715398.27,717348.27,198.43,1.17
-716005.48,717955.48,189.88,1.13
-716828.35,718778.35,193.46,1.64
-717337.18,719287.18,200.82,0.75
-718137.29,720087.29,212.03,0.84
-718640.76,720590.76,217.04,0.9
-719457.52,721407.52,219.2,1.18
-719739.86,721689.86,218.96,1.27
-720555.81,722505.81,216.1,2.02
-721044.59,722994.59,212.11,0.69
-721830.23,723780.23,212.55,1.77
-722192.0,724142.0,214.01,1.19
-723025.36,724975.36,210.48,0.37
-723524.43,725474.43,211.49,1.28
-724299.59,726249.59,211.08,1.07
-724626.86,726576.86,211.43,0.77
-725948.5,727898.5,210.07,1.62
-726643.9,728593.9,210.24,0.83
-727037.53,728987.53,211.08,0.78
-727886.94,729836.94,210.01,1.01
-728310.31,730260.31,212.17,1.72
-728958.31,730908.31,210.16,0.69
-729234.23,731184.23,210.7,0.34
-729911.0,731861.0,211.62,0.36
-730371.75,732321.75,213.73,1.89
-731043.5,732993.5,208.11,1.24
-731379.0,733329.0,207.72,0.81
-732072.23,734022.23,210.6,1.03
-732512.62,734462.62,216.15,1.81
-733184.57,735134.57,214.66,0.71
-733459.91,735409.91,217.88,0.83
-734157.31,736107.31,217.19,1.38
-734572.22,736522.22,213.14,1.66
-735319.82,737269.82,206.92,1.56
-735710.12,737660.12,204.52,1.49
-736630.99,738580.99,191.74,0.93
-737224.56,739174.56,185.61,0.33
-738156.45,740106.45,185.4,2.38
-738510.92,740460.92,183.39,2.4
-739379.9,741329.9,184.77,2.07
-739924.13,741874.13,189.14,1.31
-740694.75,742644.75,188.65,2.71
-741112.17,743062.17,187.33,0.72
-742009.08,743959.08,188.18,0.91
-742573.14,744523.14,188.97,0.9
-743721.05,745671.05,187.29,1.24
-744669.93,746619.93,190.24,0.42
-745227.04,747177.04,187.92,0.32
-745990.2,747940.2,187.95,1.27
-746386.88,748336.88,187.54,0.84
-747312.93,749262.93,188.68,1.26
-747864.18,749814.18,190.17,1.76
-748756.44,750706.44,192.08,1.57
-749086.25,751036.25,191.3,1.38
-750023.87,751973.87,193.55,1.88
-750615.88,752565.88,197.5,1.3
-751539.07,753489.07,195.43,0.34
-751984.65,753934.65,203.9,1.84
-753164.58,755114.58,199.05,1.7
-753636.83,755586.83,203.3,1.53
-754616.17,756566.17,208.1,1.96
-754900.68,756850.68,209.45,1.36
-755835.45,757785.45,213.61,2.15
-756412.42,758362.42,218.35,2.34
-757185.69,759135.69,222.72,1.5
-757611.88,759561.88,226.94,1.42
-757928.21,759878.21,223.02,0.68
-758158.27,760108.27,225.37,1.75
-758566.06,760516.06,225.62,2.33
-758989.94,760939.94,222.71,1.23
-759914.49,761864.49,216.64,0.75
-760216.04,762166.04,214.69,1.12
-761151.8,763101.8,214.0,1.86
-761820.58,763770.58,219.95,0.23
-762726.88,764676.88,223.89,2.06
-763231.82,765181.82,222.93,0.92
-763636.64,765586.64,233.66,3.05
-763901.48,765851.48,229.41,2.67
-764238.5,766188.5,232.12,1.38
-764858.91,766808.91,230.62,0.89
-765797.16,767747.16,224.86,1.56
-766167.26,768117.26,223.82,0.51
-767111.38,769061.38,221.64,0.41
-767701.42,769651.42,225.87,0.95
-768649.15,770599.15,230.63,2.11
-769070.67,771020.67,229.56,1.8
-769569.33,771519.33,236.32,1.64
-769862.67,771812.67,234.24,1.61
-770225.26,772175.26,239.71,1.87
-770524.56,772474.56,243.89,1.1
-770787.96,772737.96,246.49,2.17
-771045.64,772995.64,243.85,2.09
-771299.82,773249.82,246.03,2.45
-771734.47,773684.47,237.78,1.51
-772094.14,774044.14,239.23,1.0
-773008.81,774958.81,238.39,2.26
-773588.01,775538.01,241.74,0.87
-774382.26,776332.26,245.32,0.36
-774832.7,776782.7,248.92,0.63
-775731.75,777681.75,247.3,2.01
-776282.79,778232.79,252.46,0.67
-777107.98,779057.98,254.93,0.48
-777417.55,779367.55,254.69,1.13
-778238.92,780188.92,254.43,2.36
-778769.44,780719.44,252.52,0.93
-779612.83,781562.83,257.21,0.6
-779936.68,781886.68,251.51,0.7
-780778.45,782728.45,257.44,0.65
-781248.53,783198.53,255.02,1.06
-782311.76,784261.76,260.92,2.51
-783084.08,785034.08,255.85,0.66
-783569.05,785519.05,259.66,0.24
-784239.6,786189.6,262.23,2.57
-784613.26,786563.26,264.35,1.38
-785405.51,787355.51,269.36,1.26
-785853.57,787803.57,266.0,0.73
-786529.24,788479.24,257.2,1.52
-786741.87,788691.87,257.02,2.69
-787544.04,789494.04,238.64,0.78
-788003.01,789953.01,235.49,2.99
-788689.41,790639.41,227.38,0.84
-789106.88,791056.88,230.55,1.77
-790080.78,792030.78,224.69,3.67
-790667.3,792617.3,214.45,2.53
-791569.39,793519.39,213.36,1.6
-791902.76,793852.76,218.39,1.93
-793172.45,795122.45,208.79,1.67
-793737.32,795687.32,204.62,1.99
-794902.59,796852.59,198.79,2.1
-795428.82,797378.82,197.91,1.42
-796731.3,798681.3,200.49,2.19
-799286.06,801236.06,198.68,1.74
-800922.09,802872.09,198.66,0.98
-801759.25,803709.25,202.65,1.04
-801975.28,803925.28,202.92,2.06
-802059.87,804009.87,207.5,0.92
-802572.67,804522.67,204.86,1.64
-803182.44,805132.44,202.23,0.69
-803718.87,805668.87,207.29,2.2
